cocotb-tests/openocd-rbb-icode.vcd
$date
	Sat Jul 17 15:41:43 2021
$end
$version
	Icarus Verilog
$end
$timescale
	1ps
$end
$scope module sim $end
$var wire 14 ! benchsoc_bank_bus_adr [13:0] $end
$var wire 32 " benchsoc_bank_bus_dat_w [31:0] $end
$var wire 1 # benchsoc_bank_bus_we $end
$var wire 32 $ benchsoc_benchsoc_dat_r [31:0] $end
$var wire 14 % benchsoc_csr_interconnect_adr [13:0] $end
$var wire 32 & benchsoc_csr_interconnect_dat_r [31:0] $end
$var wire 32 ' benchsoc_csr_interconnect_dat_w [31:0] $end
$var wire 1 ( benchsoc_csr_interconnect_we $end
$var wire 8 ) benchsoc_mmap_dat_r [7:0] $end
$var wire 32 * benchsoc_rmap_bus_errors_r [31:0] $end
$var wire 32 + benchsoc_rmap_bus_errors_w [31:0] $end
$var wire 2 , benchsoc_rmap_reset0_w [1:0] $end
$var wire 32 - benchsoc_rmap_scratch0_r [31:0] $end
$var wire 32 . benchsoc_rmap_scratch0_w [31:0] $end
$var wire 14 / benchsoc_sram_bus_adr [13:0] $end
$var wire 32 0 benchsoc_sram_bus_dat_w [31:0] $end
$var wire 1 1 benchsoc_sram_bus_we $end
$var wire 32 2 bus_errors_status [31:0] $end
$var wire 1 3 bus_errors_we $end
$var wire 1 4 jev_tap_CAPTURE_DR $end
$var wire 1 5 jev_tap_CAPTURE_IR $end
$var wire 1 6 jev_tap_EXIT1_DR $end
$var wire 1 7 jev_tap_EXIT1_IR $end
$var wire 1 8 jev_tap_EXIT2_DR $end
$var wire 1 9 jev_tap_EXIT2_IR $end
$var wire 1 : jev_tap_PAUSE_DR $end
$var wire 1 ; jev_tap_PAUSE_IR $end
$var wire 1 < jev_tap_RUN_TEST_IDLE $end
$var wire 1 = jev_tap_SELECT_DR_SCAN $end
$var wire 1 > jev_tap_SELECT_IR_SCAN $end
$var wire 1 ? jev_tap_SHIFT_DR $end
$var wire 1 @ jev_tap_SHIFT_IR $end
$var wire 1 A jev_tap_TEST_LOGIC_RESET $end
$var wire 1 B jev_tap_UPDATE_DR $end
$var wire 1 C jev_tap_UPDATE_IR $end
$var wire 1 D jev_tap_jtag_clk $end
$var wire 1 E jev_tap_jtag_inv_clk $end
$var wire 1 F jtag_drck $end
$var wire 1 G jtag_reset $end
$var wire 1 H jtag_sel $end
$var wire 1 I jtag_shift $end
$var wire 1 J jtag_tck $end
$var wire 1 K jtag_tdi $end
$var wire 1 L jtag_tms $end
$var wire 1 M jtag_trst $end
$var wire 1 N por_clk $end
$var wire 1 O sim_trace $end
$var wire 1 P std_tap_jtag_clk $end
$var wire 1 Q std_tap_jtag_inv_clk $end
$var wire 1 R std_tap_jtag_inv_rst $end
$var wire 1 S std_tap_jtag_rst $end
$var wire 1 T sys_clk $end
$var wire 1 U sys_clk_1 $end
$var wire 1 V sys_rst $end
$var wire 4 W std_tap_state [3:0] $end
$var wire 1 X mohor_tdo $end
$var wire 1 Y jtaglet_tdo $end
$var wire 1 Z jev_tap_ir_tdo $end
$var wire 1 [ cpu_rst $end
$var wire 1 \ benchsoc_rmap_sel $end
$var wire 2 ] benchsoc_rmap_reset0_r [1:0] $end
$var wire 1 ^ benchsoc_mmap_sel $end
$var wire 6 _ benchsoc_mmap_adr [5:0] $end
$var reg 32 ` benchsoc_bank_bus_dat_r [31:0] $end
$var reg 14 a benchsoc_benchsoc_adr [13:0] $end
$var reg 32 b benchsoc_benchsoc_dat_w [31:0] $end
$var reg 1 ( benchsoc_benchsoc_we $end
$var reg 1 c benchsoc_benchsoc_wishbone_ack $end
$var reg 30 d benchsoc_benchsoc_wishbone_adr [29:0] $end
$var reg 1 e benchsoc_benchsoc_wishbone_cyc $end
$var reg 32 f benchsoc_benchsoc_wishbone_dat_r [31:0] $end
$var reg 32 g benchsoc_benchsoc_wishbone_dat_w [31:0] $end
$var reg 4 h benchsoc_benchsoc_wishbone_sel [3:0] $end
$var reg 1 i benchsoc_benchsoc_wishbone_stb $end
$var reg 1 j benchsoc_benchsoc_wishbone_we $end
$var reg 1 k benchsoc_mmap_sel_r $end
$var reg 1 l benchsoc_next_state $end
$var reg 1 m benchsoc_rmap_bus_errors_re $end
$var reg 1 n benchsoc_rmap_bus_errors_we $end
$var reg 1 o benchsoc_rmap_reset0_re $end
$var reg 1 p benchsoc_rmap_reset0_we $end
$var reg 1 q benchsoc_rmap_scratch0_re $end
$var reg 1 r benchsoc_rmap_scratch0_we $end
$var reg 32 s benchsoc_sram_bus_dat_r [31:0] $end
$var reg 1 t benchsoc_state $end
$var reg 1 u bus_error $end
$var reg 32 v bus_errors [31:0] $end
$var reg 1 w bus_errors_re $end
$var reg 1 x int_rst $end
$var reg 1 y jev_tap_bypass_tdo $end
$var reg 1 z jev_tap_bypassreg_dr $end
$var reg 1 { jev_tap_idcode_tdo $end
$var reg 32 | jev_tap_idcodereg_dr [31:0] $end
$var reg 5 } jev_tap_ir [4:0] $end
$var reg 1 ~ jev_tap_is_ongoing0 $end
$var reg 1 !" jev_tap_is_ongoing1 $end
$var reg 1 "" jev_tap_is_ongoing10 $end
$var reg 1 #" jev_tap_is_ongoing11 $end
$var reg 1 $" jev_tap_is_ongoing12 $end
$var reg 1 %" jev_tap_is_ongoing13 $end
$var reg 1 &" jev_tap_is_ongoing14 $end
$var reg 1 '" jev_tap_is_ongoing15 $end
$var reg 1 (" jev_tap_is_ongoing2 $end
$var reg 1 )" jev_tap_is_ongoing3 $end
$var reg 1 *" jev_tap_is_ongoing4 $end
$var reg 1 +" jev_tap_is_ongoing5 $end
$var reg 1 ," jev_tap_is_ongoing6 $end
$var reg 1 -" jev_tap_is_ongoing7 $end
$var reg 1 ." jev_tap_is_ongoing8 $end
$var reg 1 /" jev_tap_is_ongoing9 $end
$var reg 1 0" jev_tap_jtag_inv_rst $end
$var reg 1 1" jev_tap_jtag_rst $end
$var reg 16 2" jev_tap_tck_cnt [15:0] $end
$var reg 1 3" jev_tap_tdo_pre $end
$var reg 1 4" jtag_tdo $end
$var reg 6 5" memadr [5:0] $end
$var reg 1 6" reset_re $end
$var reg 2 7" reset_storage [1:0] $end
$var reg 1 8" scratch_re $end
$var reg 32 9" scratch_storage [31:0] $end
$var reg 1 :" soc_rst $end
$var reg 1 ;" std_tap_A $end
$var reg 1 <" std_tap_B $end
$var reg 1 =" std_tap_C $end
$var reg 1 >" std_tap_D $end
$var reg 16 ?" std_tap_std_tck_cnt [15:0] $end
$var reg 4 @" subfragments_next_state [3:0] $end
$var reg 4 A" subfragments_state [3:0] $end
$scope module jtaglet $end
$var wire 32 B" idcode [31:0] $end
$var wire 1 J tck $end
$var wire 1 K tdi $end
$var wire 1 L tms $end
$var wire 1 M trst $end
$var wire 32 C" userData_in [31:0] $end
$var wire 1 D" userOp_tdo $end
$var wire 1 E" userOp_ready $end
$var wire 8 F" userOp [7:0] $end
$var wire 1 G" userData_tdo $end
$var wire 32 H" userData_out [31:0] $end
$var wire 1 I" state_updateir $end
$var wire 1 J" state_updatedr $end
$var wire 1 K" state_tlr $end
$var wire 1 L" state_shiftir $end
$var wire 1 M" state_shiftdr $end
$var wire 1 N" state_captureir $end
$var wire 1 O" state_capturedr $end
$var wire 1 P" ir_tdo $end
$var wire 1 Q" idcode_tdo $end
$var wire 1 R" bypass_tdo $end
$var reg 4 S" ir_reg [3:0] $end
$var reg 16 T" jtaglet_cnt [15:0] $end
$var reg 1 Y tdo $end
$var reg 1 U" tdo_pre $end
$scope module bypass_reg $end
$var wire 1 V" dr_dataIn $end
$var wire 4 W" ir_reg [3:0] $end
$var wire 1 X" state_updatedr $end
$var wire 1 J tck $end
$var wire 1 K tdi $end
$var wire 1 R" tdo $end
$var wire 1 M trst $end
$var wire 1 K" state_tlr $end
$var wire 1 M" state_shiftdr $end
$var wire 1 O" state_capturedr $end
$var reg 1 Y" dr_dataOut $end
$var reg 1 Z" dr_dataOutReady $end
$var reg 1 [" dr_reg $end
$upscope $end
$scope module idcode_reg $end
$var wire 32 \" dr_dataIn [31:0] $end
$var wire 4 ]" ir_reg [3:0] $end
$var wire 1 ^" state_updatedr $end
$var wire 1 J tck $end
$var wire 1 K tdi $end
$var wire 1 M trst $end
$var wire 1 Q" tdo $end
$var wire 1 K" state_tlr $end
$var wire 1 M" state_shiftdr $end
$var wire 1 O" state_capturedr $end
$var reg 32 _" dr_dataOut [31:0] $end
$var reg 1 `" dr_dataOutReady $end
$var reg 32 a" dr_reg [31:0] $end
$upscope $end
$scope module jsm $end
$var wire 1 J tck $end
$var wire 1 L tms $end
$var wire 1 M trst $end
$var wire 1 I" state_updateir $end
$var wire 1 J" state_updatedr $end
$var wire 1 K" state_tlr $end
$var wire 1 L" state_shiftir $end
$var wire 1 M" state_shiftdr $end
$var wire 1 N" state_captureir $end
$var wire 1 O" state_capturedr $end
$var reg 4 b" state [3:0] $end
$upscope $end
$scope module userData_reg $end
$var wire 32 c" dr_dataIn [31:0] $end
$var wire 4 d" ir_reg [3:0] $end
$var wire 1 O" state_capturedr $end
$var wire 1 M" state_shiftdr $end
$var wire 1 K" state_tlr $end
$var wire 1 J" state_updatedr $end
$var wire 1 J tck $end
$var wire 1 K tdi $end
$var wire 1 M trst $end
$var wire 1 G" tdo $end
$var reg 32 e" dr_dataOut [31:0] $end
$var reg 1 f" dr_dataOutReady $end
$var reg 32 g" dr_reg [31:0] $end
$upscope $end
$scope module userOp_reg $end
$var wire 8 h" dr_dataIn [7:0] $end
$var wire 4 i" ir_reg [3:0] $end
$var wire 1 O" state_capturedr $end
$var wire 1 M" state_shiftdr $end
$var wire 1 K" state_tlr $end
$var wire 1 J" state_updatedr $end
$var wire 1 J tck $end
$var wire 1 K tdi $end
$var wire 1 M trst $end
$var wire 1 D" tdo $end
$var reg 8 j" dr_dataOut [7:0] $end
$var reg 1 E" dr_dataOutReady $end
$var reg 8 k" dr_reg [7:0] $end
$upscope $end
$upscope $end
$scope module tap_top $end
$var wire 1 l" bs_chain_tdi_i $end
$var wire 1 m" capture_dr_o $end
$var wire 1 n" debug_select_o $end
$var wire 1 o" debug_tdi_i $end
$var wire 1 p" extest_select_o $end
$var wire 1 q" mbist_select_o $end
$var wire 1 r" mbist_tdi_i $end
$var wire 1 s" pause_dr_o $end
$var wire 1 t" sample_preload_select_o $end
$var wire 1 u" shift_dr_o $end
$var wire 1 J tck_pad_i $end
$var wire 1 K tdi_pad_i $end
$var wire 1 v" tdo_o $end
$var wire 1 L tms_pad_i $end
$var wire 1 w" tms_reset $end
$var wire 1 M trst_pad_i $end
$var wire 1 x" update_dr_o $end
$var reg 1 y" bypass_reg $end
$var reg 1 z" bypass_select $end
$var reg 1 {" bypassed_tdo $end
$var reg 1 |" capture_dr $end
$var reg 1 }" capture_ir $end
$var reg 1 ~" debug_select $end
$var reg 1 !# exit1_dr $end
$var reg 1 "# exit1_ir $end
$var reg 1 ## exit2_dr $end
$var reg 1 $# exit2_ir $end
$var reg 1 %# extest_select $end
$var reg 32 &# idcode_reg [31:0] $end
$var reg 1 '# idcode_select $end
$var reg 1 (# idcode_tdo $end
$var reg 1 )# instruction_tdo $end
$var reg 5 *# jtag_ir [4:0] $end
$var reg 5 +# latched_jtag_ir [4:0] $end
$var reg 5 ,# latched_jtag_ir_neg [4:0] $end
$var reg 1 -# mbist_select $end
$var reg 1 .# pause_dr $end
$var reg 1 /# pause_ir $end
$var reg 1 0# run_test_idle $end
$var reg 1 1# sample_preload_select $end
$var reg 1 2# select_dr_scan $end
$var reg 1 3# select_ir_scan $end
$var reg 1 4# shift_dr $end
$var reg 1 5# shift_ir $end
$var reg 1 6# shift_ir_neg $end
$var reg 1 X tdo_pad_o $end
$var reg 1 7# tdo_padoe_o $end
$var reg 1 8# test_logic_reset $end
$var reg 1 9# tms_q1 $end
$var reg 1 :# tms_q2 $end
$var reg 1 ;# tms_q3 $end
$var reg 1 <# tms_q4 $end
$var reg 1 =# update_dr $end
$var reg 1 ># update_ir $end
$upscope $end
$upscope $end
$enddefinitions $end
#0
$dumpvars
x>#
x=#
x<#
x;#
x:#
x9#
x8#
x7#
x6#
x5#
x4#
x3#
x2#
x1#
x0#
x/#
x.#
x-#
bx ,#
bx +#
bx *#
x)#
x(#
x'#
bx &#
x%#
x$#
x##
x"#
x!#
x~"
x}"
x|"
x{"
xz"
xy"
xx"
0w"
0v"
xu"
xt"
xs"
zr"
xq"
xp"
zo"
xn"
xm"
zl"
b0 k"
b0 j"
b1110 i"
b0 h"
b0 g"
0f"
b0 e"
b1110 d"
bz c"
b1111 b"
b0 a"
0`"
b0 _"
0^"
b1110 ]"
b1 \"
0["
0Z"
0Y"
0X"
b1110 W"
0V"
0U"
b0 T"
b1110 S"
0R"
0Q"
0P"
0O"
0N"
0M"
0L"
1K"
0J"
0I"
b0 H"
0G"
b0 F"
0E"
0D"
bz C"
b1 B"
b1111 A"
b1100 @"
b0 ?"
1>"
1="
1<"
1;"
0:"
b10010001101000101011001111000 9"
08"
b0 7"
06"
b0 5"
04"
03"
b0 2"
01"
00"
0/"
0."
0-"
0,"
0+"
0*"
0)"
0("
0'"
0&"
0%"
0$"
0#"
0""
0!"
1~
b0 }
b10000011000100000101000011011101 |
0{
1z
0y
0x
0w
b0 v
0u
0t
b0 s
0r
0q
1p
0o
0n
0m
0l
0k
0j
0i
b0 h
b0 g
b0 f
0e
b0 d
0c
b0 b
b0 a
b0 `
b0 _
0^
b0 ]
1\
0[
0Z
xY
xX
b1111 W
0V
1U
1T
0S
0R
1Q
0P
1O
1N
0M
0L
0K
0J
zI
zH
zG
zF
1E
0D
0C
0B
1A
0@
0?
0>
0=
0<
0;
0:
09
08
07
06
05
04
03
b0 2
01
b0 0
b0 /
b10010001101000101011001111000 .
b0 -
b0 ,
b0 +
b0 *
b1001100 )
0(
b0 '
b0 &
b0 %
b0 $
0#
b0 "
b0 !
$end
#5000
0U
0N
0T
#10000
1U
1N
1T
#15000
0U
0N
0T
#20000
1U
1N
1T
#25000
0U
0N
0T
#30000
1U
1N
1T
#35000
0U
0N
0T
#40000
1U
1N
1T
#45000
0U
0N
0T
#50000
1S
1R
1M
1V
1U
1N
1T
#51000
0z"
0n"
0~"
0q"
0-#
1'#
0t"
01#
0p"
0%#
18#
00#
02#
0m"
0|"
0u"
04#
0!#
0s"
0.#
0##
0x"
0=#
03#
0}"
05#
0"#
0/#
0$#
0>#
b0 *#
0y"
b10 +#
#55000
0U
0N
0T
#60000
1U
1N
1T
#65000
0U
0N
0T
#70000
1U
1N
1T
#75000
0U
0N
0T
#80000
1U
1N
1T
#85000
0U
0N
0T
#90000
1U
1N
1T
#95000
0U
0N
0T
#100000
0S
0R
0M
0V
1U
1N
1T
#105000
0U
0N
0T
#110000
1U
1N
1T
#115000
0U
0N
0T
#120000
1U
1N
1T
#125000
0U
0N
0T
#130000
1U
1N
1T
#135000
0U
0N
0T
#140000
1U
1N
1T
#145000
0U
0N
0T
#150001
1U
1N
1T
#155001
0U
0N
0T
#160001
1U
1N
1T
#165001
0U
0N
0T
#170001
1U
1N
1T
#175001
0U
0N
0T
#180001
1U
1N
1T
#185001
0U
0N
0T
#190001
1U
1N
1T
#195001
0U
0N
0T
#200001
1U
1N
1T
#205001
0U
0N
0T
#210001
1U
1N
1T
#215001
0U
0N
0T
#220001
1U
1N
1T
#225001
0U
0N
0T
#230001
1U
1N
1T
#235001
0U
0N
0T
#240001
1U
1N
1T
#245001
0U
0N
0T
#250001
1U
1N
1T
#255001
0U
0N
0T
#260001
1U
1N
1T
#265001
0U
0N
0T
#270001
1U
1N
1T
#275001
0U
0N
0T
#280001
1U
1N
1T
#285001
0U
0N
0T
#290001
1U
1N
1T
#295001
0U
0N
0T
#300001
xw"
b1111 @"
1L
1U
1N
1T
#305001
0U
0N
0T
#310001
1U
1N
1T
#315001
0U
0N
0T
#320001
1U
1N
1T
#325001
b1 2"
b1 ?"
b1 T"
0E
0Q
1D
1P
1J
0U
0N
0T
#326001
19#
b11000100000101000011011101 &#
#330001
1U
1N
1T
#335001
0U
0N
0T
#340001
1U
1N
1T
#345001
0U
0N
0T
#350001
0Y
1E
1Q
0D
0P
0J
1U
1N
1T
#351001
1X
b10 ,#
06#
07#
0{"
1(#
0)#
#355001
0U
0N
0T
#360001
1U
1N
1T
#365001
0U
0N
0T
#370001
1U
1N
1T
#375001
b10 2"
b10 ?"
b10 T"
0E
0Q
1D
1P
1J
0U
0N
0T
#376001
1:#
#380001
1U
1N
1T
#385001
0U
0N
0T
#390001
1U
1N
1T
#395001
0U
0N
0T
#400001
1E
1Q
0w"
b1100 @"
0D
0P
0J
0L
1U
1N
1T
#405001
0U
0N
0T
#410001
1U
1N
1T
#415001
0U
0N
0T
#420001
1U
1N
1T
#425001
1<
1!"
0A
0~
b1100 @"
b1100 A"
b11 2"
0;"
b1100 W
0<"
b11 ?"
b11 T"
0E
0Q
1D
1P
1J
0U
0N
0T
#426001
10#
08#
1;#
09#
#430001
1U
1N
1T
#435001
0U
0N
0T
#440001
1U
1N
1T
#445001
0U
0N
0T
#450001
1E
1Q
b111 @"
0D
0P
0J
1L
1U
1N
1T
#455001
0U
0N
0T
#460001
1U
1N
1T
#465001
0U
0N
0T
#470001
1U
1N
1T
#475001
0A
0~
0<
0!"
1=
1("
b100 @"
b111 A"
b100 2"
1;"
1<"
b111 W
0>"
b100 ?"
b100 T"
0E
0Q
1D
1P
1J
0U
0N
0T
#476001
00#
12#
1<#
0:#
19#
#480001
1U
1N
1T
#485001
0U
0N
0T
#490001
1U
1N
1T
#495001
0U
0N
0T
#500001
1E
1Q
0D
0P
0J
1U
1N
1T
#505001
0U
0N
0T
#510001
1U
1N
1T
#515001
0U
0N
0T
#520001
1U
1N
1T
#525001
1>
1/"
0=
0("
0A
0~
b1111 @"
b100 A"
b101 2"
0;"
b100 W
0<"
b101 ?"
b101 T"
0E
0Q
1D
1P
1J
0U
0N
0T
#526001
13#
02#
0;#
1:#
#530001
1U
1N
1T
#535001
0U
0N
0T
#540001
1U
1N
1T
#545001
0U
0N
0T
#550001
1E
1Q
b1110 @"
0D
0P
0J
0L
1U
1N
1T
#555001
0U
0N
0T
#560001
1U
1N
1T
#565001
0U
0N
0T
#570001
1U
1N
1T
#575001
0A
0~
0>
0/"
15
1""
b1010 @"
b1110 A"
b110 2"
1<"
b1110 W
1>"
b110 ?"
b110 T"
0E
0Q
1D
1P
1J
0U
0N
0T
#576001
03#
1}"
0<#
1;#
09#
#580001
1U
1N
1T
#585001
0U
0N
0T
#590001
1U
1N
1T
#595001
0U
0N
0T
#600001
1E
1Q
0D
0P
0J
1U
1N
1T
#605001
0U
0N
0T
#610001
1U
1N
1T
#615001
0U
0N
0T
#620001
1U
1N
1T
#625001
13"
1@
1#"
05
0""
0A
0~
b1010 @"
1Z
b1010 A"
b111 2"
b101 }
b1010 W
0="
b111 ?"
b111 T"
0E
0Q
1D
1P
1J
0U
0N
0T
#626001
b101 *#
15#
0}"
1<#
0:#
#630001
1U
1N
1T
#635001
0U
0N
0T
#640001
1U
1N
1T
#645001
0U
0N
0T
#650001
14"
1E
1Q
0D
0P
0J
1U
1N
1T
#651001
16#
17#
1)#
#655001
0U
0N
0T
#660001
1U
1N
1T
#665001
0U
0N
0T
#670001
1U
1N
1T
#675001
0U
0N
0T
#680001
1U
1N
1T
#685001
0U
0N
0T
#690001
1U
1N
1T
#695001
0U
0N
0T
#700001
03"
0Z
b1000 2"
b10 }
b1000 ?"
b1000 T"
0E
0Q
1D
1P
1J
1U
1N
1T
#701001
b10 *#
0;#
#705001
0U
0N
0T
#710001
1U
1N
1T
#715001
0U
0N
0T
#720001
1U
1N
1T
#725001
04"
1E
1Q
0D
0P
0J
1v"
1K
0U
0N
0T
#726001
0X
0)#
#730001
1U
1N
1T
#735001
0U
0N
0T
#740001
1U
1N
1T
#745001
0U
0N
0T
#750001
13"
1Z
b1001 2"
b10001 }
b1001 ?"
b1001 T"
0E
0Q
1D
1P
1J
1U
1N
1T
#751001
b10001 *#
0<#
#755001
0U
0N
0T
#760001
1U
1N
1T
#765001
0U
0N
0T
#770001
1U
1N
1T
#775001
14"
1E
1Q
0D
0P
0J
0v"
0K
0U
0N
0T
#776001
1X
1)#
#780001
1U
1N
1T
#785001
0U
0N
0T
#790001
1U
1N
1T
#795001
0U
0N
0T
#800001
03"
0Z
b1010 2"
b1000 }
b1010 ?"
b1010 T"
0E
0Q
1D
1P
1J
1U
1N
1T
#801001
b1000 *#
#805001
0U
0N
0T
#810001
1U
1N
1T
#815001
0U
0N
0T
#820001
1U
1N
1T
#825001
04"
1E
1Q
0D
0P
0J
0U
0N
0T
#826001
0X
0)#
#830001
1U
1N
1T
#835001
0U
0N
0T
#840001
1U
1N
1T
#845001
0U
0N
0T
#850001
b1011 2"
b100 }
b1011 ?"
b1011 T"
0E
0Q
1D
1P
1J
1U
1N
1T
#851001
b100 *#
#855001
0U
0N
0T
#860001
1U
1N
1T
#865001
0U
0N
0T
#870001
1U
1N
1T
#875001
1E
1Q
b1001 @"
0D
0P
0J
1L
0U
0N
0T
#880001
1U
1N
1T
#885001
0U
0N
0T
#890001
1U
1N
1T
#895001
0U
0N
0T
#900001
0A
0~
17
1$"
0@
0#"
b1101 @"
b1001 A"
b1100 2"
b10 }
1;"
b1001 W
0<"
b1100 ?"
b1100 T"
0E
0Q
1D
1P
1J
1U
1N
1T
#901001
05#
1"#
b10 *#
19#
#905001
0U
0N
0T
#910001
1U
1N
1T
#915001
0U
0N
0T
#920001
1U
1N
1T
#925001
1E
1Q
0D
0P
0J
0U
0N
0T
#926001
1X
07#
06#
#930001
1U
1N
1T
#935001
0U
0N
0T
#940001
1U
1N
1T
#945001
0U
0N
0T
#950001
07
0$"
1C
1'"
0A
0~
b111 @"
b1101 A"
b1101 2"
b1101 W
1="
b1101 ?"
b1101 T"
0E
0Q
1D
1P
1J
1U
1N
1T
#951001
1>#
0"#
1:#
#955001
0U
0N
0T
#960001
1U
1N
1T
#965001
0U
0N
0T
#970001
1U
1N
1T
#975001
1E
1Q
b1100 @"
0D
0P
0J
0L
0U
0N
0T
#980001
1U
1N
1T
#985001
0U
0N
0T
#990001
1U
1N
1T
#995001
0U
0N
0T
#1000001
0A
0~
1<
1!"
0C
0'"
b1100 @"
b1100 A"
b1110 2"
b1100 W
0;"
b1110 ?"
b1110 T"
0E
0Q
1D
1P
1J
1U
1N
1T
#1001001
10#
0>#
1;#
09#
#1005001
0U
0N
0T
#1010001
1U
1N
1T
#1015001
0U
0N
0T
#1020001
1U
1N
1T
#1025001
1E
1Q
0D
0P
0J
0U
0N
0T
#1030001
1U
1N
1T
#1035001
0U
0N
0T
#1040001
1U
1N
1T
#1045001
0U
0N
0T
#1050001
b111 @"
1L
1U
1N
1T
#1055001
0U
0N
0T
#1060001
1U
1N
1T
#1065001
0U
0N
0T
#1070001
1U
1N
1T
#1075001
1=
1("
0<
0!"
0A
0~
b100 @"
b111 A"
b1111 2"
1;"
1<"
b111 W
0>"
b1111 ?"
b1111 T"
0E
0Q
1D
1P
1J
0U
0N
0T
#1076001
12#
00#
1<#
0:#
19#
#1080001
1U
1N
1T
#1085001
0U
0N
0T
#1090001
1U
1N
1T
#1095001
0U
0N
0T
#1100001
1E
1Q
b110 @"
0D
0P
0J
0L
1U
1N
1T
#1105001
0U
0N
0T
#1110001
1U
1N
1T
#1115001
0U
0N
0T
#1120001
1U
1N
1T
#1125001
0A
0~
0=
0("
14
1)"
b10 @"
b110 A"
b10000 2"
b110 W
0;"
b10000 ?"
b10000 T"
0E
0Q
1D
1P
1J
0U
0N
0T
#1126001
02#
1m"
1|"
0;#
1:#
09#
#1130001
1U
1N
1T
#1135001
0U
0N
0T
#1140001
1U
1N
1T
#1145001
0U
0N
0T
#1150001
1E
1Q
0D
0P
0J
1U
1N
1T
#1155001
0U
0N
0T
#1160001
1U
1N
1T
#1165001
0U
0N
0T
#1170001
1U
1N
1T
#1175001
13"
1y
1{
1?
1*"
04
0)"
0A
0~
b10 @"
b10 A"
b10001 2"
b10 W
0="
b10001 ?"
b10001 T"
0E
0Q
1D
1P
1J
0U
0N
0T
#1176001
1u"
14#
0m"
0|"
0<#
1;#
0:#
#1180001
1U
1N
1T
#1185001
0U
0N
0T
#1190001
1U
1N
1T
#1195001
0U
0N
0T
#1200001
14"
1E
1Q
0D
0P
0J
1U
1N
1T
#1201001
17#
#1205001
0U
0N
0T
#1210001
1U
1N
1T
#1215001
0U
0N
0T
#1220001
1U
1N
1T
#1225001
1v"
1K
0U
0N
0T
#1230001
1U
1N
1T
#1235001
0U
0N
0T
#1240001
1U
1N
1T
#1245001
0U
0N
0T
#1250001
03"
0{
b11000001100010000010100001101110 |
b10010 2"
b10010 ?"
b10010 T"
0E
0Q
1D
1P
1J
1U
1N
1T
#1251001
1y"
b10000001100010000010100001101110 &#
1<#
0;#
#1255001
0U
0N
0T
#1260001
1U
1N
1T
#1265001
0U
0N
0T
#1270001
1U
1N
1T
#1275001
04"
1E
1Q
0D
0P
0J
0U
0N
0T
#1276001
0X
0(#
1{"
#1280001
1U
1N
1T
#1285001
0U
0N
0T
#1290001
1U
1N
1T
#1295001
0U
0N
0T
#1300001
13"
1{
b11100000110001000001010000110111 |
b10011 2"
b10011 ?"
b10011 T"
0E
0Q
1D
1P
1J
1U
1N
1T
#1301001
0<#
b11000000110001000001010000110111 &#
#1305001
0U
0N
0T
#1310001
1U
1N
1T
#1315001
0U
0N
0T
#1320001
1U
1N
1T
#1325001
14"
1E
1Q
0D
0P
0J
0U
0N
0T
#1326001
1X
1(#
#1330001
1U
1N
1T
#1335001
0U
0N
0T
#1340001
1U
1N
1T
#1345001
0U
0N
0T
#1350001
13"
1{
b11110000011000100000101000011011 |
b10100 2"
b10100 ?"
b10100 T"
0E
0Q
1D
1P
1J
1U
1N
1T
#1351001
b11100000011000100000101000011011 &#
#1355001
0U
0N
0T
#1360001
1U
1N
1T
#1365001
0U
0N
0T
#1370001
1U
1N
1T
#1375001
1E
1Q
0D
0P
0J
0U
0N
0T
#1380001
1U
1N
1T
#1385001
0U
0N
0T
#1390001
1U
1N
1T
#1395001
0U
0N
0T
#1400001
13"
1{
b11111000001100010000010100001101 |
b10101 2"
b10101 ?"
b10101 T"
0E
0Q
1D
1P
1J
1U
1N
1T
#1401001
b11110000001100010000010100001101 &#
#1405001
0U
0N
0T
#1410001
1U
1N
1T
#1415001
0U
0N
0T
#1420001
1U
1N
1T
#1425001
1E
1Q
0D
0P
0J
0v"
0K
0U
0N
0T
#1430001
1U
1N
1T
#1435001
0U
0N
0T
#1440001
1U
1N
1T
#1445001
0U
0N
0T
#1450001
03"
0y
0{
0z
b1111100000110001000001010000110 |
b10110 2"
b10110 ?"
b10110 T"
0E
0Q
1D
1P
1J
1U
1N
1T
#1451001
0y"
b1111000000110001000001010000110 &#
#1455001
0U
0N
0T
#1460001
1U
1N
1T
#1465001
0U
0N
0T
#1470001
1U
1N
1T
#1475001
04"
1E
1Q
0D
0P
0J
1v"
1K
0U
0N
0T
#1476001
0X
0(#
0{"
#1480001
1U
1N
1T
#1485001
0U
0N
0T
#1490001
1U
1N
1T
#1495001
0U
0N
0T
#1500001
13"
1y
1{
1z
b10111110000011000100000101000011 |
b10111 2"
b10111 ?"
b10111 T"
0E
0Q
1D
1P
1J
1U
1N
1T
#1501001
1y"
b10111100000011000100000101000011 &#
#1505001
0U
0N
0T
#1510001
1U
1N
1T
#1515001
0U
0N
0T
#1520001
1U
1N
1T
#1525001
14"
1E
1Q
0D
0P
0J
0U
0N
0T
#1526001
1X
1{"
1(#
#1530001
1U
1N
1T
#1535001
0U
0N
0T
#1540001
1U
1N
1T
#1545001
0U
0N
0T
#1550001
13"
1{
b11011111000001100010000010100001 |
b11000 2"
b11000 ?"
b11000 T"
0E
0Q
1D
1P
1J
1U
1N
1T
#1551001
b11011110000001100010000010100001 &#
#1555001
0U
0N
0T
#1560001
1U
1N
1T
#1565001
0U
0N
0T
#1570001
1U
1N
1T
#1575001
1E
1Q
0D
0P
0J
0U
0N
0T
#1580001
1U
1N
1T
#1585001
0U
0N
0T
#1590001
1U
1N
1T
#1595001
0U
0N
0T
#1600001
03"
0{
b11101111100000110001000001010000 |
b11001 2"
b11001 ?"
b11001 T"
0E
0Q
1D
1P
1J
1U
1N
1T
#1601001
b11101111000000110001000001010000 &#
#1605001
0U
0N
0T
#1610001
1U
1N
1T
#1615001
0U
0N
0T
#1620001
1U
1N
1T
#1625001
04"
1E
1Q
0D
0P
0J
0v"
0K
0U
0N
0T
#1626001
0X
0(#
#1630001
1U
1N
1T
#1635001
0U
0N
0T
#1640001
1U
1N
1T
#1645001
0U
0N
0T
#1650001
0y
0z
b1110111110000011000100000101000 |
b11010 2"
b11010 ?"
b11010 T"
0E
0Q
1D
1P
1J
1U
1N
1T
#1651001
0y"
b1110111100000011000100000101000 &#
#1655001
0U
0N
0T
#1660001
1U
1N
1T
#1665001
0U
0N
0T
#1670001
1U
1N
1T
#1675001
1E
1Q
0D
0P
0J
1v"
1K
0U
0N
0T
#1676001
0{"
#1680001
1U
1N
1T
#1685001
0U
0N
0T
#1690001
1U
1N
1T
#1695001
0U
0N
0T
#1700001
1y
1z
b10111011111000001100010000010100 |
b11011 2"
b11011 ?"
b11011 T"
0E
0Q
1D
1P
1J
1U
1N
1T
#1701001
1y"
b10111011110000001100010000010100 &#
#1705001
0U
0N
0T
#1710001
1U
1N
1T
#1715001
0U
0N
0T
#1720001
1U
1N
1T
#1725001
1E
1Q
0D
0P
0J
0U
0N
0T
#1726001
1{"
#1730001
1U
1N
1T
#1735001
0U
0N
0T
#1740001
1U
1N
1T
#1745001
0U
0N
0T
