examples/vcd-dumps/drscan-22-00DEADBEEF-80.vcd
$date
	2021-07-06 21:10
$end
$timescale 4000ps $end
$scope 1ps $end
$var wire 1 ! main_jtag_phy_altera_reserved_tck $end
$var wire 1 " main_jtag_phy_altera_reserved_tdi $end
$var wire 1 # main_jtag_phy_altera_reserved_tms $end
$var wire 1 $ main_jtag_phy_capture $end
$var wire 1 % main_jtag_phy_drck $end
$var wire 1 & main_jtag_phy_reset $end
$var wire 1 ' main_jtag_phy_runtest $end
$var wire 1 ( main_jtag_phy_sel $end
$var wire 1 ) main_jtag_phy_shift $end
$var wire 1 * main_jtag_phy_tck $end
$var wire 1 + main_jtag_phy_tckcore $end
$var wire 1 , main_jtag_phy_tckutap $end
$var wire 1 - main_jtag_phy_tdi $end
$var wire 1 . main_jtag_phy_tdicore $end
$var wire 1 / main_jtag_phy_tdiutap $end
$var wire 1 0 main_jtag_phy_tdo $end
$var wire 1 1 main_jtag_phy_tms $end
$var wire 1 2 main_jtag_phy_tmscore $end
$var wire 1 3 main_jtag_phy_tmsutap $end
$var wire 1 4 main_jtag_phy_update $end
$var wire 1 5 main_jtag_hello_buf $end
$var wire 16 6 main_jtag_hello_drck_cnt $end
$var wire 1 7 main_capture_dr $end
$var wire 1 8 main_capture_ir $end
$var wire 1 9 main_exit1_dr $end
$var wire 1 : main_exit1_ir $end
$var wire 1 ; main_exit2_dr $end
$var wire 1 < main_exit2_ir $end
$var wire 1 = main_pause_dr $end
$var wire 1 > main_pause_ir $end
$var wire 1 ? main_run_test_idle $end
$var wire 1 @ main_select_dr_scan $end
$var wire 1 A main_select_ir_scan $end
$var wire 1 B main_shift_dr $end
$var wire 1 C main_shift_ir $end
$var wire 16 D main_tck_cnt $end
$var wire 1 E main_test_logic_reset $end
$var wire 1 F main_update_dr $end
$var wire 1 G main_update_ir $end
$var wire 1 H scope_clk $end
$var wire 1 I scope_trig $end
$unscope  $end
$enddefinitions  $end
$dumpvars
bx !
bx "
bx #
bx $
bx %
bx &
bx '
bx (
bx )
bx *
bx +
bx ,
bx -
bx .
bx /
bx 0
bx 1
bx 2
bx 3
bx 4
bx 5
bxxxxxxxxxxxxxxxx 6
bx 7
bx 8
bx 9
bx :
bx ;
bx <
bx =
bx >
bx ?
bx @
bx A
bx B
bx C
bxxxxxxxxxxxxxxxx D
bx E
bx F
bx G
bx H
bx I
$end
#0
b1 !
b1 "
b1 #
b0 $
b1 %
b0 &
b0 '
b0 (
b0 )
b0 *
b0 +
b1 ,
b0 -
b0 .
b1 /
b0 0
b0 1
b0 2
b1 3
b0 4
b0 5
b0000000000000000 6
b0 7
b0 8
b0 9
b0 :
b0 ;
b0 <
b0 =
b0 >
b0 ?
b0 @
b0 A
b0 B
b0 C
b0010011011010000 D
b0 E
b1 F
b0 G
b1 H
b0 I
#1
b1 !
b1 "
b1 #
b0 $
b1 %
b0 &
b0 '
b0 (
b0 )
b0 *
b0 +
b1 ,
b0 -
b0 .
b1 /
b0 0
b0 1
b0 2
b1 3
b0 4
b0 5
b0000000000000000 6
b0 7
b0 8
b0 9
b0 :
b0 ;
b0 <
b0 =
b0 >
b0 ?
b0 @
b0 A
b0 B
b0 C
b0010011011010000 D
b0 E
b1 F
b0 G
b0 H
b0 I
#2
b1 !
b1 "
b1 #
b0 $
b1 %
b0 &
b0 '
b0 (
b0 )
b0 *
b0 +
b1 ,
b0 -
b0 .
b1 /
b0 0
b0 1
b0 2
b1 3
b0 4
b0 5
b0000000000000000 6
b0 7
b0 8
b0 9
b0 :
b0 ;
b0 <
b0 =
b0 >
b0 ?
b0 @
b0 A
b0 B
b0 C
b0010011011010000 D
b0 E
b1 F
b0 G
b1 H
b0 I
#3
b1 !
b1 "
b1 #
b0 $
b1 %
b0 &
b0 '
b0 (
b0 )
b0 *
b0 +
b1 ,
b0 -
b0 .
b1 /
b0 0
b0 1
b0 2
b1 3
b0 4
b0 5
b0000000000000000 6
b0 7
b0 8
b0 9
b0 :
b0 ;
b0 <
b0 =
b0 >
b0 ?
b0 @
b0 A
b0 B
b0 C
b0010011011010000 D
b0 E
b1 F
b0 G
b0 H
b0 I
#4
b1 !
b1 "
b1 #
b0 $
b1 %
b0 &
b0 '
b0 (
b0 )
b0 *
b0 +
b1 ,
b0 -
b0 .
b1 /
b0 0
b0 1
b0 2
b1 3
b0 4
b0 5
b0000000000000000 6
b0 7
b0 8
b0 9
b0 :
b0 ;
b0 <
b0 =
b0 >
b0 ?
b0 @
b0 A
b0 B
b0 C
b0010011011010000 D
b0 E
b1 F
b0 G
b1 H
b0 I
#5
b1 !
b1 "
b1 #
b0 $
b1 %
b0 &
b0 '
b0 (
b0 )
b0 *
b0 +
b1 ,
b0 -
b0 .
b1 /
b0 0
b0 1
b0 2
b1 3
b0 4
b0 5
b0000000000000000 6
b0 7
b0 8
b0 9
b0 :
b0 ;
b0 <
b0 =
b0 >
b0 ?
b0 @
b0 A
b0 B
b0 C
b0010011011010000 D
b0 E
b1 F
b0 G
b0 H
b0 I
#6
b1 !
b1 "
b1 #
b0 $
b1 %
b0 &
b0 '
b0 (
b0 )
b0 *
b0 +
b1 ,
b0 -
b0 .
b1 /
b0 0
b0 1
b0 2
b1 3
b0 4
b0 5
b0000000000000000 6
b0 7
b0 8
b0 9
b0 :
b0 ;
b0 <
b0 =
b0 >
b0 ?
b0 @
b0 A
b0 B
b0 C
b0010011011010000 D
b0 E
b1 F
b0 G
b1 H
b0 I
#7
b1 !
b1 "
b1 #
b0 $
b1 %
b0 &
b0 '
b0 (
b0 )
b0 *
b0 +
b1 ,
b0 -
b0 .
b1 /
b0 0
b0 1
b0 2
b1 3
b0 4
b0 5
b0000000000000000 6
b0 7
b0 8
b0 9
b0 :
b0 ;
b0 <
b0 =
b0 >
b0 ?
b0 @
b0 A
b0 B
b0 C
b0010011011010000 D
b0 E
b1 F
b0 G
b0 H
b0 I
#8
b1 !
b1 "
b1 #
b0 $
b1 %
b0 &
b0 '
b0 (
b0 )
b0 *
b0 +
b1 ,
b0 -
b0 .
b1 /
b0 0
b0 1
b0 2
b1 3
b0 4
b0 5
b0000000000000000 6
b0 7
b0 8
b0 9
b0 :
b0 ;
b0 <
b0 =
b0 >
b0 ?
b0 @
b0 A
b0 B
b0 C
b0010011011010000 D
b0 E
b1 F
b0 G
b1 H
b0 I
#9
b1 !
b1 "
b1 #
b0 $
b1 %
b0 &
b0 '
b0 (
b0 )
b0 *
b0 +
b1 ,
b0 -
b0 .
b1 /
b0 0
b0 1
b0 2
b1 3
b0 4
b0 5
b0000000000000000 6
b0 7
b0 8
b0 9
b0 :
b0 ;
b0 <
b0 =
b0 >
b0 ?
b0 @
b0 A
b0 B
b0 C
b0010011011010000 D
b0 E
b1 F
b0 G
b0 H
b0 I
#10
b1 !
b1 "
b1 #
b0 $
b1 %
b0 &
b0 '
b0 (
b0 )
b0 *
b0 +
b1 ,
b0 -
b0 .
b1 /
b0 0
b0 1
b0 2
b1 3
b0 4
b0 5
b0000000000000000 6
b0 7
b0 8
b0 9
b0 :
b0 ;
b0 <
b0 =
b0 >
b0 ?
b0 @
b0 A
b0 B
b0 C
b0010011011010000 D
b0 E
b1 F
b0 G
b1 H
b0 I
#11
b1 !
b1 "
b1 #
b0 $
b1 %
b0 &
b0 '
b0 (
b0 )
b0 *
b0 +
b1 ,
b0 -
b0 .
b1 /
b0 0
b0 1
b0 2
b1 3
b0 4
b0 5
b0000000000000000 6
b0 7
b0 8
b0 9
b0 :
b0 ;
b0 <
b0 =
b0 >
b0 ?
b0 @
b0 A
b0 B
b0 C
b0010011011010000 D
b0 E
b1 F
b0 G
b0 H
b0 I
#12
b1 !
b1 "
b1 #
b0 $
b1 %
b0 &
b0 '
b0 (
b0 )
b0 *
b0 +
b1 ,
b0 -
b0 .
b1 /
b0 0
b0 1
b0 2
b1 3
b0 4
b0 5
b0000000000000000 6
b0 7
b0 8
b0 9
b0 :
b0 ;
b0 <
b0 =
b0 >
b0 ?
b0 @
b0 A
b0 B
b0 C
b0010011011010000 D
b0 E
b1 F
b0 G
b1 H
b0 I
#13
b1 !
b1 "
b1 #
b0 $
b1 %
b0 &
b0 '
b0 (
b0 )
b0 *
b0 +
b1 ,
b0 -
b0 .
b1 /
b0 0
b0 1
b0 2
b1 3
b0 4
b0 5
b0000000000000000 6
b0 7
b0 8
b0 9
b0 :
b0 ;
b0 <
b0 =
b0 >
b0 ?
b0 @
b0 A
b0 B
b0 C
b0010011011010000 D
b0 E
b1 F
b0 G
b0 H
b0 I
#14
b1 !
b1 "
b1 #
b0 $
b1 %
b0 &
b0 '
b0 (
b0 )
b0 *
b0 +
b1 ,
b0 -
b0 .
b1 /
b0 0
b0 1
b0 2
b1 3
b0 4
b0 5
b0000000000000000 6
b0 7
b0 8
b0 9
b0 :
b0 ;
b0 <
b0 =
b0 >
b0 ?
b0 @
b0 A
b0 B
b0 C
b0010011011010000 D
b0 E
b1 F
b0 G
b1 H
b0 I
#15
b1 !
b1 "
b1 #
b0 $
b1 %
b0 &
b0 '
b0 (
b0 )
b0 *
b0 +
b1 ,
b0 -
b0 .
b1 /
b0 0
b0 1
b0 2
b1 3
b0 4
b0 5
b0000000000000000 6
b0 7
b0 8
b0 9
b0 :
b0 ;
b0 <
b0 =
b0 >
b0 ?
b0 @
b0 A
b0 B
b0 C
b0010011011010000 D
b0 E
b1 F
b0 G
b0 H
b0 I
#16
b1 !
b1 "
b1 #
b0 $
b1 %
b0 &
b0 '
b0 (
b0 )
b0 *
b0 +
b1 ,
b0 -
b0 .
b1 /
b0 0
b0 1
b0 2
b1 3
b0 4
b0 5
b0000000000000000 6
b0 7
b0 8
b0 9
b0 :
b0 ;
b0 <
b0 =
b0 >
b0 ?
b0 @
b0 A
b0 B
b0 C
b0010011011010000 D
b0 E
b1 F
b0 G
b1 H
b0 I
#17
b1 !
b1 "
b1 #
b0 $
b1 %
b0 &
b0 '
b0 (
b0 )
b0 *
b0 +
b1 ,
b0 -
b0 .
b1 /
b0 0
b0 1
b0 2
b1 3
b0 4
b0 5
b0000000000000000 6
b0 7
b0 8
b0 9
b0 :
b0 ;
b0 <
b0 =
b0 >
b0 ?
b0 @
b0 A
b0 B
b0 C
b0010011011010000 D
b0 E
b1 F
b0 G
b0 H
b0 I
#18
b1 !
b1 "
b1 #
b0 $
b1 %
b0 &
b0 '
b0 (
b0 )
b0 *
b0 +
b1 ,
b0 -
b0 .
b1 /
b0 0
b0 1
b0 2
b1 3
b0 4
b0 5
b0000000000000000 6
b0 7
b0 8
b0 9
b0 :
b0 ;
b0 <
b0 =
b0 >
b0 ?
b0 @
b0 A
b0 B
b0 C
b0010011011010000 D
b0 E
b1 F
b0 G
b1 H
b0 I
#19
b1 !
b1 "
b1 #
b0 $
b1 %
b0 &
b0 '
b0 (
b0 )
b0 *
b0 +
b1 ,
b0 -
b0 .
b1 /
b0 0
b0 1
b0 2
b1 3
b0 4
b0 5
b0000000000000000 6
b0 7
b0 8
b0 9
b0 :
b0 ;
b0 <
b0 =
b0 >
b0 ?
b0 @
b0 A
b0 B
b0 C
b0010011011010000 D
b0 E
b1 F
b0 G
b0 H
b0 I
#20
b1 !
b1 "
b1 #
b0 $
b1 %
b0 &
b0 '
b0 (
b0 )
b0 *
b0 +
b1 ,
b0 -
b0 .
b1 /
b0 0
b0 1
b0 2
b1 3
b0 4
b0 5
b0000000000000000 6
b0 7
b0 8
b0 9
b0 :
b0 ;
b0 <
b0 =
b0 >
b0 ?
b0 @
b0 A
b0 B
b0 C
b0010011011010000 D
b0 E
b1 F
b0 G
b1 H
b0 I
#21
b1 !
b1 "
b1 #
b0 $
b1 %
b0 &
b0 '
b0 (
b0 )
b0 *
b0 +
b1 ,
b0 -
b0 .
b1 /
b0 0
b0 1
b0 2
b1 3
b0 4
b0 5
b0000000000000000 6
b0 7
b0 8
b0 9
b0 :
b0 ;
b0 <
b0 =
b0 >
b0 ?
b0 @
b0 A
b0 B
b0 C
b0010011011010000 D
b0 E
b1 F
b0 G
b0 H
b0 I
#22
b1 !
b1 "
b1 #
b0 $
b1 %
b0 &
b0 '
b0 (
b0 )
b0 *
b0 +
b1 ,
b0 -
b0 .
b1 /
b0 0
b0 1
b0 2
b1 3
b0 4
b0 5
b0000000000000000 6
b0 7
b0 8
b0 9
b0 :
b0 ;
b0 <
b0 =
b0 >
b0 ?
b0 @
b0 A
b0 B
b0 C
b0010011011010000 D
b0 E
b1 F
b0 G
b1 H
b0 I
#23
b1 !
b1 "
b1 #
b0 $
b1 %
b0 &
b0 '
b0 (
b0 )
b0 *
b0 +
b1 ,
b0 -
b0 .
b1 /
b0 0
b0 1
b0 2
b1 3
b0 4
b0 5
b0000000000000000 6
b0 7
b0 8
b0 9
b0 :
b0 ;
b0 <
b0 =
b0 >
b0 ?
b0 @
b0 A
b0 B
b0 C
b0010011011010000 D
b0 E
b1 F
b0 G
b0 H
b0 I
#24
b1 !
b1 "
b1 #
b0 $
b1 %
b0 &
b0 '
b0 (
b0 )
b0 *
b0 +
b1 ,
b0 -
b0 .
b1 /
b0 0
b0 1
b0 2
b1 3
b0 4
b0 5
b0000000000000000 6
b0 7
b0 8
b0 9
b0 :
b0 ;
b0 <
b0 =
b0 >
b0 ?
b0 @
b0 A
b0 B
b0 C
b0010011011010000 D
b0 E
b1 F
b0 G
b1 H
b0 I
#25
b1 !
b1 "
b1 #
b0 $
b1 %
b0 &
b0 '
b0 (
b0 )
b0 *
b0 +
b1 ,
b0 -
b0 .
b1 /
b0 0
b0 1
b0 2
b1 3
b0 4
b0 5
b0000000000000000 6
b0 7
b0 8
b0 9
b0 :
b0 ;
b0 <
b0 =
b0 >
b0 ?
b0 @
b0 A
b0 B
b0 C
b0010011011010000 D
b0 E
b1 F
b0 G
b0 H
b0 I
#26
b1 !
b1 "
b1 #
b0 $
b1 %
b0 &
b0 '
b0 (
b0 )
b0 *
b0 +
b1 ,
b0 -
b0 .
b1 /
b0 0
b0 1
b0 2
b1 3
b0 4
b0 5
b0000000000000000 6
b0 7
b0 8
b0 9
b0 :
b0 ;
b0 <
b0 =
b0 >
b0 ?
b0 @
b0 A
b0 B
b0 C
b0010011011010000 D
b0 E
b1 F
b0 G
b1 H
b0 I
#27
b1 !
b1 "
b1 #
b0 $
b1 %
b0 &
b0 '
b0 (
b0 )
b0 *
b0 +
b1 ,
b0 -
b0 .
b1 /
b0 0
b0 1
b0 2
b1 3
b0 4
b0 5
b0000000000000000 6
b0 7
b0 8
b0 9
b0 :
b0 ;
b0 <
b0 =
b0 >
b0 ?
b0 @
b0 A
b0 B
b0 C
b0010011011010000 D
b0 E
b1 F
b0 G
b0 H
b0 I
#28
b1 !
b1 "
b1 #
b0 $
b1 %
b0 &
b0 '
b0 (
b0 )
b0 *
b0 +
b1 ,
b0 -
b0 .
b1 /
b0 0
b0 1
b0 2
b1 3
b0 4
b0 5
b0000000000000000 6
b0 7
b0 8
b0 9
b0 :
b0 ;
b0 <
b0 =
b0 >
b0 ?
b0 @
b0 A
b0 B
b0 C
b0010011011010000 D
b0 E
b1 F
b0 G
b1 H
b0 I
#29
b1 !
b1 "
b1 #
b0 $
b1 %
b0 &
b0 '
b0 (
b0 )
b0 *
b0 +
b1 ,
b0 -
b0 .
b1 /
b0 0
b0 1
b0 2
b1 3
b0 4
b0 5
b0000000000000000 6
b0 7
b0 8
b0 9
b0 :
b0 ;
b0 <
b0 =
b0 >
b0 ?
b0 @
b0 A
b0 B
b0 C
b0010011011010000 D
b0 E
b1 F
b0 G
b0 H
b0 I
#30
b1 !
b1 "
b1 #
b0 $
b1 %
b0 &
b0 '
b0 (
b0 )
b0 *
b0 +
b1 ,
b0 -
b0 .
b1 /
b0 0
b0 1
b0 2
b1 3
b0 4
b0 5
b0000000000000000 6
b0 7
b0 8
b0 9
b0 :
b0 ;
b0 <
b0 =
b0 >
b0 ?
b0 @
b0 A
b0 B
b0 C
b0010011011010000 D
b0 E
b1 F
b0 G
b1 H
b0 I
#31
b1 !
b1 "
b1 #
b0 $
b1 %
b0 &
b0 '
b0 (
b0 )
b0 *
b0 +
b1 ,
b0 -
b0 .
b1 /
b0 0
b0 1
b0 2
b1 3
b0 4
b0 5
b0000000000000000 6
b0 7
b0 8
b0 9
b0 :
b0 ;
b0 <
b0 =
b0 >
b0 ?
b0 @
b0 A
b0 B
b0 C
b0010011011010000 D
b0 E
b1 F
b0 G
b0 H
b0 I
#32
b1 !
b1 "
b1 #
b0 $
b1 %
b0 &
b0 '
b0 (
b0 )
b0 *
b0 +
b1 ,
b0 -
b0 .
b1 /
b0 0
b0 1
b0 2
b1 3
b0 4
b0 5
b0000000000000000 6
b0 7
b0 8
b0 9
b0 :
b0 ;
b0 <
b0 =
b0 >
b0 ?
b0 @
b0 A
b0 B
b0 C
b0010011011010000 D
b0 E
b1 F
b0 G
b1 H
b1 I
#33
b1 !
b1 "
b1 #
b0 $
b1 %
b0 &
b0 '
b0 (
b0 )
b0 *
b0 +
b1 ,
b0 -
b0 .
b1 /
b0 0
b0 1
b0 2
b1 3
b0 4
b0 5
b0000000000000000 6
b0 7
b0 8
b0 9
b0 :
b0 ;
b0 <
b0 =
b0 >
b0 ?
b0 @
b0 A
b0 B
b0 C
b0010011011010000 D
b0 E
b1 F
b0 G
b0 H
b1 I
#34
b1 !
b1 "
b1 #
b0 $
b1 %
b0 &
b0 '
b0 (
b0 )
b0 *
b0 +
b1 ,
b0 -
b0 .
b1 /
b0 0
b0 1
b0 2
b1 3
b0 4
b0 5
b0000000000000000 6
b0 7
b0 8
b0 9
b0 :
b0 ;
b0 <
b0 =
b0 >
b0 ?
b0 @
b0 A
b0 B
b0 C
b0010011011010000 D
b0 E
b1 F
b0 G
b1 H
b1 I
#35
b1 !
b1 "
b1 #
b0 $
b1 %
b0 &
b0 '
b0 (
b0 )
b0 *
b0 +
b1 ,
b0 -
b0 .
b1 /
b0 0
b0 1
b0 2
b1 3
b0 4
b0 5
b0000000000000000 6
b0 7
b0 8
b0 9
b0 :
b0 ;
b0 <
b0 =
b0 >
b0 ?
b0 @
b0 A
b0 B
b0 C
b0010011011010000 D
b0 E
b1 F
b0 G
b0 H
b1 I
#36
b1 !
b1 "
b1 #
b0 $
b1 %
b0 &
b0 '
b0 (
b0 )
b0 *
b0 +
b1 ,
b0 -
b0 .
b1 /
b0 0
b0 1
b0 2
b1 3
b0 4
b0 5
b0000000000000000 6
b0 7
b0 8
b0 9
b0 :
b0 ;
b0 <
b0 =
b0 >
b0 ?
b0 @
b0 A
b0 B
b0 C
b0010011011010000 D
b0 E
b1 F
b0 G
b1 H
b1 I
#37
b1 !
b1 "
b1 #
b0 $
b1 %
b0 &
b0 '
b0 (
b0 )
b0 *
b0 +
b1 ,
b0 -
b0 .
b1 /
b0 0
b0 1
b0 2
b1 3
b0 4
b0 5
b0000000000000000 6
b0 7
b0 8
b0 9
b0 :
b0 ;
b0 <
b0 =
b0 >
b0 ?
b0 @
b0 A
b0 B
b0 C
b0010011011010000 D
b0 E
b1 F
b0 G
b0 H
b1 I
#38
b1 !
b1 "
b1 #
b0 $
b1 %
b0 &
b0 '
b0 (
b0 )
b0 *
b0 +
b1 ,
b0 -
b0 .
b1 /
b0 0
b0 1
b0 2
b1 3
b0 4
b0 5
b0000000000000000 6
b0 7
b0 8
b0 9
b0 :
b0 ;
b0 <
b0 =
b0 >
b0 ?
b0 @
b0 A
b0 B
b0 C
b0010011011010000 D
b0 E
b1 F
b0 G
b1 H
b1 I
#39
b1 !
b1 "
b1 #
b0 $
b1 %
b0 &
b0 '
b0 (
b0 )
b0 *
b0 +
b1 ,
b0 -
b0 .
b1 /
b0 0
b0 1
b0 2
b1 3
b0 4
b0 5
b0000000000000000 6
b0 7
b0 8
b0 9
b0 :
b0 ;
b0 <
b0 =
b0 >
b0 ?
b0 @
b0 A
b0 B
b0 C
b0010011011010000 D
b0 E
b1 F
b0 G
b0 H
b1 I
#40
b1 !
b1 "
b1 #
b0 $
b1 %
b0 &
b0 '
b0 (
b0 )
b0 *
b0 +
b1 ,
b0 -
b0 .
b1 /
b0 0
b0 1
b0 2
b1 3
b0 4
b0 5
b0000000000000000 6
b0 7
b0 8
b0 9
b0 :
b0 ;
b0 <
b0 =
b0 >
b0 ?
b0 @
b0 A
b0 B
b0 C
b0010011011010000 D
b0 E
b1 F
b0 G
b1 H
b1 I
#41
b1 !
b1 "
b1 #
b0 $
b1 %
b0 &
b0 '
b0 (
b0 )
b0 *
b0 +
b1 ,
b0 -
b0 .
b1 /
b0 0
b0 1
b0 2
b1 3
b0 4
b0 5
b0000000000000000 6
b0 7
b0 8
b0 9
b0 :
b0 ;
b0 <
b0 =
b0 >
b0 ?
b0 @
b0 A
b0 B
b0 C
b0010011011010000 D
b0 E
b1 F
b0 G
b0 H
b1 I
#42
b1 !
b1 "
b1 #
b0 $
b1 %
b0 &
b0 '
b0 (
b0 )
b0 *
b0 +
b1 ,
b0 -
b0 .
b1 /
b0 0
b0 1
b0 2
b1 3
b0 4
b0 5
b0000000000000000 6
b0 7
b0 8
b0 9
b0 :
b0 ;
b0 <
b0 =
b0 >
b0 ?
b0 @
b0 A
b0 B
b0 C
b0010011011010000 D
b0 E
b1 F
b0 G
b1 H
b1 I
#43
b1 !
b1 "
b1 #
b0 $
b1 %
b0 &
b0 '
b0 (
b0 )
b0 *
b0 +
b1 ,
b0 -
b0 .
b1 /
b0 0
b0 1
b0 2
b1 3
b0 4
b0 5
b0000000000000000 6
b0 7
b0 8
b0 9
b0 :
b0 ;
b0 <
b0 =
b0 >
b0 ?
b0 @
b0 A
b0 B
b0 C
b0010011011010000 D
b0 E
b1 F
b0 G
b0 H
b1 I
#44
b0 !
b1 "
b1 #
b0 $
b1 %
b0 &
b0 '
b0 (
b0 )
b0 *
b0 +
b0 ,
b0 -
b0 .
b1 /
b0 0
b0 1
b0 2
b1 3
b0 4
b0 5
b0000000000000000 6
b0 7
b0 8
b0 9
b0 :
b0 ;
b0 <
b0 =
b0 >
b0 ?
b0 @
b0 A
b0 B
b0 C
b0010011011010000 D
b0 E
b1 F
b0 G
b1 H
b1 I
#45
b0 !
b1 "
b1 #
b0 $
b1 %
b0 &
b0 '
b0 (
b0 )
b0 *
b0 +
b0 ,
b0 -
b0 .
b1 /
b0 0
b0 1
b0 2
b1 3
b0 4
b0 5
b0000000000000000 6
b0 7
b0 8
b0 9
b0 :
b0 ;
b0 <
b0 =
b0 >
b0 ?
b0 @
b0 A
b0 B
b0 C
b0010011011010000 D
b0 E
b1 F
b0 G
b0 H
b1 I
#46
b0 !
b1 "
b1 #
b0 $
b1 %
b0 &
b0 '
b0 (
b0 )
b0 *
b0 +
b0 ,
b0 -
b0 .
b1 /
b0 0
b0 1
b0 2
b1 3
b0 4
b0 5
b0000000000000000 6
b0 7
b0 8
b0 9
b0 :
b0 ;
b0 <
b0 =
b0 >
b0 ?
b0 @
b0 A
b0 B
b0 C
b0010011011010000 D
b0 E
b1 F
b0 G
b1 H
b1 I
#47
b0 !
b1 "
b1 #
b0 $
b1 %
b0 &
b0 '
b0 (
b0 )
b0 *
b0 +
b0 ,
b0 -
b0 .
b1 /
b0 0
b0 1
b0 2
b1 3
b0 4
b0 5
b0000000000000000 6
b0 7
b0 8
b0 9
b0 :
b0 ;
b0 <
b0 =
b0 >
b0 ?
b0 @
b0 A
b0 B
b0 C
b0010011011010000 D
b0 E
b1 F
b0 G
b0 H
b1 I
#48
b1 !
b1 "
b1 #
b0 $
b1 %
b0 &
b0 '
b0 (
b0 )
b0 *
b0 +
b1 ,
b0 -
b0 .
b1 /
b0 0
b0 1
b0 2
b1 3
b0 4
b0 5
b0000000000000000 6
b0 7
b0 8
b0 9
b0 :
b0 ;
b0 <
b0 =
b0 >
b0 ?
b1 @
b0 A
b0 B
b0 C
b0010011011010001 D
b0 E
b0 F
b0 G
b1 H
b1 I
#49
b1 !
b1 "
b1 #
b0 $
b1 %
b0 &
b0 '
b0 (
b0 )
b0 *
b0 +
b1 ,
b0 -
b0 .
b1 /
b0 0
b0 1
b0 2
b1 3
b0 4
b0 5
b0000000000000000 6
b0 7
b0 8
b0 9
b0 :
b0 ;
b0 <
b0 =
b0 >
b0 ?
b1 @
b0 A
b0 B
b0 C
b0010011011010001 D
b0 E
b0 F
b0 G
b0 H
b1 I
#50
b1 !
b1 "
b1 #
b0 $
b1 %
b0 &
b0 '
b0 (
b0 )
b0 *
b0 +
b1 ,
b0 -
b0 .
b1 /
b0 0
b0 1
b0 2
b1 3
b0 4
b0 5
b0000000000000000 6
b0 7
b0 8
b0 9
b0 :
b0 ;
b0 <
b0 =
b0 >
b0 ?
b1 @
b0 A
b0 B
b0 C
b0010011011010001 D
b0 E
b0 F
b0 G
b1 H
b1 I
#51
b1 !
b1 "
b1 #
b0 $
b1 %
b0 &
b0 '
b0 (
b0 )
b0 *
b0 +
b1 ,
b0 -
b0 .
b1 /
b0 0
b0 1
b0 2
b1 3
b0 4
b0 5
b0000000000000000 6
b0 7
b0 8
b0 9
b0 :
b0 ;
b0 <
b0 =
b0 >
b0 ?
b1 @
b0 A
b0 B
b0 C
b0010011011010001 D
b0 E
b0 F
b0 G
b0 H
b1 I
#52
b0 !
b1 "
b1 #
b0 $
b1 %
b0 &
b0 '
b0 (
b0 )
b0 *
b0 +
b0 ,
b0 -
b0 .
b1 /
b0 0
b0 1
b0 2
b1 3
b0 4
b0 5
b0000000000000000 6
b0 7
b0 8
b0 9
b0 :
b0 ;
b0 <
b0 =
b0 >
b0 ?
b1 @
b0 A
b0 B
b0 C
b0010011011010001 D
b0 E
b0 F
b0 G
b1 H
b1 I
#53
b0 !
b1 "
b1 #
b0 $
b1 %
b0 &
b0 '
b0 (
b0 )
b0 *
b0 +
b0 ,
b0 -
b0 .
b1 /
b0 0
b0 1
b0 2
b1 3
b0 4
b0 5
b0000000000000000 6
b0 7
b0 8
b0 9
b0 :
b0 ;
b0 <
b0 =
b0 >
b0 ?
b1 @
b0 A
b0 B
b0 C
b0010011011010001 D
b0 E
b0 F
b0 G
b0 H
b1 I
#54
b0 !
b1 "
b1 #
b0 $
b1 %
b0 &
b0 '
b0 (
b0 )
b0 *
b0 +
b0 ,
b0 -
b0 .
b1 /
b0 0
b0 1
b0 2
b1 3
b0 4
b0 5
b0000000000000000 6
b0 7
b0 8
b0 9
b0 :
b0 ;
b0 <
b0 =
b0 >
b0 ?
b1 @
b0 A
b0 B
b0 C
b0010011011010001 D
b0 E
b0 F
b0 G
b1 H
b1 I
#55
b0 !
b1 "
b1 #
b0 $
b1 %
b0 &
b0 '
b0 (
b0 )
b0 *
b0 +
b0 ,
b0 -
b0 .
b1 /
b0 0
b0 1
b0 2
b1 3
b0 4
b0 5
b0000000000000000 6
b0 7
b0 8
b0 9
b0 :
b0 ;
b0 <
b0 =
b0 >
b0 ?
b1 @
b0 A
b0 B
b0 C
b0010011011010001 D
b0 E
b0 F
b0 G
b0 H
b1 I
#56
b1 !
b1 "
b1 #
b0 $
b1 %
b0 &
b0 '
b0 (
b0 )
b0 *
b0 +
b1 ,
b0 -
b0 .
b1 /
b0 0
b0 1
b0 2
b1 3
b0 4
b0 5
b0000000000000000 6
b0 7
b0 8
b0 9
b0 :
b0 ;
b0 <
b0 =
b0 >
b0 ?
b0 @
b1 A
b0 B
b0 C
b0010011011010010 D
b0 E
b0 F
b0 G
b1 H
b1 I
#57
b1 !
b1 "
b1 #
b0 $
b1 %
b0 &
b0 '
b0 (
b0 )
b0 *
b0 +
b1 ,
b0 -
b0 .
b1 /
b0 0
b0 1
b0 2
b1 3
b0 4
b0 5
b0000000000000000 6
b0 7
b0 8
b0 9
b0 :
b0 ;
b0 <
b0 =
b0 >
b0 ?
b0 @
b1 A
b0 B
b0 C
b0010011011010010 D
b0 E
b0 F
b0 G
b0 H
b1 I
#58
b1 !
b1 "
b1 #
b0 $
b1 %
b0 &
b0 '
b0 (
b0 )
b0 *
b0 +
b1 ,
b0 -
b0 .
b1 /
b0 0
b0 1
b0 2
b1 3
b0 4
b0 5
b0000000000000000 6
b0 7
b0 8
b0 9
b0 :
b0 ;
b0 <
b0 =
b0 >
b0 ?
b0 @
b1 A
b0 B
b0 C
b0010011011010010 D
b0 E
b0 F
b0 G
b1 H
b1 I
#59
b1 !
b1 "
b1 #
b0 $
b1 %
b0 &
b0 '
b0 (
b0 )
b0 *
b0 +
b1 ,
b0 -
b0 .
b1 /
b0 0
b0 1
b0 2
b1 3
b0 4
b0 5
b0000000000000000 6
b0 7
b0 8
b0 9
b0 :
b0 ;
b0 <
b0 =
b0 >
b0 ?
b0 @
b1 A
b0 B
b0 C
b0010011011010010 D
b0 E
b0 F
b0 G
b0 H
b1 I
#60
b0 !
b1 "
b0 #
b0 $
b1 %
b0 &
b0 '
b0 (
b0 )
b0 *
b0 +
b0 ,
b0 -
b0 .
b1 /
b0 0
b0 1
b0 2
b0 3
b0 4
b0 5
b0000000000000000 6
b0 7
b0 8
b0 9
b0 :
b0 ;
b0 <
b0 =
b0 >
b0 ?
b0 @
b1 A
b0 B
b0 C
b0010011011010010 D
b0 E
b0 F
b0 G
b1 H
b1 I
#61
b0 !
b1 "
b0 #
b0 $
b1 %
b0 &
b0 '
b0 (
b0 )
b0 *
b0 +
b0 ,
b0 -
b0 .
b1 /
b0 0
b0 1
b0 2
b0 3
b0 4
b0 5
b0000000000000000 6
b0 7
b0 8
b0 9
b0 :
b0 ;
b0 <
b0 =
b0 >
b0 ?
b0 @
b1 A
b0 B
b0 C
b0010011011010010 D
b0 E
b0 F
b0 G
b0 H
b1 I
