examples/vcd-dumps/drscan-arty-20-mhz-0xa803fd56.vcd
$date
	2021-07-08 22:27
$end
$timescale 4000ps $end
$scope module TOP $end
$var wire 1 ! main_jtag_phy_capture $end
$var wire 1 " main_jtag_phy_drck $end
$var wire 1 # main_jtag_phy_reset $end
$var wire 1 $ main_jtag_phy_runtest $end
$var wire 1 % main_jtag_phy_sel $end
$var wire 1 & main_jtag_phy_shift $end
$var wire 1 ' main_jtag_phy_tck $end
$var wire 1 ( main_jtag_phy_tdi $end
$var wire 1 ) main_jtag_phy_tdo $end
$var wire 1 * main_jtag_phy_tms $end
$var wire 1 + main_jtag_phy_update $end
$var wire 32 , main_jtag_hello_hello_code $end
$var wire 1 - main_jtag_hello_bufi $end
$var wire 16 . main_jtag_hello_tck_cnt $end
$var wire 1 / main_jtag_phy_CAPTURE_DR $end
$var wire 1 0 main_jtag_phy_CAPTURE_IR $end
$var wire 1 1 main_jtag_phy_EXIT1_DR $end
$var wire 1 2 main_jtag_phy_EXIT1_IR $end
$var wire 1 3 main_jtag_phy_EXIT2_DR $end
$var wire 1 4 main_jtag_phy_EXIT2_IR $end
$var wire 1 5 main_jtag_phy_PAUSE_DR $end
$var wire 1 6 main_jtag_phy_PAUSE_IR $end
$var wire 1 7 main_jtag_phy_RUN_TEST_IDLE $end
$var wire 1 8 main_jtag_phy_SELECT_DR_SCAN $end
$var wire 1 9 main_jtag_phy_SELECT_IR_SCAN $end
$var wire 1 : main_jtag_phy_SHIFT_DR $end
$var wire 1 ; main_jtag_phy_SHIFT_IR $end
$var wire 1 < main_jtag_phy_TEST_LOGIC_RESET $end
$var wire 1 = main_jtag_phy_UPDATE_DR $end
$var wire 1 > main_jtag_phy_UPDATE_IR $end
$var wire 16 ? main_jtag_phy_tck_cnt $end
$var wire 1 @ scope_clk $end
$var wire 1 A scope_trig $end
$upscope  $end
$enddefinitions  $end
#0
$dumpvars
bx !
bx "
bx #
bx $
bx %
bx &
bx '
bx (
bx )
bx *
bx +
bxxxxxxxxxxxxxxxxxxxxxxxxxxxxxxxx ,
bx -
bxxxxxxxxxxxxxxxx .
bx /
bx 0
bx 1
bx 2
bx 3
bx 4
bx 5
bx 6
bx 7
bx 8
bx 9
bx :
bx ;
bx <
bx =
bx >
bxxxxxxxxxxxxxxxx ?
bx @
bx A
$end
#0
b0 !
b1 "
b0 #
b1 $
b1 %
b0 &
b0 '
b0 (
b0 )
b0 *
b0 +
b00000000000000000000000000000000 ,
b0 -
b0000000011011010 .
b0 /
b0 0
b0 1
b0 2
b0 3
b0 4
b0 5
b0 6
b1 7
b0 8
b0 9
b0 :
b0 ;
b0 <
b0 =
b0 >
b0011011101011110 ?
b1 @
b0 A
#1
b0 !
b1 "
b0 #
b1 $
b1 %
b0 &
b0 '
b0 (
b0 )
b0 *
b0 +
b00000000000000000000000000000000 ,
b0 -
b0000000011011010 .
b0 /
b0 0
b0 1
b0 2
b0 3
b0 4
b0 5
b0 6
b1 7
b0 8
b0 9
b0 :
b0 ;
b0 <
b0 =
b0 >
b0011011101011110 ?
b0 @
b0 A
#2
b0 !
b1 "
b0 #
b1 $
b1 %
b0 &
b0 '
b0 (
b0 )
b0 *
b0 +
b00000000000000000000000000000000 ,
b0 -
b0000000011011010 .
b0 /
b0 0
b0 1
b0 2
b0 3
b0 4
b0 5
b0 6
b1 7
b0 8
b0 9
b0 :
b0 ;
b0 <
b0 =
b0 >
b0011011101011110 ?
b1 @
b0 A
#3
b0 !
b1 "
b0 #
b1 $
b1 %
b0 &
b0 '
b0 (
b0 )
b0 *
b0 +
b00000000000000000000000000000000 ,
b0 -
b0000000011011010 .
b0 /
b0 0
b0 1
b0 2
b0 3
b0 4
b0 5
b0 6
b1 7
b0 8
b0 9
b0 :
b0 ;
b0 <
b0 =
b0 >
b0011011101011110 ?
b0 @
b0 A
#4
b0 !
b1 "
b0 #
b1 $
b1 %
b0 &
b0 '
b0 (
b0 )
b0 *
b0 +
b00000000000000000000000000000000 ,
b0 -
b0000000011011010 .
b0 /
b0 0
b0 1
b0 2
b0 3
b0 4
b0 5
b0 6
b1 7
b0 8
b0 9
b0 :
b0 ;
b0 <
b0 =
b0 >
b0011011101011110 ?
b1 @
b0 A
#5
b0 !
b1 "
b0 #
b1 $
b1 %
b0 &
b0 '
b0 (
b0 )
b0 *
b0 +
b00000000000000000000000000000000 ,
b0 -
b0000000011011010 .
b0 /
b0 0
b0 1
b0 2
b0 3
b0 4
b0 5
b0 6
b1 7
b0 8
b0 9
b0 :
b0 ;
b0 <
b0 =
b0 >
b0011011101011110 ?
b0 @
b0 A
#6
b0 !
b1 "
b0 #
b1 $
b1 %
b0 &
b0 '
b0 (
b0 )
b0 *
b0 +
b00000000000000000000000000000000 ,
b0 -
b0000000011011010 .
b0 /
b0 0
b0 1
b0 2
b0 3
b0 4
b0 5
b0 6
b1 7
b0 8
b0 9
b0 :
b0 ;
b0 <
b0 =
b0 >
b0011011101011110 ?
b1 @
b0 A
#7
b0 !
b1 "
b0 #
b1 $
b1 %
b0 &
b0 '
b0 (
b0 )
b0 *
b0 +
b00000000000000000000000000000000 ,
b0 -
b0000000011011010 .
b0 /
b0 0
b0 1
b0 2
b0 3
b0 4
b0 5
b0 6
b1 7
b0 8
b0 9
b0 :
b0 ;
b0 <
b0 =
b0 >
b0011011101011110 ?
b0 @
b0 A
#8
b0 !
b1 "
b0 #
b1 $
b1 %
b0 &
b0 '
b0 (
b0 )
b0 *
b0 +
b00000000000000000000000000000000 ,
b0 -
b0000000011011010 .
b0 /
b0 0
b0 1
b0 2
b0 3
b0 4
b0 5
b0 6
b1 7
b0 8
b0 9
b0 :
b0 ;
b0 <
b0 =
b0 >
b0011011101011110 ?
b1 @
b0 A
#9
b0 !
b1 "
b0 #
b1 $
b1 %
b0 &
b0 '
b0 (
b0 )
b0 *
b0 +
b00000000000000000000000000000000 ,
b0 -
b0000000011011010 .
b0 /
b0 0
b0 1
b0 2
b0 3
b0 4
b0 5
b0 6
b1 7
b0 8
b0 9
b0 :
b0 ;
b0 <
b0 =
b0 >
b0011011101011110 ?
b0 @
b0 A
#10
b0 !
b1 "
b0 #
b1 $
b1 %
b0 &
b0 '
b0 (
b0 )
b0 *
b0 +
b00000000000000000000000000000000 ,
b0 -
b0000000011011010 .
b0 /
b0 0
b0 1
b0 2
b0 3
b0 4
b0 5
b0 6
b1 7
b0 8
b0 9
b0 :
b0 ;
b0 <
b0 =
b0 >
b0011011101011110 ?
b1 @
b0 A
#11
b0 !
b1 "
b0 #
b1 $
b1 %
b0 &
b0 '
b0 (
b0 )
b0 *
b0 +
b00000000000000000000000000000000 ,
b0 -
b0000000011011010 .
b0 /
b0 0
b0 1
b0 2
b0 3
b0 4
b0 5
b0 6
b1 7
b0 8
b0 9
b0 :
b0 ;
b0 <
b0 =
b0 >
b0011011101011110 ?
b0 @
b0 A
#12
b0 !
b1 "
b0 #
b1 $
b1 %
b0 &
b0 '
b0 (
b0 )
b0 *
b0 +
b00000000000000000000000000000000 ,
b0 -
b0000000011011010 .
b0 /
b0 0
b0 1
b0 2
b0 3
b0 4
b0 5
b0 6
b1 7
b0 8
b0 9
b0 :
b0 ;
b0 <
b0 =
b0 >
b0011011101011110 ?
b1 @
b0 A
#13
b0 !
b1 "
b0 #
b1 $
b1 %
b0 &
b0 '
b0 (
b0 )
b0 *
b0 +
b00000000000000000000000000000000 ,
b0 -
b0000000011011010 .
b0 /
b0 0
b0 1
b0 2
b0 3
b0 4
b0 5
b0 6
b1 7
b0 8
b0 9
b0 :
b0 ;
b0 <
b0 =
b0 >
b0011011101011110 ?
b0 @
b0 A
#14
b0 !
b1 "
b0 #
b1 $
b1 %
b0 &
b0 '
b0 (
b0 )
b0 *
b0 +
b00000000000000000000000000000000 ,
b0 -
b0000000011011010 .
b0 /
b0 0
b0 1
b0 2
b0 3
b0 4
b0 5
b0 6
b1 7
b0 8
b0 9
b0 :
b0 ;
b0 <
b0 =
b0 >
b0011011101011110 ?
b1 @
b0 A
#15
b0 !
b1 "
b0 #
b1 $
b1 %
b0 &
b0 '
b0 (
b0 )
b0 *
b0 +
b00000000000000000000000000000000 ,
b0 -
b0000000011011010 .
b0 /
b0 0
b0 1
b0 2
b0 3
b0 4
b0 5
b0 6
b1 7
b0 8
b0 9
b0 :
b0 ;
b0 <
b0 =
b0 >
b0011011101011110 ?
b0 @
b0 A
#16
b0 !
b1 "
b0 #
b1 $
b1 %
b0 &
b0 '
b0 (
b0 )
b0 *
b0 +
b00000000000000000000000000000000 ,
b0 -
b0000000011011010 .
b0 /
b0 0
b0 1
b0 2
b0 3
b0 4
b0 5
b0 6
b1 7
b0 8
b0 9
b0 :
b0 ;
b0 <
b0 =
b0 >
b0011011101011110 ?
b1 @
b0 A
#17
b0 !
b1 "
b0 #
b1 $
b1 %
b0 &
b0 '
b0 (
b0 )
b0 *
b0 +
b00000000000000000000000000000000 ,
b0 -
b0000000011011010 .
b0 /
b0 0
b0 1
b0 2
b0 3
b0 4
b0 5
b0 6
b1 7
b0 8
b0 9
b0 :
b0 ;
b0 <
b0 =
b0 >
b0011011101011110 ?
b0 @
b0 A
#18
b0 !
b1 "
b0 #
b1 $
b1 %
b0 &
b0 '
b0 (
b0 )
b0 *
b0 +
b00000000000000000000000000000000 ,
b0 -
b0000000011011010 .
b0 /
b0 0
b0 1
b0 2
b0 3
b0 4
b0 5
b0 6
b1 7
b0 8
b0 9
b0 :
b0 ;
b0 <
b0 =
b0 >
b0011011101011110 ?
b1 @
b0 A
#19
b0 !
b1 "
b0 #
b1 $
b1 %
b0 &
b0 '
b0 (
b0 )
b0 *
b0 +
b00000000000000000000000000000000 ,
b0 -
b0000000011011010 .
b0 /
b0 0
b0 1
b0 2
b0 3
b0 4
b0 5
b0 6
b1 7
b0 8
b0 9
b0 :
b0 ;
b0 <
b0 =
b0 >
b0011011101011110 ?
b0 @
b0 A
#20
b0 !
b1 "
b0 #
b1 $
b1 %
b0 &
b0 '
b0 (
b0 )
b0 *
b0 +
b00000000000000000000000000000000 ,
b0 -
b0000000011011010 .
b0 /
b0 0
b0 1
b0 2
b0 3
b0 4
b0 5
b0 6
b1 7
b0 8
b0 9
b0 :
b0 ;
b0 <
b0 =
b0 >
b0011011101011110 ?
b1 @
b0 A
#21
b0 !
b1 "
b0 #
b1 $
b1 %
b0 &
b0 '
b0 (
b0 )
b0 *
b0 +
b00000000000000000000000000000000 ,
b0 -
b0000000011011010 .
b0 /
b0 0
b0 1
b0 2
b0 3
b0 4
b0 5
b0 6
b1 7
b0 8
b0 9
b0 :
b0 ;
b0 <
b0 =
b0 >
b0011011101011110 ?
b0 @
b0 A
#22
b0 !
b1 "
b0 #
b1 $
b1 %
b0 &
b0 '
b0 (
b0 )
b0 *
b0 +
b00000000000000000000000000000000 ,
b0 -
b0000000011011010 .
b0 /
b0 0
b0 1
b0 2
b0 3
b0 4
b0 5
b0 6
b1 7
b0 8
b0 9
b0 :
b0 ;
b0 <
b0 =
b0 >
b0011011101011110 ?
b1 @
b0 A
#23
b0 !
b1 "
b0 #
b1 $
b1 %
b0 &
b0 '
b0 (
b0 )
b0 *
b0 +
b00000000000000000000000000000000 ,
b0 -
b0000000011011010 .
b0 /
b0 0
b0 1
b0 2
b0 3
b0 4
b0 5
b0 6
b1 7
b0 8
b0 9
b0 :
b0 ;
b0 <
b0 =
b0 >
b0011011101011110 ?
b0 @
b0 A
#24
b0 !
b1 "
b0 #
b1 $
b1 %
b0 &
b0 '
b0 (
b0 )
b0 *
b0 +
b00000000000000000000000000000000 ,
b0 -
b0000000011011010 .
b0 /
b0 0
b0 1
b0 2
b0 3
b0 4
b0 5
b0 6
b1 7
b0 8
b0 9
b0 :
b0 ;
b0 <
b0 =
b0 >
b0011011101011110 ?
b1 @
b0 A
#25
b0 !
b1 "
b0 #
b1 $
b1 %
b0 &
b0 '
b0 (
b0 )
b0 *
b0 +
b00000000000000000000000000000000 ,
b0 -
b0000000011011010 .
b0 /
b0 0
b0 1
b0 2
b0 3
b0 4
b0 5
b0 6
b1 7
b0 8
b0 9
b0 :
b0 ;
b0 <
b0 =
b0 >
b0011011101011110 ?
b0 @
b0 A
#26
b0 !
b1 "
b0 #
b1 $
b1 %
b0 &
b0 '
b0 (
b0 )
b0 *
b0 +
b00000000000000000000000000000000 ,
b0 -
b0000000011011010 .
b0 /
b0 0
b0 1
b0 2
b0 3
b0 4
b0 5
b0 6
b1 7
b0 8
b0 9
b0 :
b0 ;
b0 <
b0 =
b0 >
b0011011101011110 ?
b1 @
b0 A
#27
b0 !
b1 "
b0 #
b1 $
b1 %
b0 &
b0 '
b0 (
b0 )
b0 *
b0 +
b00000000000000000000000000000000 ,
b0 -
b0000000011011010 .
b0 /
b0 0
b0 1
b0 2
b0 3
b0 4
b0 5
b0 6
b1 7
b0 8
b0 9
b0 :
b0 ;
b0 <
b0 =
b0 >
b0011011101011110 ?
b0 @
b0 A
#28
b0 !
b1 "
b0 #
b1 $
b1 %
b0 &
b0 '
b0 (
b0 )
b0 *
b0 +
b00000000000000000000000000000000 ,
b0 -
b0000000011011010 .
b0 /
b0 0
b0 1
b0 2
b0 3
b0 4
b0 5
b0 6
b1 7
b0 8
b0 9
b0 :
b0 ;
b0 <
b0 =
b0 >
b0011011101011110 ?
b1 @
b0 A
#29
b0 !
b1 "
b0 #
b1 $
b1 %
b0 &
b0 '
b0 (
b0 )
b0 *
b0 +
b00000000000000000000000000000000 ,
b0 -
b0000000011011010 .
b0 /
b0 0
b0 1
b0 2
b0 3
b0 4
b0 5
b0 6
b1 7
b0 8
b0 9
b0 :
b0 ;
b0 <
b0 =
b0 >
b0011011101011110 ?
b0 @
b0 A
#30
b0 !
b1 "
b0 #
b1 $
b1 %
b0 &
b0 '
b0 (
b0 )
b0 *
b0 +
b00000000000000000000000000000000 ,
b0 -
b0000000011011010 .
b0 /
b0 0
b0 1
b0 2
b0 3
b0 4
b0 5
b0 6
b1 7
b0 8
b0 9
b0 :
b0 ;
b0 <
b0 =
b0 >
b0011011101011110 ?
b1 @
b0 A
#31
b0 !
b1 "
b0 #
b1 $
b1 %
b0 &
b0 '
b0 (
b0 )
b0 *
b0 +
b00000000000000000000000000000000 ,
b0 -
b0000000011011010 .
b0 /
b0 0
b0 1
b0 2
b0 3
b0 4
b0 5
b0 6
b1 7
b0 8
b0 9
b0 :
b0 ;
b0 <
b0 =
b0 >
b0011011101011110 ?
b0 @
b0 A
#32
b0 !
b1 "
b0 #
b1 $
b1 %
b0 &
b0 '
b0 (
b0 )
b0 *
b0 +
b00000000000000000000000000000000 ,
b0 -
b0000000011011010 .
b0 /
b0 0
b0 1
b0 2
b0 3
b0 4
b0 5
b0 6
b1 7
b0 8
b0 9
b0 :
b0 ;
b0 <
b0 =
b0 >
b0011011101011110 ?
b1 @
b1 A
#33
b0 !
b1 "
b0 #
b1 $
b1 %
b0 &
b0 '
b0 (
b0 )
b0 *
b0 +
b00000000000000000000000000000000 ,
b0 -
b0000000011011010 .
b0 /
b0 0
b0 1
b0 2
b0 3
b0 4
b0 5
b0 6
b1 7
b0 8
b0 9
b0 :
b0 ;
b0 <
b0 =
b0 >
b0011011101011110 ?
b0 @
b1 A
#34
b0 !
b1 "
b0 #
b1 $
b1 %
b0 &
b0 '
b0 (
b0 )
b0 *
b0 +
b00000000000000000000000000000000 ,
b0 -
b0000000011011010 .
b0 /
b0 0
b0 1
b0 2
b0 3
b0 4
b0 5
b0 6
b1 7
b0 8
b0 9
b0 :
b0 ;
b0 <
b0 =
b0 >
b0011011101011110 ?
b1 @
b1 A
#35
b0 !
b1 "
b0 #
b1 $
b1 %
b0 &
b0 '
b0 (
b0 )
b0 *
b0 +
b00000000000000000000000000000000 ,
b0 -
b0000000011011010 .
b0 /
b0 0
b0 1
b0 2
b0 3
b0 4
b0 5
b0 6
b1 7
b0 8
b0 9
b0 :
b0 ;
b0 <
b0 =
b0 >
b0011011101011110 ?
b0 @
b1 A
#36
b0 !
b1 "
b0 #
b1 $
b1 %
b0 &
b0 '
b0 (
b0 )
b0 *
b0 +
b00000000000000000000000000000000 ,
b0 -
b0000000011011010 .
b0 /
b0 0
b0 1
b0 2
b0 3
b0 4
b0 5
b0 6
b1 7
b0 8
b0 9
b0 :
b0 ;
b0 <
b0 =
b0 >
b0011011101011110 ?
b1 @
b1 A
#37
b0 !
b1 "
b0 #
b1 $
b1 %
b0 &
b0 '
b0 (
b0 )
b0 *
b0 +
b00000000000000000000000000000000 ,
b0 -
b0000000011011010 .
b0 /
b0 0
b0 1
b0 2
b0 3
b0 4
b0 5
b0 6
b1 7
b0 8
b0 9
b0 :
b0 ;
b0 <
b0 =
b0 >
b0011011101011110 ?
b0 @
b1 A
#38
b0 !
b1 "
b0 #
b1 $
b1 %
b0 &
b0 '
b0 (
b0 )
b0 *
b0 +
b00000000000000000000000000000000 ,
b0 -
b0000000011011010 .
b0 /
b0 0
b0 1
b0 2
b0 3
b0 4
b0 5
b0 6
b1 7
b0 8
b0 9
b0 :
b0 ;
b0 <
b0 =
b0 >
b0011011101011110 ?
b1 @
b1 A
#39
b0 !
b1 "
b0 #
b1 $
b1 %
b0 &
b0 '
b0 (
b0 )
b0 *
b0 +
b00000000000000000000000000000000 ,
b0 -
b0000000011011010 .
b0 /
b0 0
b0 1
b0 2
b0 3
b0 4
b0 5
b0 6
b1 7
b0 8
b0 9
b0 :
b0 ;
b0 <
b0 =
b0 >
b0011011101011110 ?
b0 @
b1 A
#40
b0 !
b1 "
b0 #
b1 $
b1 %
b0 &
b0 '
b0 (
b0 )
b0 *
b0 +
b00000000000000000000000000000000 ,
b0 -
b0000000011011010 .
b0 /
b0 0
b0 1
b0 2
b0 3
b0 4
b0 5
b0 6
b1 7
b0 8
b0 9
b0 :
b0 ;
b0 <
b0 =
b0 >
b0011011101011110 ?
b1 @
b1 A
#41
b0 !
b1 "
b0 #
b1 $
b1 %
b0 &
b0 '
b0 (
b0 )
b0 *
b0 +
b00000000000000000000000000000000 ,
b0 -
b0000000011011010 .
b0 /
b0 0
b0 1
b0 2
b0 3
b0 4
b0 5
b0 6
b1 7
b0 8
b0 9
b0 :
b0 ;
b0 <
b0 =
b0 >
b0011011101011110 ?
b0 @
b1 A
#42
b0 !
b1 "
b0 #
b1 $
b1 %
b0 &
b0 '
b0 (
b0 )
b0 *
b0 +
b00000000000000000000000000000000 ,
b0 -
b0000000011011010 .
b0 /
b0 0
b0 1
b0 2
b0 3
b0 4
b0 5
b0 6
b1 7
b0 8
b0 9
b0 :
b0 ;
b0 <
b0 =
b0 >
b0011011101011110 ?
b1 @
b1 A
#43
b0 !
b1 "
b0 #
b1 $
b1 %
b0 &
b0 '
b0 (
b0 )
b0 *
b0 +
b00000000000000000000000000000000 ,
b0 -
b0000000011011010 .
b0 /
b0 0
b0 1
b0 2
b0 3
b0 4
b0 5
b0 6
b1 7
b0 8
b0 9
b0 :
b0 ;
b0 <
b0 =
b0 >
b0011011101011110 ?
b0 @
b1 A
#44
b0 !
b1 "
b0 #
b1 $
b1 %
b0 &
b0 '
b0 (
b0 )
b0 *
b0 +
b00000000000000000000000000000000 ,
b0 -
b0000000011011010 .
b0 /
b0 0
b0 1
b0 2
b0 3
b0 4
b0 5
b0 6
b1 7
b0 8
b0 9
b0 :
b0 ;
b0 <
b0 =
b0 >
b0011011101011110 ?
b1 @
b1 A
#45
b0 !
b1 "
b0 #
b1 $
b1 %
b0 &
b0 '
b0 (
b0 )
b0 *
b0 +
b00000000000000000000000000000000 ,
b0 -
b0000000011011010 .
b0 /
b0 0
b0 1
b0 2
b0 3
b0 4
b0 5
b0 6
b1 7
b0 8
b0 9
b0 :
b0 ;
b0 <
b0 =
b0 >
b0011011101011110 ?
b0 @
b1 A
#46
b0 !
b1 "
b0 #
b1 $
b1 %
b0 &
b0 '
b0 (
b0 )
b0 *
b0 +
b00000000000000000000000000000000 ,
b0 -
b0000000011011010 .
b0 /
b0 0
b0 1
b0 2
b0 3
b0 4
b0 5
b0 6
b1 7
b0 8
b0 9
b0 :
b0 ;
b0 <
b0 =
b0 >
b0011011101011110 ?
b1 @
b1 A
#47
b0 !
b1 "
b0 #
b1 $
b1 %
b0 &
b0 '
b0 (
b0 )
b0 *
b0 +
b00000000000000000000000000000000 ,
b0 -
b0000000011011010 .
b0 /
b0 0
b0 1
b0 2
b0 3
b0 4
b0 5
b0 6
b1 7
b0 8
b0 9
b0 :
b0 ;
b0 <
b0 =
b0 >
b0011011101011110 ?
b0 @
b1 A
#48
b0 !
b1 "
b0 #
b1 $
b1 %
b0 &
b0 '
b0 (
b0 )
b0 *
b0 +
b00000000000000000000000000000000 ,
b0 -
b0000000011011010 .
b0 /
b0 0
b0 1
b0 2
b0 3
b0 4
b0 5
b0 6
b1 7
b0 8
b0 9
b0 :
b0 ;
b0 <
b0 =
b0 >
b0011011101011110 ?
b1 @
b1 A
#49
b0 !
b1 "
b0 #
b1 $
b1 %
b0 &
b0 '
b0 (
b0 )
b0 *
b0 +
b00000000000000000000000000000000 ,
b0 -
b0000000011011010 .
b0 /
b0 0
b0 1
b0 2
b0 3
b0 4
b0 5
b0 6
b1 7
b0 8
b0 9
b0 :
b0 ;
b0 <
b0 =
b0 >
b0011011101011110 ?
b0 @
b1 A
#50
b0 !
b1 "
b0 #
b1 $
b1 %
b0 &
b0 '
b0 (
b0 )
b0 *
b0 +
b00000000000000000000000000000000 ,
b0 -
b0000000011011010 .
b0 /
b0 0
b0 1
b0 2
b0 3
b0 4
b0 5
b0 6
b1 7
b0 8
b0 9
b0 :
b0 ;
b0 <
b0 =
b0 >
b0011011101011110 ?
b1 @
b1 A
#51
b0 !
b1 "
b0 #
b1 $
b1 %
b0 &
b0 '
b0 (
b0 )
b0 *
b0 +
b00000000000000000000000000000000 ,
b0 -
b0000000011011010 .
b0 /
b0 0
b0 1
b0 2
b0 3
b0 4
b0 5
b0 6
b1 7
b0 8
b0 9
b0 :
b0 ;
b0 <
b0 =
b0 >
b0011011101011110 ?
b0 @
b1 A
#52
b0 !
b1 "
b0 #
b1 $
b1 %
b0 &
b0 '
b0 (
b0 )
b0 *
b0 +
b00000000000000000000000000000000 ,
b0 -
b0000000011011010 .
b0 /
b0 0
b0 1
b0 2
b0 3
b0 4
b0 5
b0 6
b1 7
b0 8
b0 9
b0 :
b0 ;
b0 <
b0 =
b0 >
b0011011101011110 ?
b1 @
b1 A
#53
b0 !
b1 "
b0 #
b1 $
b1 %
b0 &
b0 '
b0 (
b0 )
b0 *
b0 +
b00000000000000000000000000000000 ,
b0 -
b0000000011011010 .
b0 /
b0 0
b0 1
b0 2
b0 3
b0 4
b0 5
b0 6
b1 7
b0 8
b0 9
b0 :
b0 ;
b0 <
b0 =
b0 >
b0011011101011110 ?
b0 @
b1 A
#54
b0 !
b1 "
b0 #
b1 $
b1 %
b0 &
b0 '
b0 (
b0 )
b1 *
b0 +
b00000000000000000000000000000000 ,
b0 -
b0000000011011010 .
b0 /
b0 0
b0 1
b0 2
b0 3
b0 4
b0 5
b0 6
b1 7
b0 8
b0 9
b0 :
b0 ;
b0 <
b0 =
b0 >
b0011011101011110 ?
b1 @
b1 A
#55
b0 !
b1 "
b0 #
b1 $
b1 %
b0 &
b0 '
b0 (
b0 )
b1 *
b0 +
b00000000000000000000000000000000 ,
b0 -
b0000000011011010 .
b0 /
b0 0
b0 1
b0 2
b0 3
b0 4
b0 5
b0 6
b1 7
b0 8
b0 9
b0 :
b0 ;
b0 <
b0 =
b0 >
b0011011101011110 ?
b0 @
b1 A
#56
b0 !
b1 "
b0 #
b1 $
b1 %
b0 &
b0 '
b0 (
b0 )
b1 *
b0 +
b00000000000000000000000000000000 ,
b0 -
b0000000011011010 .
b0 /
b0 0
b0 1
b0 2
b0 3
b0 4
b0 5
b0 6
b1 7
b0 8
b0 9
b0 :
b0 ;
b0 <
b0 =
b0 >
b0011011101011110 ?
b1 @
b1 A
#57
b0 !
b1 "
b0 #
b1 $
b1 %
b0 &
b0 '
b0 (
b0 )
b1 *
b0 +
b00000000000000000000000000000000 ,
b0 -
b0000000011011010 .
b0 /
b0 0
b0 1
b0 2
b0 3
b0 4
b0 5
b0 6
b1 7
b0 8
b0 9
b0 :
b0 ;
b0 <
b0 =
b0 >
b0011011101011110 ?
b0 @
b1 A
#58
b0 !
b1 "
b0 #
b1 $
b1 %
b0 &
b0 '
b0 (
b0 )
b1 *
b0 +
b00000000000000000000000000000000 ,
b0 -
b0000000011011010 .
b0 /
b0 0
b0 1
b0 2
b0 3
b0 4
b0 5
b0 6
b1 7
b0 8
b0 9
b0 :
b0 ;
b0 <
b0 =
b0 >
b0011011101011110 ?
b1 @
b1 A
#59
b0 !
b1 "
b0 #
b1 $
b1 %
b0 &
b0 '
b0 (
b0 )
b1 *
b0 +
b00000000000000000000000000000000 ,
b0 -
b0000000011011010 .
b0 /
b0 0
b0 1
b0 2
b0 3
b0 4
b0 5
b0 6
b1 7
b0 8
b0 9
b0 :
b0 ;
b0 <
b0 =
b0 >
b0011011101011110 ?
b0 @
b1 A
#60
b0 !
b1 "
b0 #
b1 $
b1 %
b0 &
b1 '
b0 (
b0 )
b1 *
b0 +
b00000000000000000000000000000000 ,
b0 -
b0000000011011010 .
b0 /
b0 0
b0 1
b0 2
b0 3
b0 4
b0 5
b0 6
b1 7
b0 8
b0 9
b0 :
b0 ;
b0 <
b0 =
b0 >
b0011011101011111 ?
b1 @
b1 A
#61
b0 !
b1 "
b0 #
b1 $
b1 %
b0 &
b1 '
b0 (
b0 )
b1 *
b0 +
b00000000000000000000000000000000 ,
b0 -
b0000000011011010 .
b0 /
b0 0
b0 1
b0 2
b0 3
b0 4
b0 5
b0 6
b1 7
b0 8
b0 9
b0 :
b0 ;
b0 <
b0 =
b0 >
b0011011101011111 ?
b0 @
b1 A
#62
b0 !
b1 "
b0 #
b1 $
b1 %
b0 &
b1 '
b0 (
b0 )
b1 *
b0 +
b00000000000000000000000000000000 ,
b0 -
b0000000011011010 .
b0 /
b0 0
b0 1
b0 2
b0 3
b0 4
b0 5
b0 6
b1 7
b0 8
b0 9
b0 :
b0 ;
b0 <
b0 =
b0 >
b0011011101011111 ?
b1 @
b1 A
#63
b0 !
b1 "
b0 #
b1 $
b1 %
b0 &
b1 '
b0 (
b0 )
b1 *
b0 +
b00000000000000000000000000000000 ,
b0 -
b0000000011011010 .
b0 /
b0 0
b0 1
b0 2
b0 3
b0 4
b0 5
b0 6
b1 7
b0 8
b0 9
b0 :
b0 ;
b0 <
b0 =
b0 >
b0011011101011111 ?
b0 @
b1 A
#64
b0 !
b1 "
b0 #
b1 $
b1 %
b0 &
b1 '
b0 (
b0 )
b1 *
b0 +
b00000000000000000000000000000000 ,
b0 -
b0000000011011010 .
b0 /
b0 0
b0 1
b0 2
b0 3
b0 4
b0 5
b0 6
b1 7
b0 8
b0 9
b0 :
b0 ;
b0 <
b0 =
b0 >
b0011011101011111 ?
b1 @
b1 A
#65
b0 !
b1 "
b0 #
b1 $
b1 %
b0 &
b1 '
b0 (
b0 )
b1 *
b0 +
b00000000000000000000000000000000 ,
b0 -
b0000000011011010 .
b0 /
b0 0
b0 1
b0 2
b0 3
b0 4
b0 5
b0 6
b1 7
b0 8
b0 9
b0 :
b0 ;
b0 <
b0 =
b0 >
b0011011101011111 ?
b0 @
b1 A
#66
b0 !
b1 "
b0 #
b1 $
b1 %
b0 &
b1 '
b0 (
b0 )
b0 *
b0 +
b00000000000000000000000000000000 ,
b0 -
b0000000011011010 .
b0 /
b0 0
b0 1
b0 2
b0 3
b0 4
b0 5
b0 6
b1 7
b0 8
b0 9
b0 :
b0 ;
b0 <
b0 =
b0 >
b0011011101011111 ?
b1 @
b1 A
#67
b0 !
b1 "
b0 #
b1 $
b1 %
b0 &
b1 '
b0 (
b0 )
b0 *
b0 +
b00000000000000000000000000000000 ,
b0 -
b0000000011011010 .
b0 /
b0 0
b0 1
b0 2
b0 3
b0 4
b0 5
b0 6
b1 7
b0 8
b0 9
b0 :
b0 ;
b0 <
b0 =
b0 >
b0011011101011111 ?
b0 @
b1 A
#68
b0 !
b1 "
b0 #
b0 $
b1 %
b0 &
b0 '
b0 (
b0 )
b0 *
b0 +
b00000000000000000000000000000000 ,
b0 -
b0000000011011010 .
b0 /
b0 0
b0 1
b0 2
b0 3
b0 4
b0 5
b0 6
b0 7
b1 8
b0 9
b0 :
b0 ;
b0 <
b0 =
b0 >
b0011011101011111 ?
b1 @
b1 A
#69
b0 !
b1 "
b0 #
b0 $
b1 %
b0 &
b0 '
b0 (
b0 )
b0 *
b0 +
b00000000000000000000000000000000 ,
b0 -
b0000000011011010 .
b0 /
b0 0
b0 1
b0 2
b0 3
b0 4
b0 5
b0 6
b0 7
b1 8
b0 9
b0 :
b0 ;
b0 <
b0 =
b0 >
b0011011101011111 ?
b0 @
b1 A
#70
b0 !
b1 "
b0 #
b0 $
b1 %
b0 &
b0 '
b0 (
b0 )
b0 *
b0 +
b00000000000000000000000000000000 ,
b0 -
b0000000011011010 .
b0 /
b0 0
b0 1
b0 2
b0 3
b0 4
b0 5
b0 6
b0 7
b1 8
b0 9
b0 :
b0 ;
b0 <
b0 =
b0 >
b0011011101011111 ?
b1 @
b1 A
#71
b0 !
b1 "
b0 #
b0 $
b1 %
b0 &
b0 '
b0 (
b0 )
b0 *
b0 +
b00000000000000000000000000000000 ,
b0 -
b0000000011011010 .
b0 /
b0 0
b0 1
b0 2
b0 3
b0 4
b0 5
b0 6
b0 7
b1 8
b0 9
b0 :
b0 ;
b0 <
b0 =
b0 >
b0011011101011111 ?
b0 @
b1 A
