examples/vcd-dumps/drscan9-100mhz-subsamp1x-usbblstr2-aa00ff55.vcd
$date
	2021-07-05 19:48
$end
$timescale 4000ps $end
$scope 1ps $end
$var wire 1 ! main_jtag_phy_altera_reserved_tck $end
$var wire 1 " main_jtag_phy_altera_reserved_tdi $end
$var wire 1 # main_jtag_phy_altera_reserved_tms $end
$var wire 1 $ main_jtag_phy_capture $end
$var wire 1 % main_jtag_phy_corectl $end
$var wire 1 & main_jtag_phy_ntdopinena $end
$var wire 1 ' main_jtag_phy_reset $end
$var wire 1 ( main_jtag_phy_runtest $end
$var wire 1 ) main_jtag_phy_sel $end
$var wire 1 * main_jtag_phy_shift $end
$var wire 1 + main_jtag_phy_tck $end
$var wire 1 , main_jtag_phy_tckcore $end
$var wire 1 - main_jtag_phy_tckutap $end
$var wire 1 . main_jtag_phy_tdi $end
$var wire 1 / main_jtag_phy_tdicore $end
$var wire 1 0 main_jtag_phy_tdiutap $end
$var wire 1 1 main_jtag_phy_tdo $end
$var wire 1 2 main_jtag_phy_tdocore $end
$var wire 1 3 main_jtag_phy_tdouser $end
$var wire 1 4 main_jtag_phy_tms $end
$var wire 1 5 main_jtag_phy_tmscore $end
$var wire 1 6 main_jtag_phy_tmsutap $end
$var wire 1 7 main_jtag_phy_update $end
$var wire 32 8 main_hello_code $end
$var wire 1 9 main_buf $end
$var wire 1 : scope_clk $end
$var wire 1 ; scope_trig $end
$unscope  $end
$enddefinitions  $end
$dumpvars
bx !
bx "
bx #
bx $
bx %
bx &
bx '
bx (
bx )
bx *
bx +
bx ,
bx -
bx .
bx /
bx 0
bx 1
bx 2
bx 3
bx 4
bx 5
bx 6
bx 7
bxxxxxxxxxxxxxxxxxxxxxxxxxxxxxxxx 8
bx 9
bx :
bx ;
$end
#0
b0 !
b0 "
b0 #
b1 $
b0 %
b0 &
b0 '
b1 (
b0 )
b0 *
b0 +
b0 ,
b0 -
b0 .
b0 /
b0 0
b1 1
b0 2
b1 3
b0 4
b0 5
b0 6
b0 7
b10101010000000001111111101010101 8
b0 9
b1 :
b0 ;
#1
b0 !
b0 "
b0 #
b1 $
b0 %
b0 &
b0 '
b1 (
b0 )
b0 *
b0 +
b0 ,
b0 -
b0 .
b0 /
b0 0
b1 1
b0 2
b1 3
b0 4
b0 5
b0 6
b0 7
b10101010000000001111111101010101 8
b0 9
b0 :
b0 ;
#2
b0 !
b0 "
b0 #
b1 $
b0 %
b0 &
b0 '
b1 (
b0 )
b0 *
b0 +
b0 ,
b0 -
b0 .
b0 /
b0 0
b1 1
b0 2
b1 3
b0 4
b0 5
b0 6
b0 7
b10101010000000001111111101010101 8
b0 9
b1 :
b0 ;
#3
b0 !
b0 "
b0 #
b1 $
b0 %
b0 &
b0 '
b1 (
b0 )
b0 *
b0 +
b0 ,
b0 -
b0 .
b0 /
b0 0
b1 1
b0 2
b1 3
b0 4
b0 5
b0 6
b0 7
b10101010000000001111111101010101 8
b0 9
b0 :
b0 ;
#4
b0 !
b0 "
b0 #
b1 $
b0 %
b0 &
b0 '
b1 (
b0 )
b0 *
b0 +
b0 ,
b0 -
b0 .
b0 /
b0 0
b1 1
b0 2
b1 3
b0 4
b0 5
b0 6
b0 7
b10101010000000001111111101010101 8
b0 9
b1 :
b0 ;
#5
b0 !
b0 "
b0 #
b1 $
b0 %
b0 &
b0 '
b1 (
b0 )
b0 *
b0 +
b0 ,
b0 -
b0 .
b0 /
b0 0
b1 1
b0 2
b1 3
b0 4
b0 5
b0 6
b0 7
b10101010000000001111111101010101 8
b0 9
b0 :
b0 ;
#6
b0 !
b0 "
b0 #
b1 $
b0 %
b0 &
b0 '
b1 (
b0 )
b0 *
b0 +
b0 ,
b0 -
b0 .
b0 /
b0 0
b1 1
b0 2
b1 3
b0 4
b0 5
b0 6
b0 7
b10101010000000001111111101010101 8
b0 9
b1 :
b0 ;
#7
b0 !
b0 "
b0 #
b1 $
b0 %
b0 &
b0 '
b1 (
b0 )
b0 *
b0 +
b0 ,
b0 -
b0 .
b0 /
b0 0
b1 1
b0 2
b1 3
b0 4
b0 5
b0 6
b0 7
b10101010000000001111111101010101 8
b0 9
b0 :
b0 ;
#8
b0 !
b0 "
b0 #
b1 $
b0 %
b0 &
b0 '
b1 (
b0 )
b0 *
b0 +
b0 ,
b0 -
b0 .
b0 /
b0 0
b1 1
b0 2
b1 3
b0 4
b0 5
b0 6
b0 7
b10101010000000001111111101010101 8
b0 9
b1 :
b0 ;
#9
b0 !
b0 "
b0 #
b1 $
b0 %
b0 &
b0 '
b1 (
b0 )
b0 *
b0 +
b0 ,
b0 -
b0 .
b0 /
b0 0
b1 1
b0 2
b1 3
b0 4
b0 5
b0 6
b0 7
b10101010000000001111111101010101 8
b0 9
b0 :
b0 ;
#10
b0 !
b0 "
b0 #
b1 $
b0 %
b0 &
b0 '
b1 (
b0 )
b0 *
b0 +
b0 ,
b0 -
b0 .
b0 /
b0 0
b1 1
b0 2
b1 3
b0 4
b0 5
b0 6
b0 7
b10101010000000001111111101010101 8
b0 9
b1 :
b0 ;
#11
b0 !
b0 "
b0 #
b1 $
b0 %
b0 &
b0 '
b1 (
b0 )
b0 *
b0 +
b0 ,
b0 -
b0 .
b0 /
b0 0
b1 1
b0 2
b1 3
b0 4
b0 5
b0 6
b0 7
b10101010000000001111111101010101 8
b0 9
b0 :
b0 ;
#12
b0 !
b0 "
b0 #
b1 $
b0 %
b0 &
b0 '
b1 (
b0 )
b0 *
b0 +
b0 ,
b0 -
b0 .
b0 /
b0 0
b1 1
b0 2
b1 3
b0 4
b0 5
b0 6
b0 7
b10101010000000001111111101010101 8
b0 9
b1 :
b0 ;
#13
b0 !
b0 "
b0 #
b1 $
b0 %
b0 &
b0 '
b1 (
b0 )
b0 *
b0 +
b0 ,
b0 -
b0 .
b0 /
b0 0
b1 1
b0 2
b1 3
b0 4
b0 5
b0 6
b0 7
b10101010000000001111111101010101 8
b0 9
b0 :
b0 ;
#14
b0 !
b0 "
b0 #
b1 $
b0 %
b0 &
b0 '
b1 (
b0 )
b0 *
b0 +
b0 ,
b0 -
b0 .
b0 /
b0 0
b1 1
b0 2
b1 3
b0 4
b0 5
b0 6
b0 7
b10101010000000001111111101010101 8
b0 9
b1 :
b0 ;
#15
b0 !
b0 "
b0 #
b1 $
b0 %
b0 &
b0 '
b1 (
b0 )
b0 *
b0 +
b0 ,
b0 -
b0 .
b0 /
b0 0
b1 1
b0 2
b1 3
b0 4
b0 5
b0 6
b0 7
b10101010000000001111111101010101 8
b0 9
b0 :
b0 ;
#16
b0 !
b0 "
b0 #
b1 $
b0 %
b0 &
b0 '
b1 (
b0 )
b0 *
b0 +
b0 ,
b0 -
b0 .
b0 /
b0 0
b1 1
b0 2
b1 3
b0 4
b0 5
b0 6
b0 7
b10101010000000001111111101010101 8
b0 9
b1 :
b0 ;
#17
b0 !
b0 "
b0 #
b1 $
b0 %
b0 &
b0 '
b1 (
b0 )
b0 *
b0 +
b0 ,
b0 -
b0 .
b0 /
b0 0
b1 1
b0 2
b1 3
b0 4
b0 5
b0 6
b0 7
b10101010000000001111111101010101 8
b0 9
b0 :
b0 ;
#18
b0 !
b0 "
b0 #
b1 $
b0 %
b0 &
b0 '
b1 (
b0 )
b0 *
b0 +
b0 ,
b0 -
b0 .
b0 /
b0 0
b1 1
b0 2
b1 3
b0 4
b0 5
b0 6
b0 7
b10101010000000001111111101010101 8
b0 9
b1 :
b0 ;
#19
b0 !
b0 "
b0 #
b1 $
b0 %
b0 &
b0 '
b1 (
b0 )
b0 *
b0 +
b0 ,
b0 -
b0 .
b0 /
b0 0
b1 1
b0 2
b1 3
b0 4
b0 5
b0 6
b0 7
b10101010000000001111111101010101 8
b0 9
b0 :
b0 ;
#20
b0 !
b0 "
b0 #
b1 $
b0 %
b0 &
b0 '
b1 (
b0 )
b0 *
b0 +
b0 ,
b0 -
b0 .
b0 /
b0 0
b1 1
b0 2
b1 3
b0 4
b0 5
b0 6
b0 7
b10101010000000001111111101010101 8
b0 9
b1 :
b0 ;
#21
b0 !
b0 "
b0 #
b1 $
b0 %
b0 &
b0 '
b1 (
b0 )
b0 *
b0 +
b0 ,
b0 -
b0 .
b0 /
b0 0
b1 1
b0 2
b1 3
b0 4
b0 5
b0 6
b0 7
b10101010000000001111111101010101 8
b0 9
b0 :
b0 ;
#22
b0 !
b0 "
b0 #
b1 $
b0 %
b0 &
b0 '
b1 (
b0 )
b0 *
b0 +
b0 ,
b0 -
b0 .
b0 /
b0 0
b1 1
b0 2
b1 3
b0 4
b0 5
b0 6
b0 7
b10101010000000001111111101010101 8
b0 9
b1 :
b0 ;
#23
b0 !
b0 "
b0 #
b1 $
b0 %
b0 &
b0 '
b1 (
b0 )
b0 *
b0 +
b0 ,
b0 -
b0 .
b0 /
b0 0
b1 1
b0 2
b1 3
b0 4
b0 5
b0 6
b0 7
b10101010000000001111111101010101 8
b0 9
b0 :
b0 ;
#24
b0 !
b0 "
b0 #
b1 $
b0 %
b0 &
b0 '
b1 (
b0 )
b0 *
b0 +
b0 ,
b0 -
b0 .
b0 /
b0 0
b1 1
b0 2
b1 3
b0 4
b0 5
b0 6
b0 7
b10101010000000001111111101010101 8
b0 9
b1 :
b0 ;
#25
b0 !
b0 "
b0 #
b1 $
b0 %
b0 &
b0 '
b1 (
b0 )
b0 *
b0 +
b0 ,
b0 -
b0 .
b0 /
b0 0
b1 1
b0 2
b1 3
b0 4
b0 5
b0 6
b0 7
b10101010000000001111111101010101 8
b0 9
b0 :
b0 ;
#26
b0 !
b0 "
b0 #
b1 $
b0 %
b0 &
b0 '
b1 (
b0 )
b0 *
b0 +
b0 ,
b0 -
b0 .
b0 /
b0 0
b1 1
b0 2
b1 3
b0 4
b0 5
b0 6
b0 7
b10101010000000001111111101010101 8
b0 9
b1 :
b0 ;
#27
b0 !
b0 "
b0 #
b1 $
b0 %
b0 &
b0 '
b1 (
b0 )
b0 *
b0 +
b0 ,
b0 -
b0 .
b0 /
b0 0
b1 1
b0 2
b1 3
b0 4
b0 5
b0 6
b0 7
b10101010000000001111111101010101 8
b0 9
b0 :
b0 ;
#28
b0 !
b0 "
b0 #
b1 $
b0 %
b0 &
b0 '
b1 (
b0 )
b0 *
b0 +
b0 ,
b0 -
b0 .
b0 /
b0 0
b1 1
b0 2
b1 3
b0 4
b0 5
b0 6
b0 7
b10101010000000001111111101010101 8
b0 9
b1 :
b0 ;
#29
b0 !
b0 "
b0 #
b1 $
b0 %
b0 &
b0 '
b1 (
b0 )
b0 *
b0 +
b0 ,
b0 -
b0 .
b0 /
b0 0
b1 1
b0 2
b1 3
b0 4
b0 5
b0 6
b0 7
b10101010000000001111111101010101 8
b0 9
b0 :
b0 ;
#30
b0 !
b0 "
b0 #
b1 $
b0 %
b0 &
b0 '
b1 (
b0 )
b0 *
b0 +
b0 ,
b0 -
b0 .
b0 /
b0 0
b1 1
b0 2
b1 3
b0 4
b0 5
b0 6
b0 7
b10101010000000001111111101010101 8
b0 9
b1 :
b0 ;
#31
b0 !
b0 "
b0 #
b1 $
b0 %
b0 &
b0 '
b1 (
b0 )
b0 *
b0 +
b0 ,
b0 -
b0 .
b0 /
b0 0
b1 1
b0 2
b1 3
b0 4
b0 5
b0 6
b0 7
b10101010000000001111111101010101 8
b0 9
b0 :
b0 ;
#32
b0 !
b0 "
b0 #
b1 $
b0 %
b0 &
b0 '
b1 (
b0 )
b0 *
b0 +
b0 ,
b0 -
b0 .
b0 /
b0 0
b1 1
b0 2
b1 3
b0 4
b0 5
b0 6
b0 7
b10101010000000001111111101010101 8
b0 9
b1 :
b1 ;
#33
b0 !
b0 "
b0 #
b1 $
b0 %
b0 &
b0 '
b1 (
b0 )
b0 *
b0 +
b0 ,
b0 -
b0 .
b0 /
b0 0
b1 1
b0 2
b1 3
b0 4
b0 5
b0 6
b0 7
b10101010000000001111111101010101 8
b0 9
b0 :
b1 ;
#34
b0 !
b0 "
b0 #
b1 $
b0 %
b0 &
b0 '
b1 (
b0 )
b0 *
b0 +
b0 ,
b0 -
b0 .
b0 /
b0 0
b1 1
b0 2
b1 3
b0 4
b0 5
b0 6
b0 7
b10101010000000001111111101010101 8
b0 9
b1 :
b1 ;
#35
b0 !
b0 "
b0 #
b1 $
b0 %
b0 &
b0 '
b1 (
b0 )
b0 *
b0 +
b0 ,
b0 -
b0 .
b0 /
b0 0
b1 1
b0 2
b1 3
b0 4
b0 5
b0 6
b0 7
b10101010000000001111111101010101 8
b0 9
b0 :
b1 ;
#36
b0 !
b0 "
b0 #
b1 $
b0 %
b0 &
b0 '
b1 (
b0 )
b0 *
b0 +
b0 ,
b0 -
b0 .
b0 /
b0 0
b1 1
b0 2
b1 3
b0 4
b0 5
b0 6
b0 7
b10101010000000001111111101010101 8
b0 9
b1 :
b1 ;
#37
b0 !
b0 "
b0 #
b1 $
b0 %
b0 &
b0 '
b1 (
b0 )
b0 *
b0 +
b0 ,
b0 -
b0 .
b0 /
b0 0
b1 1
b0 2
b1 3
b0 4
b0 5
b0 6
b0 7
b10101010000000001111111101010101 8
b0 9
b0 :
b1 ;
#38
b0 !
b0 "
b0 #
b1 $
b0 %
b0 &
b0 '
b1 (
b0 )
b0 *
b0 +
b0 ,
b0 -
b0 .
b0 /
b0 0
b1 1
b0 2
b1 3
b0 4
b0 5
b0 6
b0 7
b10101010000000001111111101010101 8
b0 9
b1 :
b1 ;
#39
b0 !
b0 "
b0 #
b1 $
b0 %
b0 &
b0 '
b1 (
b0 )
b0 *
b0 +
b0 ,
b0 -
b0 .
b0 /
b0 0
b1 1
b0 2
b1 3
b0 4
b0 5
b0 6
b0 7
b10101010000000001111111101010101 8
b0 9
b0 :
b1 ;
#40
b0 !
b0 "
b0 #
b1 $
b0 %
b0 &
b0 '
b1 (
b0 )
b0 *
b0 +
b0 ,
b0 -
b0 .
b0 /
b0 0
b1 1
b0 2
b1 3
b0 4
b0 5
b0 6
b0 7
b10101010000000001111111101010101 8
b0 9
b1 :
b1 ;
#41
b0 !
b0 "
b0 #
b1 $
b0 %
b0 &
b0 '
b1 (
b0 )
b0 *
b0 +
b0 ,
b0 -
b0 .
b0 /
b0 0
b1 1
b0 2
b1 3
b0 4
b0 5
b0 6
b0 7
b10101010000000001111111101010101 8
b0 9
b0 :
b1 ;
#42
b0 !
b0 "
b0 #
b1 $
b0 %
b0 &
b0 '
b1 (
b0 )
b0 *
b0 +
b0 ,
b0 -
b0 .
b0 /
b0 0
b1 1
b0 2
b1 3
b0 4
b0 5
b0 6
b0 7
b10101010000000001111111101010101 8
b0 9
b1 :
b1 ;
#43
b0 !
b0 "
b0 #
b1 $
b0 %
b0 &
b0 '
b1 (
b0 )
b0 *
b0 +
b0 ,
b0 -
b0 .
b0 /
b0 0
b1 1
b0 2
b1 3
b0 4
b0 5
b0 6
b0 7
b10101010000000001111111101010101 8
b0 9
b0 :
b1 ;
#44
b0 !
b0 "
b0 #
b1 $
b0 %
b0 &
b0 '
b1 (
b0 )
b0 *
b0 +
b0 ,
b0 -
b0 .
b0 /
b0 0
b1 1
b0 2
b1 3
b0 4
b0 5
b0 6
b0 7
b10101010000000001111111101010101 8
b0 9
b1 :
b1 ;
#45
b0 !
b0 "
b0 #
b1 $
b0 %
b0 &
b0 '
b1 (
b0 )
b0 *
b0 +
b0 ,
b0 -
b0 .
b0 /
b0 0
b1 1
b0 2
b1 3
b0 4
b0 5
b0 6
b0 7
b10101010000000001111111101010101 8
b0 9
b0 :
b1 ;
#46
b0 !
b0 "
b0 #
b1 $
b0 %
b0 &
b0 '
b1 (
b0 )
b0 *
b0 +
b0 ,
b0 -
b0 .
b0 /
b0 0
b1 1
b0 2
b1 3
b0 4
b0 5
b0 6
b0 7
b10101010000000001111111101010101 8
b0 9
b1 :
b1 ;
#47
b0 !
b0 "
b0 #
b1 $
b0 %
b0 &
b0 '
b1 (
b0 )
b0 *
b0 +
b0 ,
b0 -
b0 .
b0 /
b0 0
b1 1
b0 2
b1 3
b0 4
b0 5
b0 6
b0 7
b10101010000000001111111101010101 8
b0 9
b0 :
b1 ;
#48
b0 !
b0 "
b0 #
b1 $
b0 %
b0 &
b0 '
b1 (
b0 )
b0 *
b0 +
b0 ,
b0 -
b0 .
b0 /
b0 0
b1 1
b0 2
b1 3
b0 4
b0 5
b0 6
b0 7
b10101010000000001111111101010101 8
b0 9
b1 :
b1 ;
#49
b0 !
b0 "
b0 #
b1 $
b0 %
b0 &
b0 '
b1 (
b0 )
b0 *
b0 +
b0 ,
b0 -
b0 .
b0 /
b0 0
b1 1
b0 2
b1 3
b0 4
b0 5
b0 6
b0 7
b10101010000000001111111101010101 8
b0 9
b0 :
b1 ;
#50
b0 !
b0 "
b0 #
b1 $
b0 %
b0 &
b0 '
b1 (
b0 )
b0 *
b0 +
b0 ,
b0 -
b0 .
b0 /
b0 0
b1 1
b0 2
b1 3
b0 4
b0 5
b0 6
b0 7
b10101010000000001111111101010101 8
b0 9
b1 :
b1 ;
#51
b0 !
b0 "
b0 #
b1 $
b0 %
b0 &
b0 '
b1 (
b0 )
b0 *
b0 +
b0 ,
b0 -
b0 .
b0 /
b0 0
b1 1
b0 2
b1 3
b0 4
b0 5
b0 6
b0 7
b10101010000000001111111101010101 8
b0 9
b0 :
b1 ;
#52
b0 !
b0 "
b0 #
b1 $
b0 %
b0 &
b0 '
b1 (
b0 )
b0 *
b0 +
b0 ,
b0 -
b0 .
b0 /
b0 0
b1 1
b0 2
b1 3
b0 4
b0 5
b0 6
b0 7
b10101010000000001111111101010101 8
b0 9
b1 :
b1 ;
#53
b0 !
b0 "
b0 #
b1 $
b0 %
b0 &
b0 '
b1 (
b0 )
b0 *
b0 +
b0 ,
b0 -
b0 .
b0 /
b0 0
b1 1
b0 2
b1 3
b0 4
b0 5
b0 6
b0 7
b10101010000000001111111101010101 8
b0 9
b0 :
b1 ;
#54
b0 !
b0 "
b1 #
b1 $
b0 %
b0 &
b0 '
b1 (
b0 )
b0 *
b0 +
b0 ,
b0 -
b0 .
b0 /
b0 0
b1 1
b0 2
b1 3
b1 4
b0 5
b1 6
b0 7
b10101010000000001111111101010101 8
b0 9
b1 :
b1 ;
#55
b0 !
b0 "
b1 #
b1 $
b0 %
b0 &
b0 '
b1 (
b0 )
b0 *
b0 +
b0 ,
b0 -
b0 .
b0 /
b0 0
b1 1
b0 2
b1 3
b1 4
b0 5
b1 6
b0 7
b10101010000000001111111101010101 8
b0 9
b0 :
b1 ;
#56
b0 !
b0 "
b1 #
b1 $
b0 %
b0 &
b0 '
b1 (
b0 )
b0 *
b0 +
b0 ,
b0 -
b0 .
b0 /
b0 0
b1 1
b0 2
b1 3
b1 4
b0 5
b1 6
b0 7
b10101010000000001111111101010101 8
b0 9
b1 :
b1 ;
#57
b0 !
b0 "
b1 #
b1 $
b0 %
b0 &
b0 '
b1 (
b0 )
b0 *
b0 +
b0 ,
b0 -
b0 .
b0 /
b0 0
b1 1
b0 2
b1 3
b1 4
b0 5
b1 6
b0 7
b10101010000000001111111101010101 8
b0 9
b0 :
b1 ;
#58
b1 !
b0 "
b1 #
b1 $
b0 %
b0 &
b0 '
b1 (
b0 )
b0 *
b1 +
b0 ,
b1 -
b0 .
b0 /
b0 0
b1 1
b0 2
b1 3
b1 4
b0 5
b1 6
b0 7
b10101010000000001111111101010101 8
b0 9
b1 :
b1 ;
#59
b1 !
b0 "
b1 #
b1 $
b0 %
b0 &
b0 '
b1 (
b0 )
b0 *
b1 +
b0 ,
b1 -
b0 .
b0 /
b0 0
b1 1
b0 2
b1 3
b1 4
b0 5
b1 6
b0 7
b10101010000000001111111101010101 8
b0 9
b0 :
b1 ;
#60
b1 !
b0 "
b1 #
b1 $
b0 %
b0 &
b0 '
b0 (
b0 )
b0 *
b1 +
b0 ,
b1 -
b0 .
b0 /
b0 0
b1 1
b1 2
b1 3
b1 4
b0 5
b1 6
b0 7
b10101010000000001111111101010101 8
b0 9
b1 :
b1 ;
#61
b1 !
b0 "
b1 #
b1 $
b0 %
b0 &
b0 '
b0 (
b0 )
b0 *
b1 +
b0 ,
b1 -
b0 .
b0 /
b0 0
b1 1
b1 2
b1 3
b1 4
b0 5
b1 6
b0 7
b10101010000000001111111101010101 8
b0 9
b0 :
b1 ;
#62
b1 !
b0 "
b1 #
b1 $
b0 %
b0 &
b0 '
b0 (
b0 )
b0 *
b0 +
b0 ,
b0 -
b0 .
b0 /
b0 0
b1 1
b1 2
b1 3
b0 4
b0 5
b0 6
b0 7
b10101010000000001111111101010101 8
b0 9
b1 :
b1 ;
#63
b1 !
b0 "
b1 #
b1 $
b0 %
b0 &
b0 '
b0 (
b0 )
b0 *
b0 +
b0 ,
b0 -
b0 .
b0 /
b0 0
b1 1
b1 2
b1 3
b0 4
b0 5
b0 6
b0 7
b10101010000000001111111101010101 8
b0 9
b0 :
b1 ;
#64
b0 !
b0 "
b0 #
b1 $
b0 %
b0 &
b0 '
b0 (
b0 )
b0 *
b0 +
b0 ,
b0 -
b0 .
b0 /
b0 0
b1 1
b1 2
b1 3
b0 4
b0 5
b0 6
b0 7
b10101010000000001111111101010101 8
b0 9
b1 :
b1 ;
#65
b0 !
b0 "
b0 #
b1 $
b0 %
b0 &
b0 '
b0 (
b0 )
b0 *
b0 +
b0 ,
b0 -
b0 .
b0 /
b0 0
b1 1
b1 2
b1 3
b0 4
b0 5
b0 6
b0 7
b10101010000000001111111101010101 8
b0 9
b0 :
b1 ;
#66
b0 !
b0 "
b0 #
b1 $
b0 %
b0 &
b0 '
b0 (
b0 )
b0 *
b0 +
b0 ,
b0 -
b0 .
b0 /
b0 0
b1 1
b1 2
b1 3
b0 4
b0 5
b0 6
b0 7
b10101010000000001111111101010101 8
b0 9
b1 :
b1 ;
#67
b0 !
b0 "
b0 #
b1 $
b0 %
b0 &
b0 '
b0 (
b0 )
b0 *
b0 +
b0 ,
b0 -
b0 .
b0 /
b0 0
b1 1
b1 2
b1 3
b0 4
b0 5
b0 6
b0 7
b10101010000000001111111101010101 8
b0 9
b0 :
b1 ;
#68
b1 !
b0 "
b0 #
b1 $
b0 %
b0 &
b0 '
b0 (
b0 )
b0 *
b1 +
b0 ,
b1 -
b0 .
b0 /
b0 0
b1 1
b1 2
b1 3
b0 4
b0 5
b0 6
b0 7
b10101010000000001111111101010101 8
b0 9
b1 :
b1 ;
#69
b1 !
b0 "
b0 #
b1 $
b0 %
b0 &
b0 '
b0 (
b0 )
b0 *
b1 +
b0 ,
b1 -
b0 .
b0 /
b0 0
b1 1
b1 2
b1 3
b0 4
b0 5
b0 6
b0 7
b10101010000000001111111101010101 8
b0 9
b0 :
b1 ;
#70
b1 !
b0 "
b0 #
b1 $
b0 %
b0 &
b0 '
b0 (
b0 )
b0 *
b1 +
b0 ,
b1 -
b0 .
b0 /
b0 0
b1 1
b1 2
b1 3
b0 4
b0 5
b0 6
b0 7
b10101010000000001111111101010101 8
b0 9
b1 :
b1 ;
#71
b1 !
b0 "
b0 #
b1 $
b0 %
b0 &
b0 '
b0 (
b0 )
b0 *
b1 +
b0 ,
b1 -
b0 .
b0 /
b0 0
b1 1
b1 2
b1 3
b0 4
b0 5
b0 6
b0 7
b10101010000000001111111101010101 8
b0 9
b0 :
b1 ;
#72
b0 !
b0 "
b0 #
b0 $
b0 %
b0 &
b0 '
b0 (
b0 )
b0 *
b0 +
b0 ,
b0 -
b0 .
b0 /
b0 0
b1 1
b1 2
b1 3
b0 4
b0 5
b0 6
b0 7
b10101010000000001111111101010101 8
b0 9
b1 :
b1 ;
#73
b0 !
b0 "
b0 #
b0 $
b0 %
b0 &
b0 '
b0 (
b0 )
b0 *
b0 +
b0 ,
b0 -
b0 .
b0 /
b0 0
b1 1
b1 2
b1 3
b0 4
b0 5
b0 6
b0 7
b10101010000000001111111101010101 8
b0 9
b0 :
b1 ;
#74
b0 !
b0 "
b0 #
b0 $
b0 %
b0 &
b0 '
b0 (
b0 )
b0 *
b0 +
b0 ,
b0 -
b0 .
b0 /
b0 0
b1 1
b1 2
b1 3
b0 4
b0 5
b0 6
b0 7
b10101010000000001111111101010101 8
b0 9
b1 :
b1 ;
#75
b0 !
b0 "
b0 #
b0 $
b0 %
b0 &
b0 '
b0 (
b0 )
b0 *
b0 +
b0 ,
b0 -
b0 .
b0 /
b0 0
b1 1
b1 2
b1 3
b0 4
b0 5
b0 6
b0 7
b10101010000000001111111101010101 8
b0 9
b0 :
b1 ;
#76
b1 !
b0 "
b0 #
b1 $
b0 %
b0 &
b0 '
b0 (
b0 )
b0 *
b1 +
b0 ,
b1 -
b0 .
b0 /
b0 0
b1 1
b1 2
b1 3
b0 4
b0 5
b0 6
b0 7
b10101010000000001111111101010101 8
b0 9
b1 :
b1 ;
#77
b1 !
b0 "
b0 #
b1 $
b0 %
b0 &
b0 '
b0 (
b0 )
b0 *
b1 +
b0 ,
b1 -
b0 .
b0 /
b0 0
b1 1
b1 2
b1 3
b0 4
b0 5
b0 6
b0 7
b10101010000000001111111101010101 8
b0 9
b0 :
b1 ;
#78
b1 !
b0 "
b0 #
b1 $
b0 %
b0 &
b0 '
b0 (
b0 )
b0 *
b1 +
b0 ,
b1 -
b0 .
b0 /
b0 0
b1 1
b1 2
b1 3
b0 4
b0 5
b0 6
b0 7
b10101010000000001111111101010101 8
b0 9
b1 :
b1 ;
#79
b1 !
b0 "
b0 #
b1 $
b0 %
b0 &
b0 '
b0 (
b0 )
b0 *
b1 +
b0 ,
b1 -
b0 .
b0 /
b0 0
b1 1
b1 2
b1 3
b0 4
b0 5
b0 6
b0 7
b10101010000000001111111101010101 8
b0 9
b0 :
b1 ;
#80
b0 !
b0 "
b0 #
b0 $
b0 %
b0 &
b0 '
b0 (
b0 )
b1 *
b0 +
b0 ,
b0 -
b0 .
b0 /
b0 0
b1 1
b1 2
b1 3
b0 4
b0 5
b0 6
b0 7
b10101010000000001111111101010101 8
b0 9
b1 :
b1 ;
#81
b0 !
b0 "
b0 #
b0 $
b0 %
b0 &
b0 '
b0 (
b0 )
b1 *
b0 +
b0 ,
b0 -
b0 .
b0 /
b0 0
b1 1
b1 2
b1 3
b0 4
b0 5
b0 6
b0 7
b10101010000000001111111101010101 8
b0 9
b0 :
b1 ;
#82
b0 !
b0 "
b0 #
b0 $
b0 %
b0 &
b0 '
b0 (
b0 )
b1 *
b0 +
b0 ,
b0 -
b0 .
b0 /
b0 0
b1 1
b1 2
b1 3
b0 4
b0 5
b0 6
b0 7
b10101010000000001111111101010101 8
b0 9
b1 :
b1 ;
#83
b0 !
b0 "
b0 #
b0 $
b0 %
b0 &
b0 '
b0 (
b0 )
b1 *
b0 +
b0 ,
b0 -
b0 .
b0 /
b0 0
b1 1
b1 2
b1 3
b0 4
b0 5
b0 6
b0 7
b10101010000000001111111101010101 8
b0 9
b0 :
b1 ;
#84
b0 !
b0 "
b0 #
b0 $
b0 %
b0 &
b0 '
b0 (
b0 )
b1 *
b0 +
b0 ,
b0 -
b0 .
b0 /
b0 0
b1 1
b1 2
b1 3
b0 4
b0 5
b0 6
b0 7
b10101010000000001111111101010101 8
b0 9
b1 :
b1 ;
#85
b0 !
b0 "
b0 #
b0 $
b0 %
b0 &
b0 '
b0 (
b0 )
b1 *
b0 +
b0 ,
b0 -
b0 .
b0 /
b0 0
b1 1
b1 2
b1 3
b0 4
b0 5
b0 6
b0 7
b10101010000000001111111101010101 8
b0 9
b0 :
b1 ;
#86
b0 !
b0 "
b0 #
b0 $
b0 %
b0 &
b0 '
b0 (
b0 )
b1 *
b0 +
b0 ,
b0 -
b0 .
b0 /
b0 0
b1 1
b1 2
b1 3
b0 4
b0 5
b0 6
b0 7
b10101010000000001111111101010101 8
b0 9
b1 :
b1 ;
#87
b0 !
b0 "
b0 #
b0 $
b0 %
b0 &
b0 '
b0 (
b0 )
b1 *
b0 +
b0 ,
b0 -
b0 .
b0 /
b0 0
b1 1
b1 2
b1 3
b0 4
b0 5
b0 6
b0 7
b10101010000000001111111101010101 8
b0 9
b0 :
b1 ;
#88
b0 !
b1 "
b0 #
b0 $
b0 %
b0 &
b0 '
b0 (
b0 )
b1 *
b0 +
b0 ,
b0 -
b1 .
b0 /
b1 0
b1 1
b1 2
b1 3
b0 4
b0 5
b0 6
b0 7
b10101010000000001111111101010101 8
b0 9
b1 :
b1 ;
#89
b0 !
b1 "
b0 #
b0 $
b0 %
b0 &
b0 '
b0 (
b0 )
b1 *
b0 +
b0 ,
b0 -
b1 .
b0 /
b1 0
b1 1
b1 2
b1 3
b0 4
b0 5
b0 6
b0 7
b10101010000000001111111101010101 8
b0 9
b0 :
b1 ;
#90
b0 !
b1 "
b0 #
b0 $
b0 %
b0 &
b0 '
b0 (
b0 )
b1 *
b0 +
b0 ,
b0 -
b1 .
b0 /
b1 0
b1 1
b1 2
b1 3
b0 4
b0 5
b0 6
b0 7
b10101010000000001111111101010101 8
b0 9
b1 :
b1 ;
#91
b0 !
b1 "
b0 #
b0 $
b0 %
b0 &
b0 '
b0 (
b0 )
b1 *
b0 +
b0 ,
b0 -
b1 .
b0 /
b1 0
b1 1
b1 2
b1 3
b0 4
b0 5
b0 6
b0 7
b10101010000000001111111101010101 8
b0 9
b0 :
b1 ;
#92
b1 !
b1 "
b0 #
b1 $
b0 %
b0 &
b0 '
b0 (
b0 )
b1 *
b1 +
b0 ,
b1 -
b1 .
b0 /
b1 0
b0 1
b1 2
b0 3
b0 4
b0 5
b0 6
b0 7
b11010101000000000111111110101010 8
b0 9
b1 :
b1 ;
#93
b1 !
b1 "
b0 #
b1 $
b0 %
b0 &
b0 '
b0 (
b0 )
b1 *
b1 +
b0 ,
b1 -
b1 .
b0 /
b1 0
b0 1
b1 2
b0 3
b0 4
b0 5
b0 6
b0 7
b11010101000000000111111110101010 8
b0 9
b0 :
b1 ;
