examples/vcd-dumps/drscan-eleventy-arty-20mhz-0x55007faa-read-back.vcd
$date
	2021-07-08 20:01
$end
$timescale 4000ps $end
$scope 1ps $end
$var wire 1 ! main_jtag_phy_capture $end
$var wire 1 " main_jtag_phy_drck $end
$var wire 1 # main_jtag_phy_reset $end
$var wire 1 $ main_jtag_phy_runtest $end
$var wire 1 % main_jtag_phy_sel $end
$var wire 1 & main_jtag_phy_shift $end
$var wire 1 ' main_jtag_phy_tck $end
$var wire 1 ( main_jtag_phy_tdi $end
$var wire 1 ) main_jtag_phy_tdo $end
$var wire 1 * main_jtag_phy_tms $end
$var wire 1 + main_jtag_phy_update $end
$var wire 32 , main_jtag_hello_hello_code $end
$var wire 16 - main_jtag_hello_tck_cnt $end
$var wire 1 . main_jtag_phy_CAPTURE_DR $end
$var wire 1 / main_jtag_phy_CAPTURE_IR $end
$var wire 1 0 main_jtag_phy_EXIT1_DR $end
$var wire 1 1 main_jtag_phy_EXIT1_IR $end
$var wire 1 2 main_jtag_phy_EXIT2_DR $end
$var wire 1 3 main_jtag_phy_EXIT2_IR $end
$var wire 1 4 main_jtag_phy_PAUSE_DR $end
$var wire 1 5 main_jtag_phy_PAUSE_IR $end
$var wire 1 6 main_jtag_phy_RUN_TEST_IDLE $end
$var wire 1 7 main_jtag_phy_SELECT_DR_SCAN $end
$var wire 1 8 main_jtag_phy_SELECT_IR_SCAN $end
$var wire 1 9 main_jtag_phy_SHIFT_DR $end
$var wire 1 : main_jtag_phy_SHIFT_IR $end
$var wire 1 ; main_jtag_phy_TEST_LOGIC_RESET $end
$var wire 1 < main_jtag_phy_UPDATE_DR $end
$var wire 1 = main_jtag_phy_UPDATE_IR $end
$var wire 16 > main_jtag_phy_tck_cnt $end
$var wire 1 ? scope_clk $end
$var wire 1 @ scope_trig $end
$unscope  $end
$enddefinitions  $end
$dumpvars
bx !
bx "
bx #
bx $
bx %
bx &
bx '
bx (
bx )
bx *
bx +
bxxxxxxxxxxxxxxxxxxxxxxxxxxxxxxxx ,
bxxxxxxxxxxxxxxxx -
bx .
bx /
bx 0
bx 1
bx 2
bx 3
bx 4
bx 5
bx 6
bx 7
bx 8
bx 9
bx :
bx ;
bx <
bx =
bxxxxxxxxxxxxxxxx >
bx ?
bx @
$end
#0
b0 !
b1 "
b0 #
b1 $
b1 %
b0 &
b0 '
b0 (
b0 )
b0 *
b0 +
b10101010000000001111111101010101 ,
b0000000000000000 -
b0 .
b0 /
b0 0
b0 1
b0 2
b0 3
b0 4
b0 5
b1 6
b0 7
b0 8
b0 9
b0 :
b0 ;
b0 <
b0 =
b0101010101010110 >
b1 ?
b0 @
#1
b0 !
b1 "
b0 #
b1 $
b1 %
b0 &
b0 '
b0 (
b0 )
b0 *
b0 +
b10101010000000001111111101010101 ,
b0000000000000000 -
b0 .
b0 /
b0 0
b0 1
b0 2
b0 3
b0 4
b0 5
b1 6
b0 7
b0 8
b0 9
b0 :
b0 ;
b0 <
b0 =
b0101010101010110 >
b0 ?
b0 @
#2
b0 !
b1 "
b0 #
b1 $
b1 %
b0 &
b0 '
b0 (
b0 )
b0 *
b0 +
b10101010000000001111111101010101 ,
b0000000000000000 -
b0 .
b0 /
b0 0
b0 1
b0 2
b0 3
b0 4
b0 5
b1 6
b0 7
b0 8
b0 9
b0 :
b0 ;
b0 <
b0 =
b0101010101010110 >
b1 ?
b0 @
#3
b0 !
b1 "
b0 #
b1 $
b1 %
b0 &
b0 '
b0 (
b0 )
b0 *
b0 +
b10101010000000001111111101010101 ,
b0000000000000000 -
b0 .
b0 /
b0 0
b0 1
b0 2
b0 3
b0 4
b0 5
b1 6
b0 7
b0 8
b0 9
b0 :
b0 ;
b0 <
b0 =
b0101010101010110 >
b0 ?
b0 @
#4
b0 !
b1 "
b0 #
b1 $
b1 %
b0 &
b0 '
b0 (
b0 )
b0 *
b0 +
b10101010000000001111111101010101 ,
b0000000000000000 -
b0 .
b0 /
b0 0
b0 1
b0 2
b0 3
b0 4
b0 5
b1 6
b0 7
b0 8
b0 9
b0 :
b0 ;
b0 <
b0 =
b0101010101010110 >
b1 ?
b0 @
#5
b0 !
b1 "
b0 #
b1 $
b1 %
b0 &
b0 '
b0 (
b0 )
b0 *
b0 +
b10101010000000001111111101010101 ,
b0000000000000000 -
b0 .
b0 /
b0 0
b0 1
b0 2
b0 3
b0 4
b0 5
b1 6
b0 7
b0 8
b0 9
b0 :
b0 ;
b0 <
b0 =
b0101010101010110 >
b0 ?
b0 @
#6
b0 !
b1 "
b0 #
b1 $
b1 %
b0 &
b0 '
b0 (
b0 )
b0 *
b0 +
b10101010000000001111111101010101 ,
b0000000000000000 -
b0 .
b0 /
b0 0
b0 1
b0 2
b0 3
b0 4
b0 5
b1 6
b0 7
b0 8
b0 9
b0 :
b0 ;
b0 <
b0 =
b0101010101010110 >
b1 ?
b0 @
#7
b0 !
b1 "
b0 #
b1 $
b1 %
b0 &
b0 '
b0 (
b0 )
b0 *
b0 +
b10101010000000001111111101010101 ,
b0000000000000000 -
b0 .
b0 /
b0 0
b0 1
b0 2
b0 3
b0 4
b0 5
b1 6
b0 7
b0 8
b0 9
b0 :
b0 ;
b0 <
b0 =
b0101010101010110 >
b0 ?
b0 @
#8
b0 !
b1 "
b0 #
b1 $
b1 %
b0 &
b0 '
b0 (
b0 )
b0 *
b0 +
b10101010000000001111111101010101 ,
b0000000000000000 -
b0 .
b0 /
b0 0
b0 1
b0 2
b0 3
b0 4
b0 5
b1 6
b0 7
b0 8
b0 9
b0 :
b0 ;
b0 <
b0 =
b0101010101010110 >
b1 ?
b0 @
#9
b0 !
b1 "
b0 #
b1 $
b1 %
b0 &
b0 '
b0 (
b0 )
b0 *
b0 +
b10101010000000001111111101010101 ,
b0000000000000000 -
b0 .
b0 /
b0 0
b0 1
b0 2
b0 3
b0 4
b0 5
b1 6
b0 7
b0 8
b0 9
b0 :
b0 ;
b0 <
b0 =
b0101010101010110 >
b0 ?
b0 @
#10
b0 !
b1 "
b0 #
b1 $
b1 %
b0 &
b0 '
b0 (
b0 )
b0 *
b0 +
b10101010000000001111111101010101 ,
b0000000000000000 -
b0 .
b0 /
b0 0
b0 1
b0 2
b0 3
b0 4
b0 5
b1 6
b0 7
b0 8
b0 9
b0 :
b0 ;
b0 <
b0 =
b0101010101010110 >
b1 ?
b0 @
#11
b0 !
b1 "
b0 #
b1 $
b1 %
b0 &
b0 '
b0 (
b0 )
b0 *
b0 +
b10101010000000001111111101010101 ,
b0000000000000000 -
b0 .
b0 /
b0 0
b0 1
b0 2
b0 3
b0 4
b0 5
b1 6
b0 7
b0 8
b0 9
b0 :
b0 ;
b0 <
b0 =
b0101010101010110 >
b0 ?
b0 @
#12
b0 !
b1 "
b0 #
b1 $
b1 %
b0 &
b0 '
b0 (
b0 )
b0 *
b0 +
b10101010000000001111111101010101 ,
b0000000000000000 -
b0 .
b0 /
b0 0
b0 1
b0 2
b0 3
b0 4
b0 5
b1 6
b0 7
b0 8
b0 9
b0 :
b0 ;
b0 <
b0 =
b0101010101010110 >
b1 ?
b0 @
#13
b0 !
b1 "
b0 #
b1 $
b1 %
b0 &
b0 '
b0 (
b0 )
b0 *
b0 +
b10101010000000001111111101010101 ,
b0000000000000000 -
b0 .
b0 /
b0 0
b0 1
b0 2
b0 3
b0 4
b0 5
b1 6
b0 7
b0 8
b0 9
b0 :
b0 ;
b0 <
b0 =
b0101010101010110 >
b0 ?
b0 @
#14
b0 !
b1 "
b0 #
b1 $
b1 %
b0 &
b0 '
b0 (
b0 )
b0 *
b0 +
b10101010000000001111111101010101 ,
b0000000000000000 -
b0 .
b0 /
b0 0
b0 1
b0 2
b0 3
b0 4
b0 5
b1 6
b0 7
b0 8
b0 9
b0 :
b0 ;
b0 <
b0 =
b0101010101010110 >
b1 ?
b0 @
#15
b0 !
b1 "
b0 #
b1 $
b1 %
b0 &
b0 '
b0 (
b0 )
b0 *
b0 +
b10101010000000001111111101010101 ,
b0000000000000000 -
b0 .
b0 /
b0 0
b0 1
b0 2
b0 3
b0 4
b0 5
b1 6
b0 7
b0 8
b0 9
b0 :
b0 ;
b0 <
b0 =
b0101010101010110 >
b0 ?
b0 @
#16
b0 !
b1 "
b0 #
b1 $
b1 %
b0 &
b0 '
b0 (
b0 )
b0 *
b0 +
b10101010000000001111111101010101 ,
b0000000000000000 -
b0 .
b0 /
b0 0
b0 1
b0 2
b0 3
b0 4
b0 5
b1 6
b0 7
b0 8
b0 9
b0 :
b0 ;
b0 <
b0 =
b0101010101010110 >
b1 ?
b0 @
#17
b0 !
b1 "
b0 #
b1 $
b1 %
b0 &
b0 '
b0 (
b0 )
b0 *
b0 +
b10101010000000001111111101010101 ,
b0000000000000000 -
b0 .
b0 /
b0 0
b0 1
b0 2
b0 3
b0 4
b0 5
b1 6
b0 7
b0 8
b0 9
b0 :
b0 ;
b0 <
b0 =
b0101010101010110 >
b0 ?
b0 @
#18
b0 !
b1 "
b0 #
b1 $
b1 %
b0 &
b0 '
b0 (
b0 )
b0 *
b0 +
b10101010000000001111111101010101 ,
b0000000000000000 -
b0 .
b0 /
b0 0
b0 1
b0 2
b0 3
b0 4
b0 5
b1 6
b0 7
b0 8
b0 9
b0 :
b0 ;
b0 <
b0 =
b0101010101010110 >
b1 ?
b0 @
#19
b0 !
b1 "
b0 #
b1 $
b1 %
b0 &
b0 '
b0 (
b0 )
b0 *
b0 +
b10101010000000001111111101010101 ,
b0000000000000000 -
b0 .
b0 /
b0 0
b0 1
b0 2
b0 3
b0 4
b0 5
b1 6
b0 7
b0 8
b0 9
b0 :
b0 ;
b0 <
b0 =
b0101010101010110 >
b0 ?
b0 @
#20
b0 !
b1 "
b0 #
b1 $
b1 %
b0 &
b0 '
b0 (
b0 )
b0 *
b0 +
b10101010000000001111111101010101 ,
b0000000000000000 -
b0 .
b0 /
b0 0
b0 1
b0 2
b0 3
b0 4
b0 5
b1 6
b0 7
b0 8
b0 9
b0 :
b0 ;
b0 <
b0 =
b0101010101010110 >
b1 ?
b0 @
#21
b0 !
b1 "
b0 #
b1 $
b1 %
b0 &
b0 '
b0 (
b0 )
b0 *
b0 +
b10101010000000001111111101010101 ,
b0000000000000000 -
b0 .
b0 /
b0 0
b0 1
b0 2
b0 3
b0 4
b0 5
b1 6
b0 7
b0 8
b0 9
b0 :
b0 ;
b0 <
b0 =
b0101010101010110 >
b0 ?
b0 @
#22
b0 !
b1 "
b0 #
b1 $
b1 %
b0 &
b0 '
b0 (
b0 )
b0 *
b0 +
b10101010000000001111111101010101 ,
b0000000000000000 -
b0 .
b0 /
b0 0
b0 1
b0 2
b0 3
b0 4
b0 5
b1 6
b0 7
b0 8
b0 9
b0 :
b0 ;
b0 <
b0 =
b0101010101010110 >
b1 ?
b0 @
#23
b0 !
b1 "
b0 #
b1 $
b1 %
b0 &
b0 '
b0 (
b0 )
b0 *
b0 +
b10101010000000001111111101010101 ,
b0000000000000000 -
b0 .
b0 /
b0 0
b0 1
b0 2
b0 3
b0 4
b0 5
b1 6
b0 7
b0 8
b0 9
b0 :
b0 ;
b0 <
b0 =
b0101010101010110 >
b0 ?
b0 @
#24
b0 !
b1 "
b0 #
b1 $
b1 %
b0 &
b0 '
b0 (
b0 )
b0 *
b0 +
b10101010000000001111111101010101 ,
b0000000000000000 -
b0 .
b0 /
b0 0
b0 1
b0 2
b0 3
b0 4
b0 5
b1 6
b0 7
b0 8
b0 9
b0 :
b0 ;
b0 <
b0 =
b0101010101010110 >
b1 ?
b0 @
#25
b0 !
b1 "
b0 #
b1 $
b1 %
b0 &
b0 '
b0 (
b0 )
b0 *
b0 +
b10101010000000001111111101010101 ,
b0000000000000000 -
b0 .
b0 /
b0 0
b0 1
b0 2
b0 3
b0 4
b0 5
b1 6
b0 7
b0 8
b0 9
b0 :
b0 ;
b0 <
b0 =
b0101010101010110 >
b0 ?
b0 @
#26
b0 !
b1 "
b0 #
b1 $
b1 %
b0 &
b0 '
b0 (
b0 )
b0 *
b0 +
b10101010000000001111111101010101 ,
b0000000000000000 -
b0 .
b0 /
b0 0
b0 1
b0 2
b0 3
b0 4
b0 5
b1 6
b0 7
b0 8
b0 9
b0 :
b0 ;
b0 <
b0 =
b0101010101010110 >
b1 ?
b0 @
#27
b0 !
b1 "
b0 #
b1 $
b1 %
b0 &
b0 '
b0 (
b0 )
b0 *
b0 +
b10101010000000001111111101010101 ,
b0000000000000000 -
b0 .
b0 /
b0 0
b0 1
b0 2
b0 3
b0 4
b0 5
b1 6
b0 7
b0 8
b0 9
b0 :
b0 ;
b0 <
b0 =
b0101010101010110 >
b0 ?
b0 @
#28
b0 !
b1 "
b0 #
b1 $
b1 %
b0 &
b0 '
b0 (
b0 )
b0 *
b0 +
b10101010000000001111111101010101 ,
b0000000000000000 -
b0 .
b0 /
b0 0
b0 1
b0 2
b0 3
b0 4
b0 5
b1 6
b0 7
b0 8
b0 9
b0 :
b0 ;
b0 <
b0 =
b0101010101010110 >
b1 ?
b0 @
#29
b0 !
b1 "
b0 #
b1 $
b1 %
b0 &
b0 '
b0 (
b0 )
b0 *
b0 +
b10101010000000001111111101010101 ,
b0000000000000000 -
b0 .
b0 /
b0 0
b0 1
b0 2
b0 3
b0 4
b0 5
b1 6
b0 7
b0 8
b0 9
b0 :
b0 ;
b0 <
b0 =
b0101010101010110 >
b0 ?
b0 @
#30
b0 !
b1 "
b0 #
b1 $
b1 %
b0 &
b0 '
b0 (
b0 )
b0 *
b0 +
b10101010000000001111111101010101 ,
b0000000000000000 -
b0 .
b0 /
b0 0
b0 1
b0 2
b0 3
b0 4
b0 5
b1 6
b0 7
b0 8
b0 9
b0 :
b0 ;
b0 <
b0 =
b0101010101010110 >
b1 ?
b0 @
#31
b0 !
b1 "
b0 #
b1 $
b1 %
b0 &
b0 '
b0 (
b0 )
b0 *
b0 +
b10101010000000001111111101010101 ,
b0000000000000000 -
b0 .
b0 /
b0 0
b0 1
b0 2
b0 3
b0 4
b0 5
b1 6
b0 7
b0 8
b0 9
b0 :
b0 ;
b0 <
b0 =
b0101010101010110 >
b0 ?
b0 @
#32
b0 !
b1 "
b0 #
b1 $
b1 %
b0 &
b0 '
b0 (
b0 )
b0 *
b0 +
b10101010000000001111111101010101 ,
b0000000000000000 -
b0 .
b0 /
b0 0
b0 1
b0 2
b0 3
b0 4
b0 5
b1 6
b0 7
b0 8
b0 9
b0 :
b0 ;
b0 <
b0 =
b0101010101010110 >
b1 ?
b1 @
#33
b0 !
b1 "
b0 #
b1 $
b1 %
b0 &
b0 '
b0 (
b0 )
b0 *
b0 +
b10101010000000001111111101010101 ,
b0000000000000000 -
b0 .
b0 /
b0 0
b0 1
b0 2
b0 3
b0 4
b0 5
b1 6
b0 7
b0 8
b0 9
b0 :
b0 ;
b0 <
b0 =
b0101010101010110 >
b0 ?
b1 @
#34
b0 !
b1 "
b0 #
b1 $
b1 %
b0 &
b0 '
b0 (
b0 )
b0 *
b0 +
b10101010000000001111111101010101 ,
b0000000000000000 -
b0 .
b0 /
b0 0
b0 1
b0 2
b0 3
b0 4
b0 5
b1 6
b0 7
b0 8
b0 9
b0 :
b0 ;
b0 <
b0 =
b0101010101010110 >
b1 ?
b1 @
#35
b0 !
b1 "
b0 #
b1 $
b1 %
b0 &
b0 '
b0 (
b0 )
b0 *
b0 +
b10101010000000001111111101010101 ,
b0000000000000000 -
b0 .
b0 /
b0 0
b0 1
b0 2
b0 3
b0 4
b0 5
b1 6
b0 7
b0 8
b0 9
b0 :
b0 ;
b0 <
b0 =
b0101010101010110 >
b0 ?
b1 @
#36
b0 !
b1 "
b0 #
b1 $
b1 %
b0 &
b0 '
b0 (
b0 )
b0 *
b0 +
b10101010000000001111111101010101 ,
b0000000000000000 -
b0 .
b0 /
b0 0
b0 1
b0 2
b0 3
b0 4
b0 5
b1 6
b0 7
b0 8
b0 9
b0 :
b0 ;
b0 <
b0 =
b0101010101010110 >
b1 ?
b1 @
#37
b0 !
b1 "
b0 #
b1 $
b1 %
b0 &
b0 '
b0 (
b0 )
b0 *
b0 +
b10101010000000001111111101010101 ,
b0000000000000000 -
b0 .
b0 /
b0 0
b0 1
b0 2
b0 3
b0 4
b0 5
b1 6
b0 7
b0 8
b0 9
b0 :
b0 ;
b0 <
b0 =
b0101010101010110 >
b0 ?
b1 @
#38
b0 !
b1 "
b0 #
b1 $
b1 %
b0 &
b0 '
b0 (
b0 )
b0 *
b0 +
b10101010000000001111111101010101 ,
b0000000000000000 -
b0 .
b0 /
b0 0
b0 1
b0 2
b0 3
b0 4
b0 5
b1 6
b0 7
b0 8
b0 9
b0 :
b0 ;
b0 <
b0 =
b0101010101010110 >
b1 ?
b1 @
#39
b0 !
b1 "
b0 #
b1 $
b1 %
b0 &
b0 '
b0 (
b0 )
b0 *
b0 +
b10101010000000001111111101010101 ,
b0000000000000000 -
b0 .
b0 /
b0 0
b0 1
b0 2
b0 3
b0 4
b0 5
b1 6
b0 7
b0 8
b0 9
b0 :
b0 ;
b0 <
b0 =
b0101010101010110 >
b0 ?
b1 @
#40
b0 !
b1 "
b0 #
b1 $
b1 %
b0 &
b0 '
b0 (
b0 )
b0 *
b0 +
b10101010000000001111111101010101 ,
b0000000000000000 -
b0 .
b0 /
b0 0
b0 1
b0 2
b0 3
b0 4
b0 5
b1 6
b0 7
b0 8
b0 9
b0 :
b0 ;
b0 <
b0 =
b0101010101010110 >
b1 ?
b1 @
#41
b0 !
b1 "
b0 #
b1 $
b1 %
b0 &
b0 '
b0 (
b0 )
b0 *
b0 +
b10101010000000001111111101010101 ,
b0000000000000000 -
b0 .
b0 /
b0 0
b0 1
b0 2
b0 3
b0 4
b0 5
b1 6
b0 7
b0 8
b0 9
b0 :
b0 ;
b0 <
b0 =
b0101010101010110 >
b0 ?
b1 @
#42
b0 !
b1 "
b0 #
b1 $
b1 %
b0 &
b0 '
b0 (
b0 )
b0 *
b0 +
b10101010000000001111111101010101 ,
b0000000000000000 -
b0 .
b0 /
b0 0
b0 1
b0 2
b0 3
b0 4
b0 5
b1 6
b0 7
b0 8
b0 9
b0 :
b0 ;
b0 <
b0 =
b0101010101010110 >
b1 ?
b1 @
#43
b0 !
b1 "
b0 #
b1 $
b1 %
b0 &
b0 '
b0 (
b0 )
b0 *
b0 +
b10101010000000001111111101010101 ,
b0000000000000000 -
b0 .
b0 /
b0 0
b0 1
b0 2
b0 3
b0 4
b0 5
b1 6
b0 7
b0 8
b0 9
b0 :
b0 ;
b0 <
b0 =
b0101010101010110 >
b0 ?
b1 @
#44
b0 !
b1 "
b0 #
b1 $
b1 %
b0 &
b0 '
b0 (
b0 )
b0 *
b0 +
b10101010000000001111111101010101 ,
b0000000000000000 -
b0 .
b0 /
b0 0
b0 1
b0 2
b0 3
b0 4
b0 5
b1 6
b0 7
b0 8
b0 9
b0 :
b0 ;
b0 <
b0 =
b0101010101010110 >
b1 ?
b1 @
#45
b0 !
b1 "
b0 #
b1 $
b1 %
b0 &
b0 '
b0 (
b0 )
b0 *
b0 +
b10101010000000001111111101010101 ,
b0000000000000000 -
b0 .
b0 /
b0 0
b0 1
b0 2
b0 3
b0 4
b0 5
b1 6
b0 7
b0 8
b0 9
b0 :
b0 ;
b0 <
b0 =
b0101010101010110 >
b0 ?
b1 @
#46
b0 !
b1 "
b0 #
b1 $
b1 %
b0 &
b0 '
b0 (
b0 )
b0 *
b0 +
b10101010000000001111111101010101 ,
b0000000000000000 -
b0 .
b0 /
b0 0
b0 1
b0 2
b0 3
b0 4
b0 5
b1 6
b0 7
b0 8
b0 9
b0 :
b0 ;
b0 <
b0 =
b0101010101010110 >
b1 ?
b1 @
#47
b0 !
b1 "
b0 #
b1 $
b1 %
b0 &
b0 '
b0 (
b0 )
b0 *
b0 +
b10101010000000001111111101010101 ,
b0000000000000000 -
b0 .
b0 /
b0 0
b0 1
b0 2
b0 3
b0 4
b0 5
b1 6
b0 7
b0 8
b0 9
b0 :
b0 ;
b0 <
b0 =
b0101010101010110 >
b0 ?
b1 @
#48
b0 !
b1 "
b0 #
b1 $
b1 %
b0 &
b0 '
b0 (
b0 )
b0 *
b0 +
b10101010000000001111111101010101 ,
b0000000000000000 -
b0 .
b0 /
b0 0
b0 1
b0 2
b0 3
b0 4
b0 5
b1 6
b0 7
b0 8
b0 9
b0 :
b0 ;
b0 <
b0 =
b0101010101010110 >
b1 ?
b1 @
#49
b0 !
b1 "
b0 #
b1 $
b1 %
b0 &
b0 '
b0 (
b0 )
b0 *
b0 +
b10101010000000001111111101010101 ,
b0000000000000000 -
b0 .
b0 /
b0 0
b0 1
b0 2
b0 3
b0 4
b0 5
b1 6
b0 7
b0 8
b0 9
b0 :
b0 ;
b0 <
b0 =
b0101010101010110 >
b0 ?
b1 @
#50
b0 !
b1 "
b0 #
b1 $
b1 %
b0 &
b0 '
b0 (
b0 )
b0 *
b0 +
b10101010000000001111111101010101 ,
b0000000000000000 -
b0 .
b0 /
b0 0
b0 1
b0 2
b0 3
b0 4
b0 5
b1 6
b0 7
b0 8
b0 9
b0 :
b0 ;
b0 <
b0 =
b0101010101010110 >
b1 ?
b1 @
#51
b0 !
b1 "
b0 #
b1 $
b1 %
b0 &
b0 '
b0 (
b0 )
b0 *
b0 +
b10101010000000001111111101010101 ,
b0000000000000000 -
b0 .
b0 /
b0 0
b0 1
b0 2
b0 3
b0 4
b0 5
b1 6
b0 7
b0 8
b0 9
b0 :
b0 ;
b0 <
b0 =
b0101010101010110 >
b0 ?
b1 @
#52
b0 !
b1 "
b0 #
b1 $
b1 %
b0 &
b0 '
b0 (
b0 )
b1 *
b0 +
b10101010000000001111111101010101 ,
b0000000000000000 -
b0 .
b0 /
b0 0
b0 1
b0 2
b0 3
b0 4
b0 5
b1 6
b0 7
b0 8
b0 9
b0 :
b0 ;
b0 <
b0 =
b0101010101010110 >
b1 ?
b1 @
#53
b0 !
b1 "
b0 #
b1 $
b1 %
b0 &
b0 '
b0 (
b0 )
b1 *
b0 +
b10101010000000001111111101010101 ,
b0000000000000000 -
b0 .
b0 /
b0 0
b0 1
b0 2
b0 3
b0 4
b0 5
b1 6
b0 7
b0 8
b0 9
b0 :
b0 ;
b0 <
b0 =
b0101010101010110 >
b0 ?
b1 @
#54
b0 !
b1 "
b0 #
b1 $
b1 %
b0 &
b0 '
b0 (
b0 )
b1 *
b0 +
b10101010000000001111111101010101 ,
b0000000000000000 -
b0 .
b0 /
b0 0
b0 1
b0 2
b0 3
b0 4
b0 5
b1 6
b0 7
b0 8
b0 9
b0 :
b0 ;
b0 <
b0 =
b0101010101010110 >
b1 ?
b1 @
#55
b0 !
b1 "
b0 #
b1 $
b1 %
b0 &
b0 '
b0 (
b0 )
b1 *
b0 +
b10101010000000001111111101010101 ,
b0000000000000000 -
b0 .
b0 /
b0 0
b0 1
b0 2
b0 3
b0 4
b0 5
b1 6
b0 7
b0 8
b0 9
b0 :
b0 ;
b0 <
b0 =
b0101010101010110 >
b0 ?
b1 @
#56
b0 !
b1 "
b0 #
b1 $
b1 %
b0 &
b0 '
b0 (
b0 )
b1 *
b0 +
b10101010000000001111111101010101 ,
b0000000000000000 -
b0 .
b0 /
b0 0
b0 1
b0 2
b0 3
b0 4
b0 5
b1 6
b0 7
b0 8
b0 9
b0 :
b0 ;
b0 <
b0 =
b0101010101010110 >
b1 ?
b1 @
#57
b0 !
b1 "
b0 #
b1 $
b1 %
b0 &
b0 '
b0 (
b0 )
b1 *
b0 +
b10101010000000001111111101010101 ,
b0000000000000000 -
b0 .
b0 /
b0 0
b0 1
b0 2
b0 3
b0 4
b0 5
b1 6
b0 7
b0 8
b0 9
b0 :
b0 ;
b0 <
b0 =
b0101010101010110 >
b0 ?
b1 @
#58
b0 !
b1 "
b0 #
b1 $
b1 %
b0 &
b0 '
b0 (
b0 )
b1 *
b0 +
b10101010000000001111111101010101 ,
b0000000000000000 -
b0 .
b0 /
b0 0
b0 1
b0 2
b0 3
b0 4
b0 5
b1 6
b0 7
b0 8
b0 9
b0 :
b0 ;
b0 <
b0 =
b0101010101010110 >
b1 ?
b1 @
#59
b0 !
b1 "
b0 #
b1 $
b1 %
b0 &
b0 '
b0 (
b0 )
b1 *
b0 +
b10101010000000001111111101010101 ,
b0000000000000000 -
b0 .
b0 /
b0 0
b0 1
b0 2
b0 3
b0 4
b0 5
b1 6
b0 7
b0 8
b0 9
b0 :
b0 ;
b0 <
b0 =
b0101010101010110 >
b0 ?
b1 @
#60
b0 !
b1 "
b0 #
b1 $
b1 %
b0 &
b1 '
b0 (
b0 )
b1 *
b0 +
b10101010000000001111111101010101 ,
b0000000000000000 -
b0 .
b0 /
b0 0
b0 1
b0 2
b0 3
b0 4
b0 5
b1 6
b0 7
b0 8
b0 9
b0 :
b0 ;
b0 <
b0 =
b0101010101010111 >
b1 ?
b1 @
#61
b0 !
b1 "
b0 #
b1 $
b1 %
b0 &
b1 '
b0 (
b0 )
b1 *
b0 +
b10101010000000001111111101010101 ,
b0000000000000000 -
b0 .
b0 /
b0 0
b0 1
b0 2
b0 3
b0 4
b0 5
b1 6
b0 7
b0 8
b0 9
b0 :
b0 ;
b0 <
b0 =
b0101010101010111 >
b0 ?
b1 @
#62
b0 !
b1 "
b0 #
b1 $
b1 %
b0 &
b1 '
b0 (
b0 )
b1 *
b0 +
b10101010000000001111111101010101 ,
b0000000000000000 -
b0 .
b0 /
b0 0
b0 1
b0 2
b0 3
b0 4
b0 5
b1 6
b0 7
b0 8
b0 9
b0 :
b0 ;
b0 <
b0 =
b0101010101010111 >
b1 ?
b1 @
#63
b0 !
b1 "
b0 #
b1 $
b1 %
b0 &
b1 '
b0 (
b0 )
b1 *
b0 +
b10101010000000001111111101010101 ,
b0000000000000000 -
b0 .
b0 /
b0 0
b0 1
b0 2
b0 3
b0 4
b0 5
b1 6
b0 7
b0 8
b0 9
b0 :
b0 ;
b0 <
b0 =
b0101010101010111 >
b0 ?
b1 @
#64
b0 !
b1 "
b0 #
b1 $
b1 %
b0 &
b1 '
b0 (
b0 )
b1 *
b0 +
b10101010000000001111111101010101 ,
b0000000000000000 -
b0 .
b0 /
b0 0
b0 1
b0 2
b0 3
b0 4
b0 5
b1 6
b0 7
b0 8
b0 9
b0 :
b0 ;
b0 <
b0 =
b0101010101010111 >
b1 ?
b1 @
#65
b0 !
b1 "
b0 #
b1 $
b1 %
b0 &
b1 '
b0 (
b0 )
b1 *
b0 +
b10101010000000001111111101010101 ,
b0000000000000000 -
b0 .
b0 /
b0 0
b0 1
b0 2
b0 3
b0 4
b0 5
b1 6
b0 7
b0 8
b0 9
b0 :
b0 ;
b0 <
b0 =
b0101010101010111 >
b0 ?
b1 @
#66
b0 !
b1 "
b0 #
b0 $
b1 %
b0 &
b0 '
b0 (
b0 )
b0 *
b0 +
b10101010000000001111111101010101 ,
b0000000000000000 -
b0 .
b0 /
b0 0
b0 1
b0 2
b0 3
b0 4
b0 5
b0 6
b1 7
b0 8
b0 9
b0 :
b0 ;
b0 <
b0 =
b0101010101010111 >
b1 ?
b1 @
#67
b0 !
b1 "
b0 #
b0 $
b1 %
b0 &
b0 '
b0 (
b0 )
b0 *
b0 +
b10101010000000001111111101010101 ,
b0000000000000000 -
b0 .
b0 /
b0 0
b0 1
b0 2
b0 3
b0 4
b0 5
b0 6
b1 7
b0 8
b0 9
b0 :
b0 ;
b0 <
b0 =
b0101010101010111 >
b0 ?
b1 @
#68
b0 !
b1 "
b0 #
b0 $
b1 %
b0 &
b0 '
b0 (
b0 )
b0 *
b0 +
b10101010000000001111111101010101 ,
b0000000000000000 -
b0 .
b0 /
b0 0
b0 1
b0 2
b0 3
b0 4
b0 5
b0 6
b1 7
b0 8
b0 9
b0 :
b0 ;
b0 <
b0 =
b0101010101010111 >
b1 ?
b1 @
#69
b0 !
b1 "
b0 #
b0 $
b1 %
b0 &
b0 '
b0 (
b0 )
b0 *
b0 +
b10101010000000001111111101010101 ,
b0000000000000000 -
b0 .
b0 /
b0 0
b0 1
b0 2
b0 3
b0 4
b0 5
b0 6
b1 7
b0 8
b0 9
b0 :
b0 ;
b0 <
b0 =
b0101010101010111 >
b0 ?
b1 @
#70
b0 !
b1 "
b0 #
b0 $
b1 %
b0 &
b0 '
b0 (
b0 )
b0 *
b0 +
b10101010000000001111111101010101 ,
b0000000000000000 -
b0 .
b0 /
b0 0
b0 1
b0 2
b0 3
b0 4
b0 5
b0 6
b1 7
b0 8
b0 9
b0 :
b0 ;
b0 <
b0 =
b0101010101010111 >
b1 ?
b1 @
#71
b0 !
b1 "
b0 #
b0 $
b1 %
b0 &
b0 '
b0 (
b0 )
b0 *
b0 +
b10101010000000001111111101010101 ,
b0000000000000000 -
b0 .
b0 /
b0 0
b0 1
b0 2
b0 3
b0 4
b0 5
b0 6
b1 7
b0 8
b0 9
b0 :
b0 ;
b0 <
b0 =
b0101010101010111 >
b0 ?
b1 @
#72
b0 !
b1 "
b0 #
b0 $
b1 %
b0 &
b1 '
b0 (
b0 )
b0 *
b0 +
b01010100000000000111111110111110 ,
b0000000000000001 -
b0 .
b0 /
b0 0
b0 1
b0 2
b0 3
b0 4
b0 5
b0 6
b1 7
b0 8
b0 9
b0 :
b0 ;
b0 <
b0 =
b0101010101011000 >
b1 ?
b1 @
#73
b0 !
b1 "
b0 #
b0 $
b1 %
b0 &
b1 '
b0 (
b0 )
b0 *
b0 +
b01010100000000000111111110111110 ,
b0000000000000001 -
b0 .
b0 /
b0 0
b0 1
b0 2
b0 3
b0 4
b0 5
b0 6
b1 7
b0 8
b0 9
b0 :
b0 ;
b0 <
b0 =
b0101010101011000 >
b0 ?
b1 @
