examples/vcd-dumps/drscan2-all-ff.vcd
$date
	2021-07-05 16:54
$end
$timescale 4000ps $end
$scope 1ps $end
$var wire 1 ! main_jtag_phy_altera_reserved_tck $end
$var wire 1 " main_jtag_phy_altera_reserved_tdi $end
$var wire 1 # main_jtag_phy_altera_reserved_tms $end
$var wire 1 $ main_jtag_phy_capture $end
$var wire 1 % main_jtag_phy_reset $end
$var wire 1 & main_jtag_phy_runtest $end
$var wire 1 ' main_jtag_phy_sel $end
$var wire 1 ( main_jtag_phy_shift $end
$var wire 1 ) main_jtag_phy_tck $end
$var wire 1 * main_jtag_phy_tdi $end
$var wire 1 + main_jtag_phy_tdo $end
$var wire 1 , main_jtag_phy_tms $end
$var wire 1 - main_jtag_phy_update $end
$var wire 32 . main_hello_code $end
$var wire 1 / main_buf $end
$var wire 1 0 scope_clk $end
$var wire 1 1 scope_trig $end
$unscope  $end
$enddefinitions  $end
$dumpvars
bx !
bx "
bx #
bx $
bx %
bx &
bx '
bx (
bx )
bx *
bx +
bx ,
bx -
bxxxxxxxxxxxxxxxxxxxxxxxxxxxxxxxx .
bx /
bx 0
bx 1
$end
#0
b0 !
b0 "
b0 #
b1 $
b0 %
b1 &
b0 '
b0 (
b0 )
b0 *
b1 +
b0 ,
b0 -
b10101010000000001111111101010101 .
b0 /
b1 0
b0 1
#1
b0 !
b0 "
b0 #
b1 $
b0 %
b1 &
b0 '
b0 (
b0 )
b0 *
b1 +
b0 ,
b0 -
b10101010000000001111111101010101 .
b0 /
b0 0
b0 1
#2
b0 !
b0 "
b0 #
b1 $
b0 %
b1 &
b0 '
b0 (
b0 )
b0 *
b1 +
b0 ,
b0 -
b10101010000000001111111101010101 .
b0 /
b1 0
b0 1
#3
b0 !
b0 "
b0 #
b1 $
b0 %
b1 &
b0 '
b0 (
b0 )
b0 *
b1 +
b0 ,
b0 -
b10101010000000001111111101010101 .
b0 /
b0 0
b0 1
#4
b0 !
b0 "
b0 #
b1 $
b0 %
b1 &
b0 '
b0 (
b0 )
b0 *
b1 +
b0 ,
b0 -
b10101010000000001111111101010101 .
b0 /
b1 0
b0 1
#5
b0 !
b0 "
b0 #
b1 $
b0 %
b1 &
b0 '
b0 (
b0 )
b0 *
b1 +
b0 ,
b0 -
b10101010000000001111111101010101 .
b0 /
b0 0
b0 1
#6
b0 !
b0 "
b0 #
b1 $
b0 %
b1 &
b0 '
b0 (
b0 )
b0 *
b1 +
b0 ,
b0 -
b10101010000000001111111101010101 .
b0 /
b1 0
b0 1
#7
b0 !
b0 "
b0 #
b1 $
b0 %
b1 &
b0 '
b0 (
b0 )
b0 *
b1 +
b0 ,
b0 -
b10101010000000001111111101010101 .
b0 /
b0 0
b0 1
#8
b0 !
b0 "
b0 #
b1 $
b0 %
b1 &
b0 '
b0 (
b0 )
b0 *
b1 +
b0 ,
b0 -
b10101010000000001111111101010101 .
b0 /
b1 0
b0 1
#9
b0 !
b0 "
b0 #
b1 $
b0 %
b1 &
b0 '
b0 (
b0 )
b0 *
b1 +
b0 ,
b0 -
b10101010000000001111111101010101 .
b0 /
b0 0
b0 1
#10
b0 !
b0 "
b0 #
b1 $
b0 %
b1 &
b0 '
b0 (
b0 )
b0 *
b1 +
b0 ,
b0 -
b10101010000000001111111101010101 .
b0 /
b1 0
b0 1
#11
b0 !
b0 "
b0 #
b1 $
b0 %
b1 &
b0 '
b0 (
b0 )
b0 *
b1 +
b0 ,
b0 -
b10101010000000001111111101010101 .
b0 /
b0 0
b0 1
#12
b0 !
b0 "
b0 #
b1 $
b0 %
b1 &
b0 '
b0 (
b0 )
b0 *
b1 +
b0 ,
b0 -
b10101010000000001111111101010101 .
b0 /
b1 0
b0 1
#13
b0 !
b0 "
b0 #
b1 $
b0 %
b1 &
b0 '
b0 (
b0 )
b0 *
b1 +
b0 ,
b0 -
b10101010000000001111111101010101 .
b0 /
b0 0
b0 1
#14
b0 !
b0 "
b0 #
b1 $
b0 %
b1 &
b0 '
b0 (
b0 )
b0 *
b1 +
b0 ,
b0 -
b10101010000000001111111101010101 .
b0 /
b1 0
b0 1
#15
b0 !
b0 "
b0 #
b1 $
b0 %
b1 &
b0 '
b0 (
b0 )
b0 *
b1 +
b0 ,
b0 -
b10101010000000001111111101010101 .
b0 /
b0 0
b0 1
#16
b0 !
b0 "
b0 #
b1 $
b0 %
b1 &
b0 '
b0 (
b0 )
b0 *
b1 +
b0 ,
b0 -
b10101010000000001111111101010101 .
b0 /
b1 0
b0 1
#17
b0 !
b0 "
b0 #
b1 $
b0 %
b1 &
b0 '
b0 (
b0 )
b0 *
b1 +
b0 ,
b0 -
b10101010000000001111111101010101 .
b0 /
b0 0
b0 1
#18
b0 !
b0 "
b0 #
b1 $
b0 %
b1 &
b0 '
b0 (
b0 )
b0 *
b1 +
b0 ,
b0 -
b10101010000000001111111101010101 .
b0 /
b1 0
b0 1
#19
b0 !
b0 "
b0 #
b1 $
b0 %
b1 &
b0 '
b0 (
b0 )
b0 *
b1 +
b0 ,
b0 -
b10101010000000001111111101010101 .
b0 /
b0 0
b0 1
#20
b0 !
b0 "
b0 #
b1 $
b0 %
b1 &
b0 '
b0 (
b0 )
b0 *
b1 +
b0 ,
b0 -
b10101010000000001111111101010101 .
b0 /
b1 0
b0 1
#21
b0 !
b0 "
b0 #
b1 $
b0 %
b1 &
b0 '
b0 (
b0 )
b0 *
b1 +
b0 ,
b0 -
b10101010000000001111111101010101 .
b0 /
b0 0
b0 1
#22
b0 !
b0 "
b0 #
b1 $
b0 %
b1 &
b0 '
b0 (
b0 )
b0 *
b1 +
b0 ,
b0 -
b10101010000000001111111101010101 .
b0 /
b1 0
b0 1
#23
b0 !
b0 "
b0 #
b1 $
b0 %
b1 &
b0 '
b0 (
b0 )
b0 *
b1 +
b0 ,
b0 -
b10101010000000001111111101010101 .
b0 /
b0 0
b0 1
#24
b0 !
b0 "
b0 #
b1 $
b0 %
b1 &
b0 '
b0 (
b0 )
b0 *
b1 +
b0 ,
b0 -
b10101010000000001111111101010101 .
b0 /
b1 0
b0 1
#25
b0 !
b0 "
b0 #
b1 $
b0 %
b1 &
b0 '
b0 (
b0 )
b0 *
b1 +
b0 ,
b0 -
b10101010000000001111111101010101 .
b0 /
b0 0
b0 1
#26
b0 !
b0 "
b0 #
b1 $
b0 %
b1 &
b0 '
b0 (
b0 )
b0 *
b1 +
b0 ,
b0 -
b10101010000000001111111101010101 .
b0 /
b1 0
b0 1
#27
b0 !
b0 "
b0 #
b1 $
b0 %
b1 &
b0 '
b0 (
b0 )
b0 *
b1 +
b0 ,
b0 -
b10101010000000001111111101010101 .
b0 /
b0 0
b0 1
#28
b0 !
b0 "
b0 #
b1 $
b0 %
b1 &
b0 '
b0 (
b0 )
b0 *
b1 +
b0 ,
b0 -
b10101010000000001111111101010101 .
b0 /
b1 0
b0 1
#29
b0 !
b0 "
b0 #
b1 $
b0 %
b1 &
b0 '
b0 (
b0 )
b0 *
b1 +
b0 ,
b0 -
b10101010000000001111111101010101 .
b0 /
b0 0
b0 1
#30
b0 !
b0 "
b0 #
b1 $
b0 %
b1 &
b0 '
b0 (
b0 )
b0 *
b1 +
b0 ,
b0 -
b10101010000000001111111101010101 .
b0 /
b1 0
b0 1
#31
b0 !
b0 "
b0 #
b1 $
b0 %
b1 &
b0 '
b0 (
b0 )
b0 *
b1 +
b0 ,
b0 -
b10101010000000001111111101010101 .
b0 /
b0 0
b0 1
#32
b0 !
b0 "
b0 #
b1 $
b0 %
b1 &
b0 '
b0 (
b0 )
b0 *
b1 +
b0 ,
b0 -
b10101010000000001111111101010101 .
b0 /
b1 0
b1 1
#33
b0 !
b0 "
b0 #
b1 $
b0 %
b1 &
b0 '
b0 (
b0 )
b0 *
b1 +
b0 ,
b0 -
b10101010000000001111111101010101 .
b0 /
b0 0
b1 1
#34
b0 !
b0 "
b0 #
b1 $
b0 %
b1 &
b0 '
b0 (
b0 )
b0 *
b1 +
b0 ,
b0 -
b10101010000000001111111101010101 .
b0 /
b1 0
b1 1
#35
b0 !
b0 "
b0 #
b1 $
b0 %
b1 &
b0 '
b0 (
b0 )
b0 *
b1 +
b0 ,
b0 -
b10101010000000001111111101010101 .
b0 /
b0 0
b1 1
#36
b0 !
b0 "
b0 #
b1 $
b0 %
b1 &
b0 '
b0 (
b0 )
b0 *
b1 +
b0 ,
b0 -
b10101010000000001111111101010101 .
b0 /
b1 0
b1 1
#37
b0 !
b0 "
b0 #
b1 $
b0 %
b1 &
b0 '
b0 (
b0 )
b0 *
b1 +
b0 ,
b0 -
b10101010000000001111111101010101 .
b0 /
b0 0
b1 1
#38
b0 !
b0 "
b0 #
b1 $
b0 %
b1 &
b0 '
b0 (
b0 )
b0 *
b1 +
b0 ,
b0 -
b10101010000000001111111101010101 .
b0 /
b1 0
b1 1
#39
b0 !
b0 "
b0 #
b1 $
b0 %
b1 &
b0 '
b0 (
b0 )
b0 *
b1 +
b0 ,
b0 -
b10101010000000001111111101010101 .
b0 /
b0 0
b1 1
#40
b0 !
b0 "
b0 #
b1 $
b0 %
b1 &
b0 '
b0 (
b0 )
b0 *
b1 +
b0 ,
b0 -
b10101010000000001111111101010101 .
b0 /
b1 0
b1 1
#41
b0 !
b0 "
b0 #
b1 $
b0 %
b1 &
b0 '
b0 (
b0 )
b0 *
b1 +
b0 ,
b0 -
b10101010000000001111111101010101 .
b0 /
b0 0
b1 1
#42
b0 !
b0 "
b0 #
b1 $
b0 %
b1 &
b0 '
b0 (
b0 )
b0 *
b1 +
b0 ,
b0 -
b10101010000000001111111101010101 .
b0 /
b1 0
b1 1
#43
b0 !
b0 "
b0 #
b1 $
b0 %
b1 &
b0 '
b0 (
b0 )
b0 *
b1 +
b0 ,
b0 -
b10101010000000001111111101010101 .
b0 /
b0 0
b1 1
#44
b0 !
b0 "
b0 #
b1 $
b0 %
b1 &
b0 '
b0 (
b0 )
b0 *
b1 +
b0 ,
b0 -
b10101010000000001111111101010101 .
b0 /
b1 0
b1 1
#45
b0 !
b0 "
b0 #
b1 $
b0 %
b1 &
b0 '
b0 (
b0 )
b0 *
b1 +
b0 ,
b0 -
b10101010000000001111111101010101 .
b0 /
b0 0
b1 1
#46
b0 !
b0 "
b0 #
b1 $
b0 %
b1 &
b0 '
b0 (
b0 )
b0 *
b1 +
b0 ,
b0 -
b10101010000000001111111101010101 .
b0 /
b1 0
b1 1
#47
b0 !
b0 "
b0 #
b1 $
b0 %
b1 &
b0 '
b0 (
b0 )
b0 *
b1 +
b0 ,
b0 -
b10101010000000001111111101010101 .
b0 /
b0 0
b1 1
#48
b0 !
b0 "
b0 #
b1 $
b0 %
b1 &
b0 '
b0 (
b0 )
b0 *
b1 +
b0 ,
b0 -
b10101010000000001111111101010101 .
b0 /
b1 0
b1 1
#49
b0 !
b0 "
b0 #
b1 $
b0 %
b1 &
b0 '
b0 (
b0 )
b0 *
b1 +
b0 ,
b0 -
b10101010000000001111111101010101 .
b0 /
b0 0
b1 1
#50
b0 !
b0 "
b0 #
b1 $
b0 %
b1 &
b0 '
b0 (
b0 )
b0 *
b1 +
b0 ,
b0 -
b10101010000000001111111101010101 .
b0 /
b1 0
b1 1
#51
b0 !
b0 "
b0 #
b1 $
b0 %
b1 &
b0 '
b0 (
b0 )
b0 *
b1 +
b0 ,
b0 -
b10101010000000001111111101010101 .
b0 /
b0 0
b1 1
#52
b0 !
b0 "
b0 #
b1 $
b0 %
b1 &
b0 '
b0 (
b0 )
b0 *
b1 +
b0 ,
b0 -
b10101010000000001111111101010101 .
b0 /
b1 0
b1 1
#53
b0 !
b0 "
b0 #
b1 $
b0 %
b1 &
b0 '
b0 (
b0 )
b0 *
b1 +
b0 ,
b0 -
b10101010000000001111111101010101 .
b0 /
b0 0
b1 1
#54
b0 !
b0 "
b0 #
b1 $
b0 %
b1 &
b0 '
b0 (
b0 )
b0 *
b1 +
b0 ,
b0 -
b10101010000000001111111101010101 .
b0 /
b1 0
b1 1
#55
b0 !
b0 "
b0 #
b1 $
b0 %
b1 &
b0 '
b0 (
b0 )
b0 *
b1 +
b0 ,
b0 -
b10101010000000001111111101010101 .
b0 /
b0 0
b1 1
#56
b0 !
b0 "
b1 #
b1 $
b0 %
b1 &
b0 '
b0 (
b0 )
b0 *
b1 +
b1 ,
b0 -
b10101010000000001111111101010101 .
b0 /
b1 0
b1 1
#57
b0 !
b0 "
b1 #
b1 $
b0 %
b1 &
b0 '
b0 (
b0 )
b0 *
b1 +
b1 ,
b0 -
b10101010000000001111111101010101 .
b0 /
b0 0
b1 1
#58
b0 !
b0 "
b1 #
b1 $
b0 %
b1 &
b0 '
b0 (
b0 )
b0 *
b1 +
b1 ,
b0 -
b10101010000000001111111101010101 .
b0 /
b1 0
b1 1
#59
b0 !
b0 "
b1 #
b1 $
b0 %
b1 &
b0 '
b0 (
b0 )
b0 *
b1 +
b1 ,
b0 -
b10101010000000001111111101010101 .
b0 /
b0 0
b1 1
#60
b0 !
b0 "
b1 #
b1 $
b0 %
b1 &
b0 '
b0 (
b0 )
b0 *
b1 +
b1 ,
b0 -
b10101010000000001111111101010101 .
b0 /
b1 0
b1 1
#61
b0 !
b0 "
b1 #
b1 $
b0 %
b1 &
b0 '
b0 (
b0 )
b0 *
b1 +
b1 ,
b0 -
b10101010000000001111111101010101 .
b0 /
b0 0
b1 1
#62
b1 !
b0 "
b1 #
b1 $
b0 %
b0 &
b0 '
b0 (
b1 )
b0 *
b1 +
b1 ,
b0 -
b10101010000000001111111101010101 .
b0 /
b1 0
b1 1
#63
b1 !
b0 "
b1 #
b1 $
b0 %
b0 &
b0 '
b0 (
b1 )
b0 *
b1 +
b1 ,
b0 -
b10101010000000001111111101010101 .
b0 /
b0 0
b1 1
#64
b1 !
b0 "
b1 #
b1 $
b0 %
b0 &
b0 '
b0 (
b1 )
b0 *
b1 +
b1 ,
b0 -
b10101010000000001111111101010101 .
b0 /
b1 0
b1 1
#65
b1 !
b0 "
b1 #
b1 $
b0 %
b0 &
b0 '
b0 (
b1 )
b0 *
b1 +
b1 ,
b0 -
b10101010000000001111111101010101 .
b0 /
b0 0
b1 1
#66
b1 !
b0 "
b1 #
b1 $
b0 %
b0 &
b0 '
b0 (
b1 )
b0 *
b1 +
b1 ,
b0 -
b10101010000000001111111101010101 .
b0 /
b1 0
b1 1
#67
b1 !
b0 "
b1 #
b1 $
b0 %
b0 &
b0 '
b0 (
b1 )
b0 *
b1 +
b1 ,
b0 -
b10101010000000001111111101010101 .
b0 /
b0 0
b1 1
#68
b0 !
b0 "
b0 #
b1 $
b0 %
b0 &
b0 '
b0 (
b0 )
b0 *
b1 +
b0 ,
b0 -
b10101010000000001111111101010101 .
b0 /
b1 0
b1 1
#69
b0 !
b0 "
b0 #
b1 $
b0 %
b0 &
b0 '
b0 (
b0 )
b0 *
b1 +
b0 ,
b0 -
b10101010000000001111111101010101 .
b0 /
b0 0
b1 1
#70
b0 !
b0 "
b0 #
b1 $
b0 %
b0 &
b0 '
b0 (
b0 )
b0 *
b1 +
b0 ,
b0 -
b10101010000000001111111101010101 .
b0 /
b1 0
b1 1
#71
b0 !
b0 "
b0 #
b1 $
b0 %
b0 &
b0 '
b0 (
b0 )
b0 *
b1 +
b0 ,
b0 -
b10101010000000001111111101010101 .
b0 /
b0 0
b1 1
#72
b0 !
b0 "
b0 #
b1 $
b0 %
b0 &
b0 '
b0 (
b0 )
b0 *
b1 +
b0 ,
b0 -
b10101010000000001111111101010101 .
b0 /
b1 0
b1 1
#73
b0 !
b0 "
b0 #
b1 $
b0 %
b0 &
b0 '
b0 (
b0 )
b0 *
b1 +
b0 ,
b0 -
b10101010000000001111111101010101 .
b0 /
b0 0
b1 1
#74
b1 !
b0 "
b0 #
b1 $
b0 %
b0 &
b0 '
b0 (
b1 )
b0 *
b1 +
b0 ,
b0 -
b10101010000000001111111101010101 .
b0 /
b1 0
b1 1
#75
b1 !
b0 "
b0 #
b1 $
b0 %
b0 &
b0 '
b0 (
b1 )
b0 *
b1 +
b0 ,
b0 -
b10101010000000001111111101010101 .
b0 /
b0 0
b1 1
#76
b1 !
b0 "
b0 #
b1 $
b0 %
b0 &
b0 '
b0 (
b1 )
b0 *
b1 +
b0 ,
b0 -
b10101010000000001111111101010101 .
b0 /
b1 0
b1 1
#77
b1 !
b0 "
b0 #
b1 $
b0 %
b0 &
b0 '
b0 (
b1 )
b0 *
b1 +
b0 ,
b0 -
b10101010000000001111111101010101 .
b0 /
b0 0
b1 1
#78
b1 !
b0 "
b0 #
b1 $
b0 %
b0 &
b0 '
b0 (
b1 )
b0 *
b1 +
b0 ,
b0 -
b10101010000000001111111101010101 .
b0 /
b1 0
b1 1
#79
b1 !
b0 "
b0 #
b1 $
b0 %
b0 &
b0 '
b0 (
b1 )
b0 *
b1 +
b0 ,
b0 -
b10101010000000001111111101010101 .
b0 /
b0 0
b1 1
#80
b1 !
b0 "
b0 #
b1 $
b0 %
b0 &
b0 '
b0 (
b1 )
b0 *
b1 +
b0 ,
b0 -
b10101010000000001111111101010101 .
b0 /
b1 0
b1 1
#81
b1 !
b0 "
b0 #
b1 $
b0 %
b0 &
b0 '
b0 (
b1 )
b0 *
b1 +
b0 ,
b0 -
b10101010000000001111111101010101 .
b0 /
b0 0
b1 1
#82
b0 !
b0 "
b0 #
b0 $
b0 %
b0 &
b0 '
b0 (
b0 )
b0 *
b1 +
b0 ,
b0 -
b10101010000000001111111101010101 .
b0 /
b1 0
b1 1
#83
b0 !
b0 "
b0 #
b0 $
b0 %
b0 &
b0 '
b0 (
b0 )
b0 *
b1 +
b0 ,
b0 -
b10101010000000001111111101010101 .
b0 /
b0 0
b1 1
#84
b0 !
b0 "
b0 #
b0 $
b0 %
b0 &
b0 '
b0 (
b0 )
b0 *
b1 +
b0 ,
b0 -
b10101010000000001111111101010101 .
b0 /
b1 0
b1 1
#85
b0 !
b0 "
b0 #
b0 $
b0 %
b0 &
b0 '
b0 (
b0 )
b0 *
b1 +
b0 ,
b0 -
b10101010000000001111111101010101 .
b0 /
b0 0
b1 1
#86
b0 !
b0 "
b0 #
b0 $
b0 %
b0 &
b0 '
b0 (
b0 )
b0 *
b1 +
b0 ,
b0 -
b10101010000000001111111101010101 .
b0 /
b1 0
b1 1
#87
b0 !
b0 "
b0 #
b0 $
b0 %
b0 &
b0 '
b0 (
b0 )
b0 *
b1 +
b0 ,
b0 -
b10101010000000001111111101010101 .
b0 /
b0 0
b1 1
#88
b1 !
b0 "
b0 #
b1 $
b0 %
b0 &
b0 '
b0 (
b1 )
b0 *
b1 +
b0 ,
b0 -
b10101010000000001111111101010101 .
b0 /
b1 0
b1 1
#89
b1 !
b0 "
b0 #
b1 $
b0 %
b0 &
b0 '
b0 (
b1 )
b0 *
b1 +
b0 ,
b0 -
b10101010000000001111111101010101 .
b0 /
b0 0
b1 1
#90
b1 !
b0 "
b0 #
b1 $
b0 %
b0 &
b0 '
b0 (
b1 )
b0 *
b1 +
b0 ,
b0 -
b10101010000000001111111101010101 .
b0 /
b1 0
b1 1
#91
b1 !
b0 "
b0 #
b1 $
b0 %
b0 &
b0 '
b0 (
b1 )
b0 *
b1 +
b0 ,
b0 -
b10101010000000001111111101010101 .
b0 /
b0 0
b1 1
#92
b1 !
b0 "
b0 #
b1 $
b0 %
b0 &
b0 '
b0 (
b1 )
b0 *
b1 +
b0 ,
b0 -
b10101010000000001111111101010101 .
b0 /
b1 0
b1 1
#93
b1 !
b0 "
b0 #
b1 $
b0 %
b0 &
b0 '
b0 (
b1 )
b0 *
b1 +
b0 ,
b0 -
b10101010000000001111111101010101 .
b0 /
b0 0
b1 1
#94
b0 !
b0 "
b0 #
b0 $
b0 %
b0 &
b0 '
b1 (
b0 )
b0 *
b1 +
b0 ,
b0 -
b10101010000000001111111101010101 .
b0 /
b1 0
b1 1
#95
b0 !
b0 "
b0 #
b0 $
b0 %
b0 &
b0 '
b1 (
b0 )
b0 *
b1 +
b0 ,
b0 -
b10101010000000001111111101010101 .
b0 /
b0 0
b1 1
#96
b0 !
b0 "
b0 #
b0 $
b0 %
b0 &
b0 '
b1 (
b0 )
b0 *
b1 +
b0 ,
b0 -
b10101010000000001111111101010101 .
b0 /
b1 0
b1 1
#97
b0 !
b0 "
b0 #
b0 $
b0 %
b0 &
b0 '
b1 (
b0 )
b0 *
b1 +
b0 ,
b0 -
b10101010000000001111111101010101 .
b0 /
b0 0
b1 1
#98
b0 !
b0 "
b0 #
b0 $
b0 %
b0 &
b0 '
b1 (
b0 )
b0 *
b1 +
b0 ,
b0 -
b10101010000000001111111101010101 .
b0 /
b1 0
b1 1
#99
b0 !
b0 "
b0 #
b0 $
b0 %
b0 &
b0 '
b1 (
b0 )
b0 *
b1 +
b0 ,
b0 -
b10101010000000001111111101010101 .
b0 /
b0 0
b1 1
#100
b0 !
b0 "
b0 #
b0 $
b0 %
b0 &
b0 '
b1 (
b0 )
b0 *
b1 +
b0 ,
b0 -
b10101010000000001111111101010101 .
b0 /
b1 0
b1 1
#101
b0 !
b0 "
b0 #
b0 $
b0 %
b0 &
b0 '
b1 (
b0 )
b0 *
b1 +
b0 ,
b0 -
b10101010000000001111111101010101 .
b0 /
b0 0
b1 1
#102
b0 !
b0 "
b0 #
b0 $
b0 %
b0 &
b0 '
b1 (
b0 )
b0 *
b1 +
b0 ,
b0 -
b10101010000000001111111101010101 .
b0 /
b1 0
b1 1
#103
b0 !
b0 "
b0 #
b0 $
b0 %
b0 &
b0 '
b1 (
b0 )
b0 *
b1 +
b0 ,
b0 -
b10101010000000001111111101010101 .
b0 /
b0 0
b1 1
#104
b0 !
b0 "
b0 #
b0 $
b0 %
b0 &
b0 '
b1 (
b0 )
b0 *
b1 +
b0 ,
b0 -
b10101010000000001111111101010101 .
b0 /
b1 0
b1 1
#105
b0 !
b0 "
b0 #
b0 $
b0 %
b0 &
b0 '
b1 (
b0 )
b0 *
b1 +
b0 ,
b0 -
b10101010000000001111111101010101 .
b0 /
b0 0
b1 1
#106
b0 !
b0 "
b0 #
b0 $
b0 %
b0 &
b0 '
b1 (
b0 )
b0 *
b1 +
b0 ,
b0 -
b10101010000000001111111101010101 .
b0 /
b1 0
b1 1
#107
b0 !
b0 "
b0 #
b0 $
b0 %
b0 &
b0 '
b1 (
b0 )
b0 *
b1 +
b0 ,
b0 -
b10101010000000001111111101010101 .
b0 /
b0 0
b1 1
#108
b0 !
b0 "
b0 #
b0 $
b0 %
b0 &
b0 '
b1 (
b0 )
b0 *
b1 +
b0 ,
b0 -
b10101010000000001111111101010101 .
b0 /
b1 0
b1 1
#109
b0 !
b0 "
b0 #
b0 $
b0 %
b0 &
b0 '
b1 (
b0 )
b0 *
b1 +
b0 ,
b0 -
b10101010000000001111111101010101 .
b0 /
b0 0
b1 1
#110
b0 !
b0 "
b0 #
b0 $
b0 %
b0 &
b0 '
b1 (
b0 )
b0 *
b1 +
b0 ,
b0 -
b10101010000000001111111101010101 .
b0 /
b1 0
b1 1
#111
b0 !
b0 "
b0 #
b0 $
b0 %
b0 &
b0 '
b1 (
b0 )
b0 *
b1 +
b0 ,
b0 -
b10101010000000001111111101010101 .
b0 /
b0 0
b1 1
#112
b0 !
b1 "
b0 #
b0 $
b0 %
b0 &
b0 '
b1 (
b0 )
b1 *
b0 +
b0 ,
b0 -
b11111101010100000000011111111010 .
b0 /
b1 0
b1 1
#113
b0 !
b1 "
b0 #
b0 $
b0 %
b0 &
b0 '
b1 (
b0 )
b1 *
b0 +
b0 ,
b0 -
b11111101010100000000011111111010 .
b0 /
b0 0
b1 1
#114
b0 !
b1 "
b0 #
b0 $
b0 %
b0 &
b0 '
b1 (
b0 )
b1 *
b1 +
b0 ,
b0 -
b11111111101010100000000011111111 .
b0 /
b1 0
b1 1
#115
b0 !
b1 "
b0 #
b0 $
b0 %
b0 &
b0 '
b1 (
b0 )
b1 *
b1 +
b0 ,
b0 -
b11111111101010100000000011111111 .
b0 /
b0 0
b1 1
#116
b0 !
b1 "
b0 #
b0 $
b0 %
b0 &
b0 '
b1 (
b0 )
b1 *
b1 +
b0 ,
b0 -
b11111111101010100000000011111111 .
b0 /
b1 0
b1 1
#117
b0 !
b1 "
b0 #
b0 $
b0 %
b0 &
b0 '
b1 (
b0 )
b1 *
b1 +
b0 ,
b0 -
b11111111101010100000000011111111 .
b0 /
b0 0
b1 1
#118
b0 !
b1 "
b0 #
b0 $
b0 %
b0 &
b0 '
b1 (
b0 )
b1 *
b1 +
b0 ,
b0 -
b11111111101010100000000011111111 .
b0 /
b1 0
b1 1
#119
b0 !
b1 "
b0 #
b0 $
b0 %
b0 &
b0 '
b1 (
b0 )
b1 *
b1 +
b0 ,
b0 -
b11111111101010100000000011111111 .
b0 /
b0 0
b1 1
#120
b0 !
b1 "
b0 #
b0 $
b0 %
b0 &
b0 '
b1 (
b0 )
b1 *
b1 +
b0 ,
b0 -
b11111111101010100000000011111111 .
b0 /
b1 0
b1 1
#121
b0 !
b1 "
b0 #
b0 $
b0 %
b0 &
b0 '
b1 (
b0 )
b1 *
b1 +
b0 ,
b0 -
b11111111101010100000000011111111 .
b0 /
b0 0
b1 1
#122
b0 !
b1 "
b0 #
b0 $
b0 %
b0 &
b0 '
b1 (
b0 )
b1 *
b1 +
b0 ,
b0 -
b11111111101010100000000011111111 .
b0 /
b1 0
b1 1
#123
b0 !
b1 "
b0 #
b0 $
b0 %
b0 &
b0 '
b1 (
b0 )
b1 *
b1 +
b0 ,
b0 -
b11111111101010100000000011111111 .
b0 /
b0 0
b1 1
#124
b0 !
b1 "
b0 #
b0 $
b0 %
b0 &
b0 '
b1 (
b0 )
b1 *
b1 +
b0 ,
b0 -
b11111111111111101010100000000011 .
b0 /
b1 0
b1 1
#125
b0 !
b1 "
b0 #
b0 $
b0 %
b0 &
b0 '
b1 (
b0 )
b1 *
b1 +
b0 ,
b0 -
b11111111111111101010100000000011 .
b0 /
b0 0
b1 1
#126
b0 !
b1 "
b0 #
b0 $
b0 %
b0 &
b0 '
b1 (
b0 )
b1 *
b0 +
b0 ,
b0 -
b11111111111111111010101000000000 .
b0 /
b1 0
b1 1
#127
b0 !
b1 "
b0 #
b0 $
b0 %
b0 &
b0 '
b1 (
b0 )
b1 *
b0 +
b0 ,
b0 -
b11111111111111111010101000000000 .
b0 /
b0 0
b1 1
#128
b0 !
b1 "
b0 #
b0 $
b0 %
b0 &
b0 '
b1 (
b0 )
b1 *
b0 +
b0 ,
b0 -
b11111111111111111010101000000000 .
b0 /
b1 0
b1 1
#129
b0 !
b1 "
b0 #
b0 $
b0 %
b0 &
b0 '
b1 (
b0 )
b1 *
b0 +
b0 ,
b0 -
b11111111111111111010101000000000 .
b0 /
b0 0
b1 1
#130
b0 !
b1 "
b0 #
b0 $
b0 %
b0 &
b0 '
b1 (
b0 )
b1 *
b0 +
b0 ,
b0 -
b11111111111111111010101000000000 .
b0 /
b1 0
b1 1
#131
b0 !
b1 "
b0 #
b0 $
b0 %
b0 &
b0 '
b1 (
b0 )
b1 *
b0 +
b0 ,
b0 -
b11111111111111111010101000000000 .
b0 /
b0 0
b1 1
#132
b0 !
b1 "
b0 #
b0 $
b0 %
b0 &
b0 '
b1 (
b0 )
b1 *
b0 +
b0 ,
b0 -
b11111111111111111010101000000000 .
b0 /
b1 0
b1 1
#133
b0 !
b1 "
b0 #
b0 $
b0 %
b0 &
b0 '
b1 (
b0 )
b1 *
b0 +
b0 ,
b0 -
b11111111111111111010101000000000 .
b0 /
b0 0
b1 1
#134
b0 !
b1 "
b0 #
b0 $
b0 %
b0 &
b0 '
b1 (
b0 )
b1 *
b0 +
b0 ,
b0 -
b11111111111111111010101000000000 .
b0 /
b1 0
b1 1
#135
b0 !
b1 "
b0 #
b0 $
b0 %
b0 &
b0 '
b1 (
b0 )
b1 *
b0 +
b0 ,
b0 -
b11111111111111111010101000000000 .
b0 /
b0 0
b1 1
#136
b0 !
b1 "
b0 #
b0 $
b0 %
b0 &
b0 '
b1 (
b0 )
b1 *
b0 +
b0 ,
b0 -
b11111111111111111111111101010100 .
b0 /
b1 0
b1 1
#137
b0 !
b1 "
b0 #
b0 $
b0 %
b0 &
b0 '
b1 (
b0 )
b1 *
b0 +
b0 ,
b0 -
b11111111111111111111111101010100 .
b0 /
b0 0
b1 1
#138
b0 !
b0 "
b0 #
b0 $
b0 %
b0 &
b0 '
b1 (
b0 )
b0 *
b0 +
b0 ,
b0 -
b11111111111111111111111110101010 .
b0 /
b1 0
b1 1
#139
b0 !
b0 "
b0 #
b0 $
b0 %
b0 &
b0 '
b1 (
b0 )
b0 *
b0 +
b0 ,
b0 -
b11111111111111111111111110101010 .
b0 /
b0 0
b1 1
#140
b0 !
b0 "
b0 #
b0 $
b0 %
b0 &
b0 '
b1 (
b0 )
b0 *
b0 +
b0 ,
b0 -
b11111111111111111111111110101010 .
b0 /
b1 0
b1 1
#141
b0 !
b0 "
b0 #
b0 $
b0 %
b0 &
b0 '
b1 (
b0 )
b0 *
b0 +
b0 ,
b0 -
b11111111111111111111111110101010 .
b0 /
b0 0
b1 1
#142
b0 !
b0 "
b0 #
b0 $
b0 %
b0 &
b0 '
b1 (
b0 )
b0 *
b0 +
b0 ,
b0 -
b11111111111111111111111110101010 .
b0 /
b1 0
b1 1
#143
b0 !
b0 "
b0 #
b0 $
b0 %
b0 &
b0 '
b1 (
b0 )
b0 *
b0 +
b0 ,
b0 -
b11111111111111111111111110101010 .
b0 /
b0 0
b1 1
#144
b0 !
b0 "
b0 #
b0 $
b0 %
b0 &
b0 '
b1 (
b0 )
b0 *
b0 +
b0 ,
b0 -
b11111111111111111111111110101010 .
b0 /
b1 0
b1 1
