examples/vcd-dumps/drscan-24-00DEADBEEF-32-openocd-ircode-0xe.vcd
$date
	2021-07-07 22:08
$end
$timescale 4000ps $end
$scope 1ps $end
$var wire 1 ! main_jtag_phy_altera_reserved_tck $end
$var wire 1 " main_jtag_phy_altera_reserved_tdi $end
$var wire 1 # main_jtag_phy_altera_reserved_tms $end
$var wire 1 $ main_jtag_phy_capture $end
$var wire 1 % main_jtag_phy_drck $end
$var wire 1 & main_jtag_phy_reset $end
$var wire 1 ' main_jtag_phy_runtest $end
$var wire 1 ( main_jtag_phy_sel $end
$var wire 1 ) main_jtag_phy_shift $end
$var wire 1 * main_jtag_phy_tckcore $end
$var wire 1 + main_jtag_phy_tckutap $end
$var wire 1 , main_jtag_phy_tdicore $end
$var wire 1 - main_jtag_phy_tdiutap $end
$var wire 1 . main_jtag_phy_tdouser $end
$var wire 1 / main_jtag_phy_tmscore $end
$var wire 1 0 main_jtag_phy_tmsutap $end
$var wire 1 1 main_jtag_phy_update $end
$var wire 1 2 main_jtag_tap_fsm_capture_dr $end
$var wire 1 3 main_jtag_tap_fsm_capture_ir $end
$var wire 1 4 main_jtag_tap_fsm_exit1_dr $end
$var wire 1 5 main_jtag_tap_fsm_exit1_ir $end
$var wire 1 6 main_jtag_tap_fsm_exit2_dr $end
$var wire 1 7 main_jtag_tap_fsm_exit2_ir $end
$var wire 1 8 main_jtag_tap_fsm_pause_dr $end
$var wire 1 9 main_jtag_tap_fsm_pause_ir $end
$var wire 1 : main_jtag_tap_fsm_run_test_idle $end
$var wire 1 ; main_jtag_tap_fsm_select_dr_scan $end
$var wire 1 < main_jtag_tap_fsm_select_ir_scan $end
$var wire 1 = main_jtag_tap_fsm_shift_dr $end
$var wire 1 > main_jtag_tap_fsm_shift_ir $end
$var wire 16 ? main_jtag_tap_fsm_tck_cnt $end
$var wire 1 @ main_jtag_tap_fsm_test_logic_reset $end
$var wire 1 A main_jtag_tap_fsm_update_dr $end
$var wire 1 B main_jtag_tap_fsm_update_ir $end
$var wire 1 C scope_clk $end
$var wire 1 D scope_trig $end
$unscope  $end
$enddefinitions  $end
$dumpvars
bx !
bx "
bx #
bx $
bx %
bx &
bx '
bx (
bx )
bx *
bx +
bx ,
bx -
bx .
bx /
bx 0
bx 1
bx 2
bx 3
bx 4
bx 5
bx 6
bx 7
bx 8
bx 9
bx :
bx ;
bx <
bx =
bx >
bxxxxxxxxxxxxxxxx ?
bx @
bx A
bx B
bx C
bx D
$end
#0
b0 !
b0 "
b0 #
b0 $
b1 %
b0 &
b1 '
b1 (
b0 )
b0 *
b0 +
b0 ,
b0 -
b0 .
b0 /
b0 0
b0 1
b0 2
b0 3
b0 4
b0 5
b0 6
b0 7
b0 8
b0 9
b1 :
b0 ;
b0 <
b0 =
b0 >
b1011111111111011 ?
b0 @
b0 A
b0 B
b1 C
b0 D
#1
b0 !
b0 "
b0 #
b0 $
b1 %
b0 &
b1 '
b1 (
b0 )
b0 *
b0 +
b0 ,
b0 -
b0 .
b0 /
b0 0
b0 1
b0 2
b0 3
b0 4
b0 5
b0 6
b0 7
b0 8
b0 9
b1 :
b0 ;
b0 <
b0 =
b0 >
b1011111111111011 ?
b0 @
b0 A
b0 B
b0 C
b0 D
#2
b0 !
b0 "
b0 #
b0 $
b1 %
b0 &
b1 '
b1 (
b0 )
b0 *
b0 +
b0 ,
b0 -
b0 .
b0 /
b0 0
b0 1
b0 2
b0 3
b0 4
b0 5
b0 6
b0 7
b0 8
b0 9
b1 :
b0 ;
b0 <
b0 =
b0 >
b1011111111111011 ?
b0 @
b0 A
b0 B
b1 C
b0 D
#3
b0 !
b0 "
b0 #
b0 $
b1 %
b0 &
b1 '
b1 (
b0 )
b0 *
b0 +
b0 ,
b0 -
b0 .
b0 /
b0 0
b0 1
b0 2
b0 3
b0 4
b0 5
b0 6
b0 7
b0 8
b0 9
b1 :
b0 ;
b0 <
b0 =
b0 >
b1011111111111011 ?
b0 @
b0 A
b0 B
b0 C
b0 D
#4
b0 !
b0 "
b0 #
b0 $
b1 %
b0 &
b1 '
b1 (
b0 )
b0 *
b0 +
b0 ,
b0 -
b0 .
b0 /
b0 0
b0 1
b0 2
b0 3
b0 4
b0 5
b0 6
b0 7
b0 8
b0 9
b1 :
b0 ;
b0 <
b0 =
b0 >
b1011111111111011 ?
b0 @
b0 A
b0 B
b1 C
b0 D
#5
b0 !
b0 "
b0 #
b0 $
b1 %
b0 &
b1 '
b1 (
b0 )
b0 *
b0 +
b0 ,
b0 -
b0 .
b0 /
b0 0
b0 1
b0 2
b0 3
b0 4
b0 5
b0 6
b0 7
b0 8
b0 9
b1 :
b0 ;
b0 <
b0 =
b0 >
b1011111111111011 ?
b0 @
b0 A
b0 B
b0 C
b0 D
#6
b0 !
b0 "
b0 #
b0 $
b1 %
b0 &
b1 '
b1 (
b0 )
b0 *
b0 +
b0 ,
b0 -
b0 .
b0 /
b0 0
b0 1
b0 2
b0 3
b0 4
b0 5
b0 6
b0 7
b0 8
b0 9
b1 :
b0 ;
b0 <
b0 =
b0 >
b1011111111111011 ?
b0 @
b0 A
b0 B
b1 C
b0 D
#7
b0 !
b0 "
b0 #
b0 $
b1 %
b0 &
b1 '
b1 (
b0 )
b0 *
b0 +
b0 ,
b0 -
b0 .
b0 /
b0 0
b0 1
b0 2
b0 3
b0 4
b0 5
b0 6
b0 7
b0 8
b0 9
b1 :
b0 ;
b0 <
b0 =
b0 >
b1011111111111011 ?
b0 @
b0 A
b0 B
b0 C
b0 D
#8
b0 !
b0 "
b0 #
b0 $
b1 %
b0 &
b1 '
b1 (
b0 )
b0 *
b0 +
b0 ,
b0 -
b0 .
b0 /
b0 0
b0 1
b0 2
b0 3
b0 4
b0 5
b0 6
b0 7
b0 8
b0 9
b1 :
b0 ;
b0 <
b0 =
b0 >
b1011111111111011 ?
b0 @
b0 A
b0 B
b1 C
b0 D
#9
b0 !
b0 "
b0 #
b0 $
b1 %
b0 &
b1 '
b1 (
b0 )
b0 *
b0 +
b0 ,
b0 -
b0 .
b0 /
b0 0
b0 1
b0 2
b0 3
b0 4
b0 5
b0 6
b0 7
b0 8
b0 9
b1 :
b0 ;
b0 <
b0 =
b0 >
b1011111111111011 ?
b0 @
b0 A
b0 B
b0 C
b0 D
#10
b0 !
b0 "
b0 #
b0 $
b1 %
b0 &
b1 '
b1 (
b0 )
b0 *
b0 +
b0 ,
b0 -
b0 .
b0 /
b0 0
b0 1
b0 2
b0 3
b0 4
b0 5
b0 6
b0 7
b0 8
b0 9
b1 :
b0 ;
b0 <
b0 =
b0 >
b1011111111111011 ?
b0 @
b0 A
b0 B
b1 C
b0 D
#11
b0 !
b0 "
b0 #
b0 $
b1 %
b0 &
b1 '
b1 (
b0 )
b0 *
b0 +
b0 ,
b0 -
b0 .
b0 /
b0 0
b0 1
b0 2
b0 3
b0 4
b0 5
b0 6
b0 7
b0 8
b0 9
b1 :
b0 ;
b0 <
b0 =
b0 >
b1011111111111011 ?
b0 @
b0 A
b0 B
b0 C
b0 D
#12
b0 !
b0 "
b0 #
b0 $
b1 %
b0 &
b1 '
b1 (
b0 )
b0 *
b0 +
b0 ,
b0 -
b0 .
b0 /
b0 0
b0 1
b0 2
b0 3
b0 4
b0 5
b0 6
b0 7
b0 8
b0 9
b1 :
b0 ;
b0 <
b0 =
b0 >
b1011111111111011 ?
b0 @
b0 A
b0 B
b1 C
b0 D
#13
b0 !
b0 "
b0 #
b0 $
b1 %
b0 &
b1 '
b1 (
b0 )
b0 *
b0 +
b0 ,
b0 -
b0 .
b0 /
b0 0
b0 1
b0 2
b0 3
b0 4
b0 5
b0 6
b0 7
b0 8
b0 9
b1 :
b0 ;
b0 <
b0 =
b0 >
b1011111111111011 ?
b0 @
b0 A
b0 B
b0 C
b0 D
#14
b0 !
b0 "
b0 #
b0 $
b1 %
b0 &
b1 '
b1 (
b0 )
b0 *
b0 +
b0 ,
b0 -
b0 .
b0 /
b0 0
b0 1
b0 2
b0 3
b0 4
b0 5
b0 6
b0 7
b0 8
b0 9
b1 :
b0 ;
b0 <
b0 =
b0 >
b1011111111111011 ?
b0 @
b0 A
b0 B
b1 C
b0 D
#15
b0 !
b0 "
b0 #
b0 $
b1 %
b0 &
b1 '
b1 (
b0 )
b0 *
b0 +
b0 ,
b0 -
b0 .
b0 /
b0 0
b0 1
b0 2
b0 3
b0 4
b0 5
b0 6
b0 7
b0 8
b0 9
b1 :
b0 ;
b0 <
b0 =
b0 >
b1011111111111011 ?
b0 @
b0 A
b0 B
b0 C
b0 D
#16
b0 !
b0 "
b0 #
b0 $
b1 %
b0 &
b1 '
b1 (
b0 )
b0 *
b0 +
b0 ,
b0 -
b0 .
b0 /
b0 0
b0 1
b0 2
b0 3
b0 4
b0 5
b0 6
b0 7
b0 8
b0 9
b1 :
b0 ;
b0 <
b0 =
b0 >
b1011111111111011 ?
b0 @
b0 A
b0 B
b1 C
b0 D
#17
b0 !
b0 "
b0 #
b0 $
b1 %
b0 &
b1 '
b1 (
b0 )
b0 *
b0 +
b0 ,
b0 -
b0 .
b0 /
b0 0
b0 1
b0 2
b0 3
b0 4
b0 5
b0 6
b0 7
b0 8
b0 9
b1 :
b0 ;
b0 <
b0 =
b0 >
b1011111111111011 ?
b0 @
b0 A
b0 B
b0 C
b0 D
#18
b0 !
b0 "
b0 #
b0 $
b1 %
b0 &
b1 '
b1 (
b0 )
b0 *
b0 +
b0 ,
b0 -
b0 .
b0 /
b0 0
b0 1
b0 2
b0 3
b0 4
b0 5
b0 6
b0 7
b0 8
b0 9
b1 :
b0 ;
b0 <
b0 =
b0 >
b1011111111111011 ?
b0 @
b0 A
b0 B
b1 C
b0 D
#19
b0 !
b0 "
b0 #
b0 $
b1 %
b0 &
b1 '
b1 (
b0 )
b0 *
b0 +
b0 ,
b0 -
b0 .
b0 /
b0 0
b0 1
b0 2
b0 3
b0 4
b0 5
b0 6
b0 7
b0 8
b0 9
b1 :
b0 ;
b0 <
b0 =
b0 >
b1011111111111011 ?
b0 @
b0 A
b0 B
b0 C
b0 D
#20
b0 !
b0 "
b0 #
b0 $
b1 %
b0 &
b1 '
b1 (
b0 )
b0 *
b0 +
b0 ,
b0 -
b0 .
b0 /
b0 0
b0 1
b0 2
b0 3
b0 4
b0 5
b0 6
b0 7
b0 8
b0 9
b1 :
b0 ;
b0 <
b0 =
b0 >
b1011111111111011 ?
b0 @
b0 A
b0 B
b1 C
b0 D
#21
b0 !
b0 "
b0 #
b0 $
b1 %
b0 &
b1 '
b1 (
b0 )
b0 *
b0 +
b0 ,
b0 -
b0 .
b0 /
b0 0
b0 1
b0 2
b0 3
b0 4
b0 5
b0 6
b0 7
b0 8
b0 9
b1 :
b0 ;
b0 <
b0 =
b0 >
b1011111111111011 ?
b0 @
b0 A
b0 B
b0 C
b0 D
#22
b0 !
b0 "
b0 #
b0 $
b1 %
b0 &
b1 '
b1 (
b0 )
b0 *
b0 +
b0 ,
b0 -
b0 .
b0 /
b0 0
b0 1
b0 2
b0 3
b0 4
b0 5
b0 6
b0 7
b0 8
b0 9
b1 :
b0 ;
b0 <
b0 =
b0 >
b1011111111111011 ?
b0 @
b0 A
b0 B
b1 C
b0 D
#23
b0 !
b0 "
b0 #
b0 $
b1 %
b0 &
b1 '
b1 (
b0 )
b0 *
b0 +
b0 ,
b0 -
b0 .
b0 /
b0 0
b0 1
b0 2
b0 3
b0 4
b0 5
b0 6
b0 7
b0 8
b0 9
b1 :
b0 ;
b0 <
b0 =
b0 >
b1011111111111011 ?
b0 @
b0 A
b0 B
b0 C
b0 D
#24
b0 !
b0 "
b0 #
b0 $
b1 %
b0 &
b1 '
b1 (
b0 )
b0 *
b0 +
b0 ,
b0 -
b0 .
b0 /
b0 0
b0 1
b0 2
b0 3
b0 4
b0 5
b0 6
b0 7
b0 8
b0 9
b1 :
b0 ;
b0 <
b0 =
b0 >
b1011111111111011 ?
b0 @
b0 A
b0 B
b1 C
b0 D
#25
b0 !
b0 "
b0 #
b0 $
b1 %
b0 &
b1 '
b1 (
b0 )
b0 *
b0 +
b0 ,
b0 -
b0 .
b0 /
b0 0
b0 1
b0 2
b0 3
b0 4
b0 5
b0 6
b0 7
b0 8
b0 9
b1 :
b0 ;
b0 <
b0 =
b0 >
b1011111111111011 ?
b0 @
b0 A
b0 B
b0 C
b0 D
#26
b0 !
b0 "
b0 #
b0 $
b1 %
b0 &
b1 '
b1 (
b0 )
b0 *
b0 +
b0 ,
b0 -
b0 .
b0 /
b0 0
b0 1
b0 2
b0 3
b0 4
b0 5
b0 6
b0 7
b0 8
b0 9
b1 :
b0 ;
b0 <
b0 =
b0 >
b1011111111111011 ?
b0 @
b0 A
b0 B
b1 C
b0 D
#27
b0 !
b0 "
b0 #
b0 $
b1 %
b0 &
b1 '
b1 (
b0 )
b0 *
b0 +
b0 ,
b0 -
b0 .
b0 /
b0 0
b0 1
b0 2
b0 3
b0 4
b0 5
b0 6
b0 7
b0 8
b0 9
b1 :
b0 ;
b0 <
b0 =
b0 >
b1011111111111011 ?
b0 @
b0 A
b0 B
b0 C
b0 D
#28
b0 !
b0 "
b0 #
b0 $
b1 %
b0 &
b1 '
b1 (
b0 )
b0 *
b0 +
b0 ,
b0 -
b0 .
b0 /
b0 0
b0 1
b0 2
b0 3
b0 4
b0 5
b0 6
b0 7
b0 8
b0 9
b1 :
b0 ;
b0 <
b0 =
b0 >
b1011111111111011 ?
b0 @
b0 A
b0 B
b1 C
b0 D
#29
b0 !
b0 "
b0 #
b0 $
b1 %
b0 &
b1 '
b1 (
b0 )
b0 *
b0 +
b0 ,
b0 -
b0 .
b0 /
b0 0
b0 1
b0 2
b0 3
b0 4
b0 5
b0 6
b0 7
b0 8
b0 9
b1 :
b0 ;
b0 <
b0 =
b0 >
b1011111111111011 ?
b0 @
b0 A
b0 B
b0 C
b0 D
#30
b0 !
b0 "
b0 #
b0 $
b1 %
b0 &
b1 '
b1 (
b0 )
b0 *
b0 +
b0 ,
b0 -
b0 .
b0 /
b0 0
b0 1
b0 2
b0 3
b0 4
b0 5
b0 6
b0 7
b0 8
b0 9
b1 :
b0 ;
b0 <
b0 =
b0 >
b1011111111111011 ?
b0 @
b0 A
b0 B
b1 C
b0 D
#31
b0 !
b0 "
b0 #
b0 $
b1 %
b0 &
b1 '
b1 (
b0 )
b0 *
b0 +
b0 ,
b0 -
b0 .
b0 /
b0 0
b0 1
b0 2
b0 3
b0 4
b0 5
b0 6
b0 7
b0 8
b0 9
b1 :
b0 ;
b0 <
b0 =
b0 >
b1011111111111011 ?
b0 @
b0 A
b0 B
b0 C
b0 D
#32
b0 !
b0 "
b0 #
b0 $
b1 %
b0 &
b1 '
b1 (
b0 )
b0 *
b0 +
b0 ,
b0 -
b0 .
b0 /
b0 0
b0 1
b0 2
b0 3
b0 4
b0 5
b0 6
b0 7
b0 8
b0 9
b1 :
b0 ;
b0 <
b0 =
b0 >
b1011111111111011 ?
b0 @
b0 A
b0 B
b1 C
b1 D
#33
b0 !
b0 "
b0 #
b0 $
b1 %
b0 &
b1 '
b1 (
b0 )
b0 *
b0 +
b0 ,
b0 -
b0 .
b0 /
b0 0
b0 1
b0 2
b0 3
b0 4
b0 5
b0 6
b0 7
b0 8
b0 9
b1 :
b0 ;
b0 <
b0 =
b0 >
b1011111111111011 ?
b0 @
b0 A
b0 B
b0 C
b1 D
#34
b0 !
b0 "
b0 #
b0 $
b1 %
b0 &
b1 '
b1 (
b0 )
b0 *
b0 +
b0 ,
b0 -
b0 .
b0 /
b0 0
b0 1
b0 2
b0 3
b0 4
b0 5
b0 6
b0 7
b0 8
b0 9
b1 :
b0 ;
b0 <
b0 =
b0 >
b1011111111111011 ?
b0 @
b0 A
b0 B
b1 C
b1 D
#35
b0 !
b0 "
b0 #
b0 $
b1 %
b0 &
b1 '
b1 (
b0 )
b0 *
b0 +
b0 ,
b0 -
b0 .
b0 /
b0 0
b0 1
b0 2
b0 3
b0 4
b0 5
b0 6
b0 7
b0 8
b0 9
b1 :
b0 ;
b0 <
b0 =
b0 >
b1011111111111011 ?
b0 @
b0 A
b0 B
b0 C
b1 D
#36
b0 !
b0 "
b0 #
b0 $
b1 %
b0 &
b1 '
b1 (
b0 )
b0 *
b0 +
b0 ,
b0 -
b0 .
b0 /
b0 0
b0 1
b0 2
b0 3
b0 4
b0 5
b0 6
b0 7
b0 8
b0 9
b1 :
b0 ;
b0 <
b0 =
b0 >
b1011111111111011 ?
b0 @
b0 A
b0 B
b1 C
b1 D
#37
b0 !
b0 "
b0 #
b0 $
b1 %
b0 &
b1 '
b1 (
b0 )
b0 *
b0 +
b0 ,
b0 -
b0 .
b0 /
b0 0
b0 1
b0 2
b0 3
b0 4
b0 5
b0 6
b0 7
b0 8
b0 9
b1 :
b0 ;
b0 <
b0 =
b0 >
b1011111111111011 ?
b0 @
b0 A
b0 B
b0 C
b1 D
#38
b0 !
b0 "
b0 #
b0 $
b1 %
b0 &
b1 '
b1 (
b0 )
b0 *
b0 +
b0 ,
b0 -
b0 .
b0 /
b0 0
b0 1
b0 2
b0 3
b0 4
b0 5
b0 6
b0 7
b0 8
b0 9
b1 :
b0 ;
b0 <
b0 =
b0 >
b1011111111111011 ?
b0 @
b0 A
b0 B
b1 C
b1 D
#39
b0 !
b0 "
b0 #
b0 $
b1 %
b0 &
b1 '
b1 (
b0 )
b0 *
b0 +
b0 ,
b0 -
b0 .
b0 /
b0 0
b0 1
b0 2
b0 3
b0 4
b0 5
b0 6
b0 7
b0 8
b0 9
b1 :
b0 ;
b0 <
b0 =
b0 >
b1011111111111011 ?
b0 @
b0 A
b0 B
b0 C
b1 D
#40
b0 !
b0 "
b0 #
b0 $
b1 %
b0 &
b1 '
b1 (
b0 )
b0 *
b0 +
b0 ,
b0 -
b0 .
b0 /
b0 0
b0 1
b0 2
b0 3
b0 4
b0 5
b0 6
b0 7
b0 8
b0 9
b1 :
b0 ;
b0 <
b0 =
b0 >
b1011111111111011 ?
b0 @
b0 A
b0 B
b1 C
b1 D
#41
b0 !
b0 "
b0 #
b0 $
b1 %
b0 &
b1 '
b1 (
b0 )
b0 *
b0 +
b0 ,
b0 -
b0 .
b0 /
b0 0
b0 1
b0 2
b0 3
b0 4
b0 5
b0 6
b0 7
b0 8
b0 9
b1 :
b0 ;
b0 <
b0 =
b0 >
b1011111111111011 ?
b0 @
b0 A
b0 B
b0 C
b1 D
#42
b0 !
b0 "
b0 #
b0 $
b1 %
b0 &
b1 '
b1 (
b0 )
b0 *
b0 +
b0 ,
b0 -
b0 .
b0 /
b0 0
b0 1
b0 2
b0 3
b0 4
b0 5
b0 6
b0 7
b0 8
b0 9
b1 :
b0 ;
b0 <
b0 =
b0 >
b1011111111111011 ?
b0 @
b0 A
b0 B
b1 C
b1 D
#43
b0 !
b0 "
b0 #
b0 $
b1 %
b0 &
b1 '
b1 (
b0 )
b0 *
b0 +
b0 ,
b0 -
b0 .
b0 /
b0 0
b0 1
b0 2
b0 3
b0 4
b0 5
b0 6
b0 7
b0 8
b0 9
b1 :
b0 ;
b0 <
b0 =
b0 >
b1011111111111011 ?
b0 @
b0 A
b0 B
b0 C
b1 D
#44
b0 !
b0 "
b0 #
b0 $
b1 %
b0 &
b1 '
b1 (
b0 )
b0 *
b0 +
b0 ,
b0 -
b0 .
b0 /
b0 0
b0 1
b0 2
b0 3
b0 4
b0 5
b0 6
b0 7
b0 8
b0 9
b1 :
b0 ;
b0 <
b0 =
b0 >
b1011111111111011 ?
b0 @
b0 A
b0 B
b1 C
b1 D
#45
b0 !
b0 "
b0 #
b0 $
b1 %
b0 &
b1 '
b1 (
b0 )
b0 *
b0 +
b0 ,
b0 -
b0 .
b0 /
b0 0
b0 1
b0 2
b0 3
b0 4
b0 5
b0 6
b0 7
b0 8
b0 9
b1 :
b0 ;
b0 <
b0 =
b0 >
b1011111111111011 ?
b0 @
b0 A
b0 B
b0 C
b1 D
#46
b0 !
b0 "
b0 #
b0 $
b1 %
b0 &
b1 '
b1 (
b0 )
b0 *
b0 +
b0 ,
b0 -
b0 .
b0 /
b0 0
b0 1
b0 2
b0 3
b0 4
b0 5
b0 6
b0 7
b0 8
b0 9
b1 :
b0 ;
b0 <
b0 =
b0 >
b1011111111111011 ?
b0 @
b0 A
b0 B
b1 C
b1 D
#47
b0 !
b0 "
b0 #
b0 $
b1 %
b0 &
b1 '
b1 (
b0 )
b0 *
b0 +
b0 ,
b0 -
b0 .
b0 /
b0 0
b0 1
b0 2
b0 3
b0 4
b0 5
b0 6
b0 7
b0 8
b0 9
b1 :
b0 ;
b0 <
b0 =
b0 >
b1011111111111011 ?
b0 @
b0 A
b0 B
b0 C
b1 D
#48
b0 !
b0 "
b0 #
b0 $
b1 %
b0 &
b1 '
b1 (
b0 )
b0 *
b0 +
b0 ,
b0 -
b0 .
b0 /
b0 0
b0 1
b0 2
b0 3
b0 4
b0 5
b0 6
b0 7
b0 8
b0 9
b1 :
b0 ;
b0 <
b0 =
b0 >
b1011111111111011 ?
b0 @
b0 A
b0 B
b1 C
b1 D
#49
b0 !
b0 "
b0 #
b0 $
b1 %
b0 &
b1 '
b1 (
b0 )
b0 *
b0 +
b0 ,
b0 -
b0 .
b0 /
b0 0
b0 1
b0 2
b0 3
b0 4
b0 5
b0 6
b0 7
b0 8
b0 9
b1 :
b0 ;
b0 <
b0 =
b0 >
b1011111111111011 ?
b0 @
b0 A
b0 B
b0 C
b1 D
#50
b0 !
b0 "
b0 #
b0 $
b1 %
b0 &
b1 '
b1 (
b0 )
b0 *
b0 +
b0 ,
b0 -
b0 .
b0 /
b0 0
b0 1
b0 2
b0 3
b0 4
b0 5
b0 6
b0 7
b0 8
b0 9
b1 :
b0 ;
b0 <
b0 =
b0 >
b1011111111111011 ?
b0 @
b0 A
b0 B
b1 C
b1 D
#51
b0 !
b0 "
b0 #
b0 $
b1 %
b0 &
b1 '
b1 (
b0 )
b0 *
b0 +
b0 ,
b0 -
b0 .
b0 /
b0 0
b0 1
b0 2
b0 3
b0 4
b0 5
b0 6
b0 7
b0 8
b0 9
b1 :
b0 ;
b0 <
b0 =
b0 >
b1011111111111011 ?
b0 @
b0 A
b0 B
b0 C
b1 D
#52
b0 !
b0 "
b0 #
b0 $
b1 %
b0 &
b1 '
b1 (
b0 )
b0 *
b0 +
b0 ,
b0 -
b0 .
b0 /
b0 0
b0 1
b0 2
b0 3
b0 4
b0 5
b0 6
b0 7
b0 8
b0 9
b1 :
b0 ;
b0 <
b0 =
b0 >
b1011111111111011 ?
b0 @
b0 A
b0 B
b1 C
b1 D
#53
b0 !
b0 "
b0 #
b0 $
b1 %
b0 &
b1 '
b1 (
b0 )
b0 *
b0 +
b0 ,
b0 -
b0 .
b0 /
b0 0
b0 1
b0 2
b0 3
b0 4
b0 5
b0 6
b0 7
b0 8
b0 9
b1 :
b0 ;
b0 <
b0 =
b0 >
b1011111111111011 ?
b0 @
b0 A
b0 B
b0 C
b1 D
#54
b0 !
b0 "
b0 #
b0 $
b1 %
b0 &
b1 '
b1 (
b0 )
b0 *
b0 +
b0 ,
b0 -
b0 .
b0 /
b0 0
b0 1
b0 2
b0 3
b0 4
b0 5
b0 6
b0 7
b0 8
b0 9
b1 :
b0 ;
b0 <
b0 =
b0 >
b1011111111111011 ?
b0 @
b0 A
b0 B
b1 C
b1 D
#55
b0 !
b0 "
b0 #
b0 $
b1 %
b0 &
b1 '
b1 (
b0 )
b0 *
b0 +
b0 ,
b0 -
b0 .
b0 /
b0 0
b0 1
b0 2
b0 3
b0 4
b0 5
b0 6
b0 7
b0 8
b0 9
b1 :
b0 ;
b0 <
b0 =
b0 >
b1011111111111011 ?
b0 @
b0 A
b0 B
b0 C
b1 D
#56
b0 !
b0 "
b0 #
b0 $
b1 %
b0 &
b1 '
b1 (
b0 )
b0 *
b0 +
b0 ,
b0 -
b0 .
b0 /
b0 0
b0 1
b0 2
b0 3
b0 4
b0 5
b0 6
b0 7
b0 8
b0 9
b1 :
b0 ;
b0 <
b0 =
b0 >
b1011111111111011 ?
b0 @
b0 A
b0 B
b1 C
b1 D
#57
b0 !
b0 "
b0 #
b0 $
b1 %
b0 &
b1 '
b1 (
b0 )
b0 *
b0 +
b0 ,
b0 -
b0 .
b0 /
b0 0
b0 1
b0 2
b0 3
b0 4
b0 5
b0 6
b0 7
b0 8
b0 9
b1 :
b0 ;
b0 <
b0 =
b0 >
b1011111111111011 ?
b0 @
b0 A
b0 B
b0 C
b1 D
#58
b0 !
b0 "
b1 #
b0 $
b1 %
b0 &
b1 '
b1 (
b0 )
b0 *
b0 +
b0 ,
b0 -
b0 .
b0 /
b0 0
b0 1
b0 2
b0 3
b0 4
b0 5
b0 6
b0 7
b0 8
b0 9
b1 :
b0 ;
b0 <
b0 =
b0 >
b1011111111111011 ?
b0 @
b0 A
b0 B
b1 C
b1 D
#59
b0 !
b0 "
b1 #
b0 $
b1 %
b0 &
b1 '
b1 (
b0 )
b0 *
b0 +
b0 ,
b0 -
b0 .
b0 /
b0 0
b0 1
b0 2
b0 3
b0 4
b0 5
b0 6
b0 7
b0 8
b0 9
b1 :
b0 ;
b0 <
b0 =
b0 >
b1011111111111011 ?
b0 @
b0 A
b0 B
b0 C
b1 D
#60
b0 !
b0 "
b1 #
b0 $
b1 %
b0 &
b1 '
b1 (
b0 )
b0 *
b0 +
b0 ,
b0 -
b0 .
b0 /
b1 0
b0 1
b0 2
b0 3
b0 4
b0 5
b0 6
b0 7
b0 8
b0 9
b1 :
b0 ;
b0 <
b0 =
b0 >
b1011111111111011 ?
b0 @
b0 A
b0 B
b1 C
b1 D
#61
b0 !
b0 "
b1 #
b0 $
b1 %
b0 &
b1 '
b1 (
b0 )
b0 *
b0 +
b0 ,
b0 -
b0 .
b0 /
b1 0
b0 1
b0 2
b0 3
b0 4
b0 5
b0 6
b0 7
b0 8
b0 9
b1 :
b0 ;
b0 <
b0 =
b0 >
b1011111111111011 ?
b0 @
b0 A
b0 B
b0 C
b1 D
#62
b0 !
b0 "
b1 #
b0 $
b1 %
b0 &
b1 '
b1 (
b0 )
b0 *
b0 +
b0 ,
b0 -
b0 .
b0 /
b1 0
b0 1
b0 2
b0 3
b0 4
b0 5
b0 6
b0 7
b0 8
b0 9
b1 :
b0 ;
b0 <
b0 =
b0 >
b1011111111111011 ?
b0 @
b0 A
b0 B
b1 C
b1 D
#63
b0 !
b0 "
b1 #
b0 $
b1 %
b0 &
b1 '
b1 (
b0 )
b0 *
b0 +
b0 ,
b0 -
b0 .
b0 /
b1 0
b0 1
b0 2
b0 3
b0 4
b0 5
b0 6
b0 7
b0 8
b0 9
b1 :
b0 ;
b0 <
b0 =
b0 >
b1011111111111011 ?
b0 @
b0 A
b0 B
b0 C
b1 D
#64
b1 !
b0 "
b1 #
b0 $
b1 %
b0 &
b0 '
b1 (
b0 )
b0 *
b1 +
b0 ,
b0 -
b0 .
b0 /
b1 0
b0 1
b0 2
b0 3
b0 4
b0 5
b0 6
b0 7
b0 8
b0 9
b0 :
b1 ;
b0 <
b0 =
b0 >
b1011111111111100 ?
b0 @
b0 A
b0 B
b1 C
b1 D
#65
b1 !
b0 "
b1 #
b0 $
b1 %
b0 &
b0 '
b1 (
b0 )
b0 *
b1 +
b0 ,
b0 -
b0 .
b0 /
b1 0
b0 1
b0 2
b0 3
b0 4
b0 5
b0 6
b0 7
b0 8
b0 9
b0 :
b1 ;
b0 <
b0 =
b0 >
b1011111111111100 ?
b0 @
b0 A
b0 B
b0 C
b1 D
#66
b1 !
b0 "
b1 #
b0 $
b1 %
b0 &
b0 '
b1 (
b0 )
b0 *
b1 +
b0 ,
b0 -
b0 .
b0 /
b1 0
b0 1
b0 2
b0 3
b0 4
b0 5
b0 6
b0 7
b0 8
b0 9
b0 :
b1 ;
b0 <
b0 =
b0 >
b1011111111111100 ?
b0 @
b0 A
b0 B
b1 C
b1 D
#67
b1 !
b0 "
b1 #
b0 $
b1 %
b0 &
b0 '
b1 (
b0 )
b0 *
b1 +
b0 ,
b0 -
b0 .
b0 /
b1 0
b0 1
b0 2
b0 3
b0 4
b0 5
b0 6
b0 7
b0 8
b0 9
b0 :
b1 ;
b0 <
b0 =
b0 >
b1011111111111100 ?
b0 @
b0 A
b0 B
b0 C
b1 D
#68
b0 !
b0 "
b0 #
b0 $
b1 %
b0 &
b0 '
b1 (
b0 )
b0 *
b0 +
b0 ,
b0 -
b0 .
b0 /
b0 0
b0 1
b0 2
b0 3
b0 4
b0 5
b0 6
b0 7
b0 8
b0 9
b0 :
b1 ;
b0 <
b0 =
b0 >
b1011111111111100 ?
b0 @
b0 A
b0 B
b1 C
b1 D
#69
b0 !
b0 "
b0 #
b0 $
b1 %
b0 &
b0 '
b1 (
b0 )
b0 *
b0 +
b0 ,
b0 -
b0 .
b0 /
b0 0
b0 1
b0 2
b0 3
b0 4
b0 5
b0 6
b0 7
b0 8
b0 9
b0 :
b1 ;
b0 <
b0 =
b0 >
b1011111111111100 ?
b0 @
b0 A
b0 B
b0 C
b1 D
#70
b0 !
b0 "
b0 #
b0 $
b1 %
b0 &
b0 '
b1 (
b0 )
b0 *
b0 +
b0 ,
b0 -
b0 .
b0 /
b0 0
b0 1
b0 2
b0 3
b0 4
b0 5
b0 6
b0 7
b0 8
b0 9
b0 :
b1 ;
b0 <
b0 =
b0 >
b1011111111111100 ?
b0 @
b0 A
b0 B
b1 C
b1 D
