examples/vcd-dumps/drscan-21-00DEADBEEF-80.vcd
$date
	2021-07-06 20:28
$end
$timescale 4000ps $end
$scope 1ps $end
$var wire 1 ! main_jtag_phy_altera_reserved_tck $end
$var wire 1 " main_jtag_phy_altera_reserved_tdi $end
$var wire 1 # main_jtag_phy_altera_reserved_tms $end
$var wire 1 $ main_jtag_phy_capture $end
$var wire 1 % main_jtag_phy_corectl $end
$var wire 1 & main_jtag_phy_drck $end
$var wire 1 ' main_jtag_phy_ntdopinena $end
$var wire 1 ( main_jtag_phy_reset $end
$var wire 1 ) main_jtag_phy_runtest $end
$var wire 1 * main_jtag_phy_sel $end
$var wire 1 + main_jtag_phy_shift $end
$var wire 1 , main_jtag_phy_tck $end
$var wire 1 - main_jtag_phy_tckcore $end
$var wire 1 . main_jtag_phy_tckutap $end
$var wire 1 / main_jtag_phy_tdi $end
$var wire 1 0 main_jtag_phy_tdicore $end
$var wire 1 1 main_jtag_phy_tdiutap $end
$var wire 1 2 main_jtag_phy_tdo $end
$var wire 1 3 main_jtag_phy_tdocore $end
$var wire 1 4 main_jtag_phy_tdouser $end
$var wire 1 5 main_jtag_phy_tms $end
$var wire 1 6 main_jtag_phy_tmscore $end
$var wire 1 7 main_jtag_phy_tmsutap $end
$var wire 1 8 main_jtag_phy_update $end
$var wire 1 9 main_jtag_hello_buf $end
$var wire 16 : main_jtag_hello_drck_cnt $end
$var wire 32 ; main_jtag_hello_hello_code $end
$var wire 1 < main_capture_dr $end
$var wire 1 = main_capture_ir $end
$var wire 1 > main_exit1_dr $end
$var wire 1 ? main_exit1_ir $end
$var wire 1 @ main_exit2_dr $end
$var wire 1 A main_exit2_ir $end
$var wire 1 B main_pause_dr $end
$var wire 1 C main_pause_ir $end
$var wire 1 D main_run_test_idle $end
$var wire 1 E main_select_dr_scan $end
$var wire 1 F main_select_ir_scan $end
$var wire 1 G main_shift_dr $end
$var wire 1 H main_shift_ir $end
$var wire 16 I main_tck_cnt $end
$var wire 1 J main_test_logic_reset $end
$var wire 1 K main_update_dr $end
$var wire 1 L main_update_ir $end
$var wire 1 M scope_clk $end
$var wire 1 N scope_trig $end
$unscope  $end
$enddefinitions  $end
$dumpvars
bx !
bx "
bx #
bx $
bx %
bx &
bx '
bx (
bx )
bx *
bx +
bx ,
bx -
bx .
bx /
bx 0
bx 1
bx 2
bx 3
bx 4
bx 5
bx 6
bx 7
bx 8
bx 9
bxxxxxxxxxxxxxxxx :
bxxxxxxxxxxxxxxxxxxxxxxxxxxxxxxxx ;
bx <
bx =
bx >
bx ?
bx @
bx A
bx B
bx C
bx D
bx E
bx F
bx G
bx H
bxxxxxxxxxxxxxxxx I
bx J
bx K
bx L
bx M
bx N
$end
#0
b1 !
b1 "
b1 #
b0 $
b0 %
b1 &
b0 '
b0 (
b0 )
b0 *
b0 +
b1 ,
b0 -
b1 .
b1 /
b0 0
b1 1
b0 2
b0 3
b0 4
b1 5
b0 6
b1 7
b0 8
b0 9
b0000000010001000 :
b00000001010101000000000111111110 ;
b0 <
b0 =
b0 >
b0 ?
b0 @
b0 A
b0 B
b0 C
b0 D
b0 E
b0 F
b0 G
b0 H
b0001001001010001 I
b0 J
b1 K
b0 L
b1 M
b0 N
#1
b1 !
b1 "
b1 #
b0 $
b0 %
b1 &
b0 '
b0 (
b0 )
b0 *
b0 +
b1 ,
b0 -
b1 .
b1 /
b0 0
b1 1
b0 2
b0 3
b0 4
b1 5
b0 6
b1 7
b0 8
b0 9
b0000000010001000 :
b00000001010101000000000111111110 ;
b0 <
b0 =
b0 >
b0 ?
b0 @
b0 A
b0 B
b0 C
b0 D
b0 E
b0 F
b0 G
b0 H
b0001001001010001 I
b0 J
b1 K
b0 L
b0 M
b0 N
#2
b1 !
b1 "
b1 #
b0 $
b0 %
b1 &
b0 '
b0 (
b0 )
b0 *
b0 +
b1 ,
b0 -
b1 .
b1 /
b0 0
b1 1
b0 2
b0 3
b0 4
b1 5
b0 6
b1 7
b0 8
b0 9
b0000000010001000 :
b00000001010101000000000111111110 ;
b0 <
b0 =
b0 >
b0 ?
b0 @
b0 A
b0 B
b0 C
b0 D
b0 E
b0 F
b0 G
b0 H
b0001001001010001 I
b0 J
b1 K
b0 L
b1 M
b0 N
#3
b1 !
b1 "
b1 #
b0 $
b0 %
b1 &
b0 '
b0 (
b0 )
b0 *
b0 +
b1 ,
b0 -
b1 .
b1 /
b0 0
b1 1
b0 2
b0 3
b0 4
b1 5
b0 6
b1 7
b0 8
b0 9
b0000000010001000 :
b00000001010101000000000111111110 ;
b0 <
b0 =
b0 >
b0 ?
b0 @
b0 A
b0 B
b0 C
b0 D
b0 E
b0 F
b0 G
b0 H
b0001001001010001 I
b0 J
b1 K
b0 L
b0 M
b0 N
#4
b1 !
b1 "
b1 #
b0 $
b0 %
b1 &
b0 '
b0 (
b0 )
b0 *
b0 +
b1 ,
b0 -
b1 .
b1 /
b0 0
b1 1
b0 2
b0 3
b0 4
b1 5
b0 6
b1 7
b0 8
b0 9
b0000000010001000 :
b00000001010101000000000111111110 ;
b0 <
b0 =
b0 >
b0 ?
b0 @
b0 A
b0 B
b0 C
b0 D
b0 E
b0 F
b0 G
b0 H
b0001001001010001 I
b0 J
b1 K
b0 L
b1 M
b0 N
#5
b1 !
b1 "
b1 #
b0 $
b0 %
b1 &
b0 '
b0 (
b0 )
b0 *
b0 +
b1 ,
b0 -
b1 .
b1 /
b0 0
b1 1
b0 2
b0 3
b0 4
b1 5
b0 6
b1 7
b0 8
b0 9
b0000000010001000 :
b00000001010101000000000111111110 ;
b0 <
b0 =
b0 >
b0 ?
b0 @
b0 A
b0 B
b0 C
b0 D
b0 E
b0 F
b0 G
b0 H
b0001001001010001 I
b0 J
b1 K
b0 L
b0 M
b0 N
#6
b1 !
b1 "
b1 #
b0 $
b0 %
b1 &
b0 '
b0 (
b0 )
b0 *
b0 +
b1 ,
b0 -
b1 .
b1 /
b0 0
b1 1
b0 2
b0 3
b0 4
b1 5
b0 6
b1 7
b0 8
b0 9
b0000000010001000 :
b00000001010101000000000111111110 ;
b0 <
b0 =
b0 >
b0 ?
b0 @
b0 A
b0 B
b0 C
b0 D
b0 E
b0 F
b0 G
b0 H
b0001001001010001 I
b0 J
b1 K
b0 L
b1 M
b0 N
#7
b1 !
b1 "
b1 #
b0 $
b0 %
b1 &
b0 '
b0 (
b0 )
b0 *
b0 +
b1 ,
b0 -
b1 .
b1 /
b0 0
b1 1
b0 2
b0 3
b0 4
b1 5
b0 6
b1 7
b0 8
b0 9
b0000000010001000 :
b00000001010101000000000111111110 ;
b0 <
b0 =
b0 >
b0 ?
b0 @
b0 A
b0 B
b0 C
b0 D
b0 E
b0 F
b0 G
b0 H
b0001001001010001 I
b0 J
b1 K
b0 L
b0 M
b0 N
#8
b1 !
b1 "
b1 #
b0 $
b0 %
b1 &
b0 '
b0 (
b0 )
b0 *
b0 +
b1 ,
b0 -
b1 .
b1 /
b0 0
b1 1
b0 2
b0 3
b0 4
b1 5
b0 6
b1 7
b0 8
b0 9
b0000000010001000 :
b00000001010101000000000111111110 ;
b0 <
b0 =
b0 >
b0 ?
b0 @
b0 A
b0 B
b0 C
b0 D
b0 E
b0 F
b0 G
b0 H
b0001001001010001 I
b0 J
b1 K
b0 L
b1 M
b0 N
#9
b1 !
b1 "
b1 #
b0 $
b0 %
b1 &
b0 '
b0 (
b0 )
b0 *
b0 +
b1 ,
b0 -
b1 .
b1 /
b0 0
b1 1
b0 2
b0 3
b0 4
b1 5
b0 6
b1 7
b0 8
b0 9
b0000000010001000 :
b00000001010101000000000111111110 ;
b0 <
b0 =
b0 >
b0 ?
b0 @
b0 A
b0 B
b0 C
b0 D
b0 E
b0 F
b0 G
b0 H
b0001001001010001 I
b0 J
b1 K
b0 L
b0 M
b0 N
#10
b1 !
b1 "
b1 #
b0 $
b0 %
b1 &
b0 '
b0 (
b0 )
b0 *
b0 +
b1 ,
b0 -
b1 .
b1 /
b0 0
b1 1
b0 2
b0 3
b0 4
b1 5
b0 6
b1 7
b0 8
b0 9
b0000000010001000 :
b00000001010101000000000111111110 ;
b0 <
b0 =
b0 >
b0 ?
b0 @
b0 A
b0 B
b0 C
b0 D
b0 E
b0 F
b0 G
b0 H
b0001001001010001 I
b0 J
b1 K
b0 L
b1 M
b0 N
#11
b1 !
b1 "
b1 #
b0 $
b0 %
b1 &
b0 '
b0 (
b0 )
b0 *
b0 +
b1 ,
b0 -
b1 .
b1 /
b0 0
b1 1
b0 2
b0 3
b0 4
b1 5
b0 6
b1 7
b0 8
b0 9
b0000000010001000 :
b00000001010101000000000111111110 ;
b0 <
b0 =
b0 >
b0 ?
b0 @
b0 A
b0 B
b0 C
b0 D
b0 E
b0 F
b0 G
b0 H
b0001001001010001 I
b0 J
b1 K
b0 L
b0 M
b0 N
#12
b1 !
b1 "
b1 #
b0 $
b0 %
b1 &
b0 '
b0 (
b0 )
b0 *
b0 +
b1 ,
b0 -
b1 .
b1 /
b0 0
b1 1
b0 2
b0 3
b0 4
b1 5
b0 6
b1 7
b0 8
b0 9
b0000000010001000 :
b00000001010101000000000111111110 ;
b0 <
b0 =
b0 >
b0 ?
b0 @
b0 A
b0 B
b0 C
b0 D
b0 E
b0 F
b0 G
b0 H
b0001001001010001 I
b0 J
b1 K
b0 L
b1 M
b0 N
#13
b1 !
b1 "
b1 #
b0 $
b0 %
b1 &
b0 '
b0 (
b0 )
b0 *
b0 +
b1 ,
b0 -
b1 .
b1 /
b0 0
b1 1
b0 2
b0 3
b0 4
b1 5
b0 6
b1 7
b0 8
b0 9
b0000000010001000 :
b00000001010101000000000111111110 ;
b0 <
b0 =
b0 >
b0 ?
b0 @
b0 A
b0 B
b0 C
b0 D
b0 E
b0 F
b0 G
b0 H
b0001001001010001 I
b0 J
b1 K
b0 L
b0 M
b0 N
#14
b1 !
b1 "
b1 #
b0 $
b0 %
b1 &
b0 '
b0 (
b0 )
b0 *
b0 +
b1 ,
b0 -
b1 .
b1 /
b0 0
b1 1
b0 2
b0 3
b0 4
b1 5
b0 6
b1 7
b0 8
b0 9
b0000000010001000 :
b00000001010101000000000111111110 ;
b0 <
b0 =
b0 >
b0 ?
b0 @
b0 A
b0 B
b0 C
b0 D
b0 E
b0 F
b0 G
b0 H
b0001001001010001 I
b0 J
b1 K
b0 L
b1 M
b0 N
#15
b1 !
b1 "
b1 #
b0 $
b0 %
b1 &
b0 '
b0 (
b0 )
b0 *
b0 +
b1 ,
b0 -
b1 .
b1 /
b0 0
b1 1
b0 2
b0 3
b0 4
b1 5
b0 6
b1 7
b0 8
b0 9
b0000000010001000 :
b00000001010101000000000111111110 ;
b0 <
b0 =
b0 >
b0 ?
b0 @
b0 A
b0 B
b0 C
b0 D
b0 E
b0 F
b0 G
b0 H
b0001001001010001 I
b0 J
b1 K
b0 L
b0 M
b0 N
#16
b1 !
b1 "
b1 #
b0 $
b0 %
b1 &
b0 '
b0 (
b0 )
b0 *
b0 +
b1 ,
b0 -
b1 .
b1 /
b0 0
b1 1
b0 2
b0 3
b0 4
b1 5
b0 6
b1 7
b0 8
b0 9
b0000000010001000 :
b00000001010101000000000111111110 ;
b0 <
b0 =
b0 >
b0 ?
b0 @
b0 A
b0 B
b0 C
b0 D
b0 E
b0 F
b0 G
b0 H
b0001001001010001 I
b0 J
b1 K
b0 L
b1 M
b0 N
#17
b1 !
b1 "
b1 #
b0 $
b0 %
b1 &
b0 '
b0 (
b0 )
b0 *
b0 +
b1 ,
b0 -
b1 .
b1 /
b0 0
b1 1
b0 2
b0 3
b0 4
b1 5
b0 6
b1 7
b0 8
b0 9
b0000000010001000 :
b00000001010101000000000111111110 ;
b0 <
b0 =
b0 >
b0 ?
b0 @
b0 A
b0 B
b0 C
b0 D
b0 E
b0 F
b0 G
b0 H
b0001001001010001 I
b0 J
b1 K
b0 L
b0 M
b0 N
#18
b1 !
b1 "
b1 #
b0 $
b0 %
b1 &
b0 '
b0 (
b0 )
b0 *
b0 +
b1 ,
b0 -
b1 .
b1 /
b0 0
b1 1
b0 2
b0 3
b0 4
b1 5
b0 6
b1 7
b0 8
b0 9
b0000000010001000 :
b00000001010101000000000111111110 ;
b0 <
b0 =
b0 >
b0 ?
b0 @
b0 A
b0 B
b0 C
b0 D
b0 E
b0 F
b0 G
b0 H
b0001001001010001 I
b0 J
b1 K
b0 L
b1 M
b0 N
#19
b1 !
b1 "
b1 #
b0 $
b0 %
b1 &
b0 '
b0 (
b0 )
b0 *
b0 +
b1 ,
b0 -
b1 .
b1 /
b0 0
b1 1
b0 2
b0 3
b0 4
b1 5
b0 6
b1 7
b0 8
b0 9
b0000000010001000 :
b00000001010101000000000111111110 ;
b0 <
b0 =
b0 >
b0 ?
b0 @
b0 A
b0 B
b0 C
b0 D
b0 E
b0 F
b0 G
b0 H
b0001001001010001 I
b0 J
b1 K
b0 L
b0 M
b0 N
#20
b1 !
b1 "
b1 #
b0 $
b0 %
b1 &
b0 '
b0 (
b0 )
b0 *
b0 +
b1 ,
b0 -
b1 .
b1 /
b0 0
b1 1
b0 2
b0 3
b0 4
b1 5
b0 6
b1 7
b0 8
b0 9
b0000000010001000 :
b00000001010101000000000111111110 ;
b0 <
b0 =
b0 >
b0 ?
b0 @
b0 A
b0 B
b0 C
b0 D
b0 E
b0 F
b0 G
b0 H
b0001001001010001 I
b0 J
b1 K
b0 L
b1 M
b0 N
#21
b1 !
b1 "
b1 #
b0 $
b0 %
b1 &
b0 '
b0 (
b0 )
b0 *
b0 +
b1 ,
b0 -
b1 .
b1 /
b0 0
b1 1
b0 2
b0 3
b0 4
b1 5
b0 6
b1 7
b0 8
b0 9
b0000000010001000 :
b00000001010101000000000111111110 ;
b0 <
b0 =
b0 >
b0 ?
b0 @
b0 A
b0 B
b0 C
b0 D
b0 E
b0 F
b0 G
b0 H
b0001001001010001 I
b0 J
b1 K
b0 L
b0 M
b0 N
#22
b1 !
b1 "
b1 #
b0 $
b0 %
b1 &
b0 '
b0 (
b0 )
b0 *
b0 +
b1 ,
b0 -
b1 .
b1 /
b0 0
b1 1
b0 2
b0 3
b0 4
b1 5
b0 6
b1 7
b0 8
b0 9
b0000000010001000 :
b00000001010101000000000111111110 ;
b0 <
b0 =
b0 >
b0 ?
b0 @
b0 A
b0 B
b0 C
b0 D
b0 E
b0 F
b0 G
b0 H
b0001001001010001 I
b0 J
b1 K
b0 L
b1 M
b0 N
#23
b1 !
b1 "
b1 #
b0 $
b0 %
b1 &
b0 '
b0 (
b0 )
b0 *
b0 +
b1 ,
b0 -
b1 .
b1 /
b0 0
b1 1
b0 2
b0 3
b0 4
b1 5
b0 6
b1 7
b0 8
b0 9
b0000000010001000 :
b00000001010101000000000111111110 ;
b0 <
b0 =
b0 >
b0 ?
b0 @
b0 A
b0 B
b0 C
b0 D
b0 E
b0 F
b0 G
b0 H
b0001001001010001 I
b0 J
b1 K
b0 L
b0 M
b0 N
#24
b1 !
b1 "
b1 #
b0 $
b0 %
b1 &
b0 '
b0 (
b0 )
b0 *
b0 +
b1 ,
b0 -
b1 .
b1 /
b0 0
b1 1
b0 2
b0 3
b0 4
b1 5
b0 6
b1 7
b0 8
b0 9
b0000000010001000 :
b00000001010101000000000111111110 ;
b0 <
b0 =
b0 >
b0 ?
b0 @
b0 A
b0 B
b0 C
b0 D
b0 E
b0 F
b0 G
b0 H
b0001001001010001 I
b0 J
b1 K
b0 L
b1 M
b0 N
#25
b1 !
b1 "
b1 #
b0 $
b0 %
b1 &
b0 '
b0 (
b0 )
b0 *
b0 +
b1 ,
b0 -
b1 .
b1 /
b0 0
b1 1
b0 2
b0 3
b0 4
b1 5
b0 6
b1 7
b0 8
b0 9
b0000000010001000 :
b00000001010101000000000111111110 ;
b0 <
b0 =
b0 >
b0 ?
b0 @
b0 A
b0 B
b0 C
b0 D
b0 E
b0 F
b0 G
b0 H
b0001001001010001 I
b0 J
b1 K
b0 L
b0 M
b0 N
#26
b1 !
b1 "
b1 #
b0 $
b0 %
b1 &
b0 '
b0 (
b0 )
b0 *
b0 +
b1 ,
b0 -
b1 .
b1 /
b0 0
b1 1
b0 2
b0 3
b0 4
b1 5
b0 6
b1 7
b0 8
b0 9
b0000000010001000 :
b00000001010101000000000111111110 ;
b0 <
b0 =
b0 >
b0 ?
b0 @
b0 A
b0 B
b0 C
b0 D
b0 E
b0 F
b0 G
b0 H
b0001001001010001 I
b0 J
b1 K
b0 L
b1 M
b0 N
#27
b1 !
b1 "
b1 #
b0 $
b0 %
b1 &
b0 '
b0 (
b0 )
b0 *
b0 +
b1 ,
b0 -
b1 .
b1 /
b0 0
b1 1
b0 2
b0 3
b0 4
b1 5
b0 6
b1 7
b0 8
b0 9
b0000000010001000 :
b00000001010101000000000111111110 ;
b0 <
b0 =
b0 >
b0 ?
b0 @
b0 A
b0 B
b0 C
b0 D
b0 E
b0 F
b0 G
b0 H
b0001001001010001 I
b0 J
b1 K
b0 L
b0 M
b0 N
#28
b1 !
b1 "
b1 #
b0 $
b0 %
b1 &
b0 '
b0 (
b0 )
b0 *
b0 +
b1 ,
b0 -
b1 .
b1 /
b0 0
b1 1
b0 2
b0 3
b0 4
b1 5
b0 6
b1 7
b0 8
b0 9
b0000000010001000 :
b00000001010101000000000111111110 ;
b0 <
b0 =
b0 >
b0 ?
b0 @
b0 A
b0 B
b0 C
b0 D
b0 E
b0 F
b0 G
b0 H
b0001001001010001 I
b0 J
b1 K
b0 L
b1 M
b0 N
#29
b1 !
b1 "
b1 #
b0 $
b0 %
b1 &
b0 '
b0 (
b0 )
b0 *
b0 +
b1 ,
b0 -
b1 .
b1 /
b0 0
b1 1
b0 2
b0 3
b0 4
b1 5
b0 6
b1 7
b0 8
b0 9
b0000000010001000 :
b00000001010101000000000111111110 ;
b0 <
b0 =
b0 >
b0 ?
b0 @
b0 A
b0 B
b0 C
b0 D
b0 E
b0 F
b0 G
b0 H
b0001001001010001 I
b0 J
b1 K
b0 L
b0 M
b0 N
#30
b1 !
b1 "
b1 #
b0 $
b0 %
b1 &
b0 '
b0 (
b0 )
b0 *
b0 +
b1 ,
b0 -
b1 .
b1 /
b0 0
b1 1
b0 2
b0 3
b0 4
b1 5
b0 6
b1 7
b0 8
b0 9
b0000000010001000 :
b00000001010101000000000111111110 ;
b0 <
b0 =
b0 >
b0 ?
b0 @
b0 A
b0 B
b0 C
b0 D
b0 E
b0 F
b0 G
b0 H
b0001001001010001 I
b0 J
b1 K
b0 L
b1 M
b0 N
#31
b1 !
b1 "
b1 #
b0 $
b0 %
b1 &
b0 '
b0 (
b0 )
b0 *
b0 +
b1 ,
b0 -
b1 .
b1 /
b0 0
b1 1
b0 2
b0 3
b0 4
b1 5
b0 6
b1 7
b0 8
b0 9
b0000000010001000 :
b00000001010101000000000111111110 ;
b0 <
b0 =
b0 >
b0 ?
b0 @
b0 A
b0 B
b0 C
b0 D
b0 E
b0 F
b0 G
b0 H
b0001001001010001 I
b0 J
b1 K
b0 L
b0 M
b0 N
#32
b1 !
b1 "
b1 #
b0 $
b0 %
b1 &
b0 '
b0 (
b0 )
b0 *
b0 +
b1 ,
b0 -
b1 .
b1 /
b0 0
b1 1
b0 2
b0 3
b0 4
b1 5
b0 6
b1 7
b0 8
b0 9
b0000000010001000 :
b00000001010101000000000111111110 ;
b0 <
b0 =
b0 >
b0 ?
b0 @
b0 A
b0 B
b0 C
b0 D
b0 E
b0 F
b0 G
b0 H
b0001001001010001 I
b0 J
b1 K
b0 L
b1 M
b1 N
#33
b1 !
b1 "
b1 #
b0 $
b0 %
b1 &
b0 '
b0 (
b0 )
b0 *
b0 +
b1 ,
b0 -
b1 .
b1 /
b0 0
b1 1
b0 2
b0 3
b0 4
b1 5
b0 6
b1 7
b0 8
b0 9
b0000000010001000 :
b00000001010101000000000111111110 ;
b0 <
b0 =
b0 >
b0 ?
b0 @
b0 A
b0 B
b0 C
b0 D
b0 E
b0 F
b0 G
b0 H
b0001001001010001 I
b0 J
b1 K
b0 L
b0 M
b1 N
#34
b1 !
b1 "
b1 #
b0 $
b0 %
b1 &
b0 '
b0 (
b0 )
b0 *
b0 +
b1 ,
b0 -
b1 .
b1 /
b0 0
b1 1
b0 2
b0 3
b0 4
b1 5
b0 6
b1 7
b0 8
b0 9
b0000000010001000 :
b00000001010101000000000111111110 ;
b0 <
b0 =
b0 >
b0 ?
b0 @
b0 A
b0 B
b0 C
b0 D
b0 E
b0 F
b0 G
b0 H
b0001001001010001 I
b0 J
b1 K
b0 L
b1 M
b1 N
#35
b1 !
b1 "
b1 #
b0 $
b0 %
b1 &
b0 '
b0 (
b0 )
b0 *
b0 +
b1 ,
b0 -
b1 .
b1 /
b0 0
b1 1
b0 2
b0 3
b0 4
b1 5
b0 6
b1 7
b0 8
b0 9
b0000000010001000 :
b00000001010101000000000111111110 ;
b0 <
b0 =
b0 >
b0 ?
b0 @
b0 A
b0 B
b0 C
b0 D
b0 E
b0 F
b0 G
b0 H
b0001001001010001 I
b0 J
b1 K
b0 L
b0 M
b1 N
#36
b1 !
b1 "
b1 #
b0 $
b0 %
b1 &
b0 '
b0 (
b0 )
b0 *
b0 +
b1 ,
b0 -
b1 .
b1 /
b0 0
b1 1
b0 2
b0 3
b0 4
b1 5
b0 6
b1 7
b0 8
b0 9
b0000000010001000 :
b00000001010101000000000111111110 ;
b0 <
b0 =
b0 >
b0 ?
b0 @
b0 A
b0 B
b0 C
b0 D
b0 E
b0 F
b0 G
b0 H
b0001001001010001 I
b0 J
b1 K
b0 L
b1 M
b1 N
#37
b1 !
b1 "
b1 #
b0 $
b0 %
b1 &
b0 '
b0 (
b0 )
b0 *
b0 +
b1 ,
b0 -
b1 .
b1 /
b0 0
b1 1
b0 2
b0 3
b0 4
b1 5
b0 6
b1 7
b0 8
b0 9
b0000000010001000 :
b00000001010101000000000111111110 ;
b0 <
b0 =
b0 >
b0 ?
b0 @
b0 A
b0 B
b0 C
b0 D
b0 E
b0 F
b0 G
b0 H
b0001001001010001 I
b0 J
b1 K
b0 L
b0 M
b1 N
#38
b1 !
b1 "
b1 #
b0 $
b0 %
b1 &
b0 '
b0 (
b0 )
b0 *
b0 +
b1 ,
b0 -
b1 .
b1 /
b0 0
b1 1
b0 2
b0 3
b0 4
b1 5
b0 6
b1 7
b0 8
b0 9
b0000000010001000 :
b00000001010101000000000111111110 ;
b0 <
b0 =
b0 >
b0 ?
b0 @
b0 A
b0 B
b0 C
b0 D
b0 E
b0 F
b0 G
b0 H
b0001001001010001 I
b0 J
b1 K
b0 L
b1 M
b1 N
#39
b1 !
b1 "
b1 #
b0 $
b0 %
b1 &
b0 '
b0 (
b0 )
b0 *
b0 +
b1 ,
b0 -
b1 .
b1 /
b0 0
b1 1
b0 2
b0 3
b0 4
b1 5
b0 6
b1 7
b0 8
b0 9
b0000000010001000 :
b00000001010101000000000111111110 ;
b0 <
b0 =
b0 >
b0 ?
b0 @
b0 A
b0 B
b0 C
b0 D
b0 E
b0 F
b0 G
b0 H
b0001001001010001 I
b0 J
b1 K
b0 L
b0 M
b1 N
#40
b1 !
b1 "
b1 #
b0 $
b0 %
b1 &
b0 '
b0 (
b0 )
b0 *
b0 +
b1 ,
b0 -
b1 .
b1 /
b0 0
b1 1
b0 2
b0 3
b0 4
b1 5
b0 6
b1 7
b0 8
b0 9
b0000000010001000 :
b00000001010101000000000111111110 ;
b0 <
b0 =
b0 >
b0 ?
b0 @
b0 A
b0 B
b0 C
b0 D
b0 E
b0 F
b0 G
b0 H
b0001001001010001 I
b0 J
b1 K
b0 L
b1 M
b1 N
#41
b1 !
b1 "
b1 #
b0 $
b0 %
b1 &
b0 '
b0 (
b0 )
b0 *
b0 +
b1 ,
b0 -
b1 .
b1 /
b0 0
b1 1
b0 2
b0 3
b0 4
b1 5
b0 6
b1 7
b0 8
b0 9
b0000000010001000 :
b00000001010101000000000111111110 ;
b0 <
b0 =
b0 >
b0 ?
b0 @
b0 A
b0 B
b0 C
b0 D
b0 E
b0 F
b0 G
b0 H
b0001001001010001 I
b0 J
b1 K
b0 L
b0 M
b1 N
#42
b1 !
b1 "
b1 #
b0 $
b0 %
b1 &
b0 '
b0 (
b0 )
b0 *
b0 +
b1 ,
b0 -
b1 .
b1 /
b0 0
b1 1
b0 2
b0 3
b0 4
b1 5
b0 6
b1 7
b0 8
b0 9
b0000000010001000 :
b00000001010101000000000111111110 ;
b0 <
b0 =
b0 >
b0 ?
b0 @
b0 A
b0 B
b0 C
b0 D
b0 E
b0 F
b0 G
b0 H
b0001001001010001 I
b0 J
b1 K
b0 L
b1 M
b1 N
#43
b1 !
b1 "
b1 #
b0 $
b0 %
b1 &
b0 '
b0 (
b0 )
b0 *
b0 +
b1 ,
b0 -
b1 .
b1 /
b0 0
b1 1
b0 2
b0 3
b0 4
b1 5
b0 6
b1 7
b0 8
b0 9
b0000000010001000 :
b00000001010101000000000111111110 ;
b0 <
b0 =
b0 >
b0 ?
b0 @
b0 A
b0 B
b0 C
b0 D
b0 E
b0 F
b0 G
b0 H
b0001001001010001 I
b0 J
b1 K
b0 L
b0 M
b1 N
#44
b0 !
b1 "
b1 #
b0 $
b0 %
b1 &
b0 '
b0 (
b0 )
b0 *
b0 +
b0 ,
b0 -
b0 .
b1 /
b0 0
b1 1
b0 2
b0 3
b0 4
b1 5
b0 6
b1 7
b0 8
b0 9
b0000000010001000 :
b00000001010101000000000111111110 ;
b0 <
b0 =
b0 >
b0 ?
b0 @
b0 A
b0 B
b0 C
b0 D
b0 E
b0 F
b0 G
b0 H
b0001001001010001 I
b0 J
b1 K
b0 L
b1 M
b1 N
#45
b0 !
b1 "
b1 #
b0 $
b0 %
b1 &
b0 '
b0 (
b0 )
b0 *
b0 +
b0 ,
b0 -
b0 .
b1 /
b0 0
b1 1
b0 2
b0 3
b0 4
b1 5
b0 6
b1 7
b0 8
b0 9
b0000000010001000 :
b00000001010101000000000111111110 ;
b0 <
b0 =
b0 >
b0 ?
b0 @
b0 A
b0 B
b0 C
b0 D
b0 E
b0 F
b0 G
b0 H
b0001001001010001 I
b0 J
b1 K
b0 L
b0 M
b1 N
#46
b0 !
b1 "
b1 #
b0 $
b0 %
b1 &
b0 '
b0 (
b0 )
b0 *
b0 +
b0 ,
b0 -
b0 .
b1 /
b0 0
b1 1
b0 2
b0 3
b0 4
b1 5
b0 6
b1 7
b0 8
b0 9
b0000000010001000 :
b00000001010101000000000111111110 ;
b0 <
b0 =
b0 >
b0 ?
b0 @
b0 A
b0 B
b0 C
b0 D
b0 E
b0 F
b0 G
b0 H
b0001001001010001 I
b0 J
b1 K
b0 L
b1 M
b1 N
#47
b0 !
b1 "
b1 #
b0 $
b0 %
b1 &
b0 '
b0 (
b0 )
b0 *
b0 +
b0 ,
b0 -
b0 .
b1 /
b0 0
b1 1
b0 2
b0 3
b0 4
b1 5
b0 6
b1 7
b0 8
b0 9
b0000000010001000 :
b00000001010101000000000111111110 ;
b0 <
b0 =
b0 >
b0 ?
b0 @
b0 A
b0 B
b0 C
b0 D
b0 E
b0 F
b0 G
b0 H
b0001001001010001 I
b0 J
b1 K
b0 L
b0 M
b1 N
#48
b1 !
b1 "
b1 #
b0 $
b0 %
b1 &
b0 '
b0 (
b0 )
b0 *
b0 +
b1 ,
b0 -
b1 .
b1 /
b0 0
b1 1
b0 2
b0 3
b0 4
b1 5
b0 6
b1 7
b0 8
b0 9
b0000000010001000 :
b00000001010101000000000111111110 ;
b0 <
b0 =
b0 >
b0 ?
b0 @
b0 A
b0 B
b0 C
b0 D
b1 E
b0 F
b0 G
b0 H
b0001001001010010 I
b0 J
b0 K
b0 L
b1 M
b1 N
#49
b1 !
b1 "
b1 #
b0 $
b0 %
b1 &
b0 '
b0 (
b0 )
b0 *
b0 +
b1 ,
b0 -
b1 .
b1 /
b0 0
b1 1
b0 2
b0 3
b0 4
b1 5
b0 6
b1 7
b0 8
b0 9
b0000000010001000 :
b00000001010101000000000111111110 ;
b0 <
b0 =
b0 >
b0 ?
b0 @
b0 A
b0 B
b0 C
b0 D
b1 E
b0 F
b0 G
b0 H
b0001001001010010 I
b0 J
b0 K
b0 L
b0 M
b1 N
#50
b1 !
b1 "
b1 #
b0 $
b0 %
b1 &
b0 '
b0 (
b0 )
b0 *
b0 +
b1 ,
b0 -
b1 .
b1 /
b0 0
b1 1
b0 2
b0 3
b0 4
b1 5
b0 6
b1 7
b0 8
b0 9
b0000000010001000 :
b00000001010101000000000111111110 ;
b0 <
b0 =
b0 >
b0 ?
b0 @
b0 A
b0 B
b0 C
b0 D
b1 E
b0 F
b0 G
b0 H
b0001001001010010 I
b0 J
b0 K
b0 L
b1 M
b1 N
#51
b1 !
b1 "
b1 #
b0 $
b0 %
b1 &
b0 '
b0 (
b0 )
b0 *
b0 +
b1 ,
b0 -
b1 .
b1 /
b0 0
b1 1
b0 2
b0 3
b0 4
b1 5
b0 6
b1 7
b0 8
b0 9
b0000000010001000 :
b00000001010101000000000111111110 ;
b0 <
b0 =
b0 >
b0 ?
b0 @
b0 A
b0 B
b0 C
b0 D
b1 E
b0 F
b0 G
b0 H
b0001001001010010 I
b0 J
b0 K
b0 L
b0 M
b1 N
#52
b0 !
b1 "
b1 #
b0 $
b0 %
b1 &
b0 '
b0 (
b0 )
b0 *
b0 +
b0 ,
b0 -
b0 .
b1 /
b0 0
b1 1
b0 2
b0 3
b0 4
b1 5
b0 6
b1 7
b0 8
b0 9
b0000000010001000 :
b00000001010101000000000111111110 ;
b0 <
b0 =
b0 >
b0 ?
b0 @
b0 A
b0 B
b0 C
b0 D
b1 E
b0 F
b0 G
b0 H
b0001001001010010 I
b0 J
b0 K
b0 L
b1 M
b1 N
