examples/vcd-dumps/drscan-arty-0x2a803fd5-returned-TAP-FSM-LGTM.vcd
$date
	2021-07-08 19:47
$end
$timescale 4000ps $end
$scope 1ps $end
$var wire 1 ! main_jtag_phy_capture $end
$var wire 1 " main_jtag_phy_drck $end
$var wire 1 # main_jtag_phy_reset $end
$var wire 1 $ main_jtag_phy_runtest $end
$var wire 1 % main_jtag_phy_sel $end
$var wire 1 & main_jtag_phy_shift $end
$var wire 1 ' main_jtag_phy_tck $end
$var wire 1 ( main_jtag_phy_tdi $end
$var wire 1 ) main_jtag_phy_tdo $end
$var wire 1 * main_jtag_phy_tms $end
$var wire 1 + main_jtag_phy_update $end
$var wire 1 , main_jtag_hello_bufi $end
$var wire 32 - main_jtag_hello_hello_code $end
$var wire 16 . main_jtag_hello_tck_cnt $end
$var wire 1 / main_jtag_hello_buf $end
$var wire 1 0 main_jtag_phy_CAPTURE_DR $end
$var wire 1 1 main_jtag_phy_CAPTURE_IR $end
$var wire 1 2 main_jtag_phy_EXIT1_DR $end
$var wire 1 3 main_jtag_phy_EXIT1_IR $end
$var wire 1 4 main_jtag_phy_EXIT2_DR $end
$var wire 1 5 main_jtag_phy_EXIT2_IR $end
$var wire 1 6 main_jtag_phy_PAUSE_DR $end
$var wire 1 7 main_jtag_phy_PAUSE_IR $end
$var wire 1 8 main_jtag_phy_RUN_TEST_IDLE $end
$var wire 1 9 main_jtag_phy_SELECT_DR_SCAN $end
$var wire 1 : main_jtag_phy_SELECT_IR_SCAN $end
$var wire 1 ; main_jtag_phy_SHIFT_DR $end
$var wire 1 < main_jtag_phy_SHIFT_IR $end
$var wire 1 = main_jtag_phy_TEST_LOGIC_RESET $end
$var wire 1 > main_jtag_phy_UPDATE_DR $end
$var wire 1 ? main_jtag_phy_UPDATE_IR $end
$var wire 16 @ main_jtag_phy_tck_cnt $end
$var wire 1 A scope_clk $end
$var wire 1 B scope_trig $end
$unscope  $end
$enddefinitions  $end
$dumpvars
bx !
bx "
bx #
bx $
bx %
bx &
bx '
bx (
bx )
bx *
bx +
bx ,
bxxxxxxxxxxxxxxxxxxxxxxxxxxxxxxxx -
bxxxxxxxxxxxxxxxx .
bx /
bx 0
bx 1
bx 2
bx 3
bx 4
bx 5
bx 6
bx 7
bx 8
bx 9
bx :
bx ;
bx <
bx =
bx >
bx ?
bxxxxxxxxxxxxxxxx @
bx A
bx B
$end
#0
b0 !
b1 "
b0 #
b1 $
b1 %
b0 &
b0 '
b0 (
b1 )
b0 *
b0 +
b1 ,
b10101010000000001111111101010101 -
b0000000000000000 .
b1 /
b0 0
b0 1
b0 2
b0 3
b0 4
b0 5
b0 6
b0 7
b1 8
b0 9
b0 :
b0 ;
b0 <
b0 =
b0 >
b0 ?
b0011101100011110 @
b1 A
b0 B
#1
b0 !
b1 "
b0 #
b1 $
b1 %
b0 &
b0 '
b0 (
b1 )
b0 *
b0 +
b1 ,
b10101010000000001111111101010101 -
b0000000000000000 .
b1 /
b0 0
b0 1
b0 2
b0 3
b0 4
b0 5
b0 6
b0 7
b1 8
b0 9
b0 :
b0 ;
b0 <
b0 =
b0 >
b0 ?
b0011101100011110 @
b0 A
b0 B
#2
b0 !
b1 "
b0 #
b1 $
b1 %
b0 &
b0 '
b0 (
b1 )
b0 *
b0 +
b1 ,
b10101010000000001111111101010101 -
b0000000000000000 .
b1 /
b0 0
b0 1
b0 2
b0 3
b0 4
b0 5
b0 6
b0 7
b1 8
b0 9
b0 :
b0 ;
b0 <
b0 =
b0 >
b0 ?
b0011101100011110 @
b1 A
b0 B
#3
b0 !
b1 "
b0 #
b1 $
b1 %
b0 &
b0 '
b0 (
b1 )
b0 *
b0 +
b1 ,
b10101010000000001111111101010101 -
b0000000000000000 .
b1 /
b0 0
b0 1
b0 2
b0 3
b0 4
b0 5
b0 6
b0 7
b1 8
b0 9
b0 :
b0 ;
b0 <
b0 =
b0 >
b0 ?
b0011101100011110 @
b0 A
b0 B
#4
b0 !
b1 "
b0 #
b1 $
b1 %
b0 &
b0 '
b0 (
b1 )
b0 *
b0 +
b1 ,
b10101010000000001111111101010101 -
b0000000000000000 .
b1 /
b0 0
b0 1
b0 2
b0 3
b0 4
b0 5
b0 6
b0 7
b1 8
b0 9
b0 :
b0 ;
b0 <
b0 =
b0 >
b0 ?
b0011101100011110 @
b1 A
b0 B
#5
b0 !
b1 "
b0 #
b1 $
b1 %
b0 &
b0 '
b0 (
b1 )
b0 *
b0 +
b1 ,
b10101010000000001111111101010101 -
b0000000000000000 .
b1 /
b0 0
b0 1
b0 2
b0 3
b0 4
b0 5
b0 6
b0 7
b1 8
b0 9
b0 :
b0 ;
b0 <
b0 =
b0 >
b0 ?
b0011101100011110 @
b0 A
b0 B
#6
b0 !
b1 "
b0 #
b1 $
b1 %
b0 &
b0 '
b0 (
b1 )
b0 *
b0 +
b1 ,
b10101010000000001111111101010101 -
b0000000000000000 .
b1 /
b0 0
b0 1
b0 2
b0 3
b0 4
b0 5
b0 6
b0 7
b1 8
b0 9
b0 :
b0 ;
b0 <
b0 =
b0 >
b0 ?
b0011101100011110 @
b1 A
b0 B
#7
b0 !
b1 "
b0 #
b1 $
b1 %
b0 &
b0 '
b0 (
b1 )
b0 *
b0 +
b1 ,
b10101010000000001111111101010101 -
b0000000000000000 .
b1 /
b0 0
b0 1
b0 2
b0 3
b0 4
b0 5
b0 6
b0 7
b1 8
b0 9
b0 :
b0 ;
b0 <
b0 =
b0 >
b0 ?
b0011101100011110 @
b0 A
b0 B
#8
b0 !
b1 "
b0 #
b1 $
b1 %
b0 &
b0 '
b0 (
b1 )
b0 *
b0 +
b1 ,
b10101010000000001111111101010101 -
b0000000000000000 .
b1 /
b0 0
b0 1
b0 2
b0 3
b0 4
b0 5
b0 6
b0 7
b1 8
b0 9
b0 :
b0 ;
b0 <
b0 =
b0 >
b0 ?
b0011101100011110 @
b1 A
b0 B
#9
b0 !
b1 "
b0 #
b1 $
b1 %
b0 &
b0 '
b0 (
b1 )
b0 *
b0 +
b1 ,
b10101010000000001111111101010101 -
b0000000000000000 .
b1 /
b0 0
b0 1
b0 2
b0 3
b0 4
b0 5
b0 6
b0 7
b1 8
b0 9
b0 :
b0 ;
b0 <
b0 =
b0 >
b0 ?
b0011101100011110 @
b0 A
b0 B
#10
b0 !
b1 "
b0 #
b1 $
b1 %
b0 &
b0 '
b0 (
b1 )
b0 *
b0 +
b1 ,
b10101010000000001111111101010101 -
b0000000000000000 .
b1 /
b0 0
b0 1
b0 2
b0 3
b0 4
b0 5
b0 6
b0 7
b1 8
b0 9
b0 :
b0 ;
b0 <
b0 =
b0 >
b0 ?
b0011101100011110 @
b1 A
b0 B
#11
b0 !
b1 "
b0 #
b1 $
b1 %
b0 &
b0 '
b0 (
b1 )
b0 *
b0 +
b1 ,
b10101010000000001111111101010101 -
b0000000000000000 .
b1 /
b0 0
b0 1
b0 2
b0 3
b0 4
b0 5
b0 6
b0 7
b1 8
b0 9
b0 :
b0 ;
b0 <
b0 =
b0 >
b0 ?
b0011101100011110 @
b0 A
b0 B
#12
b0 !
b1 "
b0 #
b1 $
b1 %
b0 &
b0 '
b0 (
b1 )
b0 *
b0 +
b1 ,
b10101010000000001111111101010101 -
b0000000000000000 .
b1 /
b0 0
b0 1
b0 2
b0 3
b0 4
b0 5
b0 6
b0 7
b1 8
b0 9
b0 :
b0 ;
b0 <
b0 =
b0 >
b0 ?
b0011101100011110 @
b1 A
b0 B
#13
b0 !
b1 "
b0 #
b1 $
b1 %
b0 &
b0 '
b0 (
b1 )
b0 *
b0 +
b1 ,
b10101010000000001111111101010101 -
b0000000000000000 .
b1 /
b0 0
b0 1
b0 2
b0 3
b0 4
b0 5
b0 6
b0 7
b1 8
b0 9
b0 :
b0 ;
b0 <
b0 =
b0 >
b0 ?
b0011101100011110 @
b0 A
b0 B
#14
b0 !
b1 "
b0 #
b1 $
b1 %
b0 &
b0 '
b0 (
b1 )
b0 *
b0 +
b1 ,
b10101010000000001111111101010101 -
b0000000000000000 .
b1 /
b0 0
b0 1
b0 2
b0 3
b0 4
b0 5
b0 6
b0 7
b1 8
b0 9
b0 :
b0 ;
b0 <
b0 =
b0 >
b0 ?
b0011101100011110 @
b1 A
b0 B
#15
b0 !
b1 "
b0 #
b1 $
b1 %
b0 &
b0 '
b0 (
b1 )
b0 *
b0 +
b1 ,
b10101010000000001111111101010101 -
b0000000000000000 .
b1 /
b0 0
b0 1
b0 2
b0 3
b0 4
b0 5
b0 6
b0 7
b1 8
b0 9
b0 :
b0 ;
b0 <
b0 =
b0 >
b0 ?
b0011101100011110 @
b0 A
b0 B
#16
b0 !
b1 "
b0 #
b1 $
b1 %
b0 &
b0 '
b0 (
b1 )
b0 *
b0 +
b1 ,
b10101010000000001111111101010101 -
b0000000000000000 .
b1 /
b0 0
b0 1
b0 2
b0 3
b0 4
b0 5
b0 6
b0 7
b1 8
b0 9
b0 :
b0 ;
b0 <
b0 =
b0 >
b0 ?
b0011101100011110 @
b1 A
b0 B
#17
b0 !
b1 "
b0 #
b1 $
b1 %
b0 &
b0 '
b0 (
b1 )
b0 *
b0 +
b1 ,
b10101010000000001111111101010101 -
b0000000000000000 .
b1 /
b0 0
b0 1
b0 2
b0 3
b0 4
b0 5
b0 6
b0 7
b1 8
b0 9
b0 :
b0 ;
b0 <
b0 =
b0 >
b0 ?
b0011101100011110 @
b0 A
b0 B
#18
b0 !
b1 "
b0 #
b1 $
b1 %
b0 &
b0 '
b0 (
b1 )
b0 *
b0 +
b1 ,
b10101010000000001111111101010101 -
b0000000000000000 .
b1 /
b0 0
b0 1
b0 2
b0 3
b0 4
b0 5
b0 6
b0 7
b1 8
b0 9
b0 :
b0 ;
b0 <
b0 =
b0 >
b0 ?
b0011101100011110 @
b1 A
b0 B
#19
b0 !
b1 "
b0 #
b1 $
b1 %
b0 &
b0 '
b0 (
b1 )
b0 *
b0 +
b1 ,
b10101010000000001111111101010101 -
b0000000000000000 .
b1 /
b0 0
b0 1
b0 2
b0 3
b0 4
b0 5
b0 6
b0 7
b1 8
b0 9
b0 :
b0 ;
b0 <
b0 =
b0 >
b0 ?
b0011101100011110 @
b0 A
b0 B
#20
b0 !
b1 "
b0 #
b1 $
b1 %
b0 &
b0 '
b0 (
b1 )
b0 *
b0 +
b1 ,
b10101010000000001111111101010101 -
b0000000000000000 .
b1 /
b0 0
b0 1
b0 2
b0 3
b0 4
b0 5
b0 6
b0 7
b1 8
b0 9
b0 :
b0 ;
b0 <
b0 =
b0 >
b0 ?
b0011101100011110 @
b1 A
b0 B
#21
b0 !
b1 "
b0 #
b1 $
b1 %
b0 &
b0 '
b0 (
b1 )
b0 *
b0 +
b1 ,
b10101010000000001111111101010101 -
b0000000000000000 .
b1 /
b0 0
b0 1
b0 2
b0 3
b0 4
b0 5
b0 6
b0 7
b1 8
b0 9
b0 :
b0 ;
b0 <
b0 =
b0 >
b0 ?
b0011101100011110 @
b0 A
b0 B
#22
b0 !
b1 "
b0 #
b1 $
b1 %
b0 &
b0 '
b0 (
b1 )
b0 *
b0 +
b1 ,
b10101010000000001111111101010101 -
b0000000000000000 .
b1 /
b0 0
b0 1
b0 2
b0 3
b0 4
b0 5
b0 6
b0 7
b1 8
b0 9
b0 :
b0 ;
b0 <
b0 =
b0 >
b0 ?
b0011101100011110 @
b1 A
b0 B
#23
b0 !
b1 "
b0 #
b1 $
b1 %
b0 &
b0 '
b0 (
b1 )
b0 *
b0 +
b1 ,
b10101010000000001111111101010101 -
b0000000000000000 .
b1 /
b0 0
b0 1
b0 2
b0 3
b0 4
b0 5
b0 6
b0 7
b1 8
b0 9
b0 :
b0 ;
b0 <
b0 =
b0 >
b0 ?
b0011101100011110 @
b0 A
b0 B
#24
b0 !
b1 "
b0 #
b1 $
b1 %
b0 &
b0 '
b0 (
b1 )
b0 *
b0 +
b1 ,
b10101010000000001111111101010101 -
b0000000000000000 .
b1 /
b0 0
b0 1
b0 2
b0 3
b0 4
b0 5
b0 6
b0 7
b1 8
b0 9
b0 :
b0 ;
b0 <
b0 =
b0 >
b0 ?
b0011101100011110 @
b1 A
b0 B
#25
b0 !
b1 "
b0 #
b1 $
b1 %
b0 &
b0 '
b0 (
b1 )
b0 *
b0 +
b1 ,
b10101010000000001111111101010101 -
b0000000000000000 .
b1 /
b0 0
b0 1
b0 2
b0 3
b0 4
b0 5
b0 6
b0 7
b1 8
b0 9
b0 :
b0 ;
b0 <
b0 =
b0 >
b0 ?
b0011101100011110 @
b0 A
b0 B
#26
b0 !
b1 "
b0 #
b1 $
b1 %
b0 &
b0 '
b0 (
b1 )
b0 *
b0 +
b1 ,
b10101010000000001111111101010101 -
b0000000000000000 .
b1 /
b0 0
b0 1
b0 2
b0 3
b0 4
b0 5
b0 6
b0 7
b1 8
b0 9
b0 :
b0 ;
b0 <
b0 =
b0 >
b0 ?
b0011101100011110 @
b1 A
b0 B
#27
b0 !
b1 "
b0 #
b1 $
b1 %
b0 &
b0 '
b0 (
b1 )
b0 *
b0 +
b1 ,
b10101010000000001111111101010101 -
b0000000000000000 .
b1 /
b0 0
b0 1
b0 2
b0 3
b0 4
b0 5
b0 6
b0 7
b1 8
b0 9
b0 :
b0 ;
b0 <
b0 =
b0 >
b0 ?
b0011101100011110 @
b0 A
b0 B
#28
b0 !
b1 "
b0 #
b1 $
b1 %
b0 &
b0 '
b0 (
b1 )
b0 *
b0 +
b1 ,
b10101010000000001111111101010101 -
b0000000000000000 .
b1 /
b0 0
b0 1
b0 2
b0 3
b0 4
b0 5
b0 6
b0 7
b1 8
b0 9
b0 :
b0 ;
b0 <
b0 =
b0 >
b0 ?
b0011101100011110 @
b1 A
b0 B
#29
b0 !
b1 "
b0 #
b1 $
b1 %
b0 &
b0 '
b0 (
b1 )
b0 *
b0 +
b1 ,
b10101010000000001111111101010101 -
b0000000000000000 .
b1 /
b0 0
b0 1
b0 2
b0 3
b0 4
b0 5
b0 6
b0 7
b1 8
b0 9
b0 :
b0 ;
b0 <
b0 =
b0 >
b0 ?
b0011101100011110 @
b0 A
b0 B
#30
b0 !
b1 "
b0 #
b1 $
b1 %
b0 &
b0 '
b0 (
b1 )
b0 *
b0 +
b1 ,
b10101010000000001111111101010101 -
b0000000000000000 .
b1 /
b0 0
b0 1
b0 2
b0 3
b0 4
b0 5
b0 6
b0 7
b1 8
b0 9
b0 :
b0 ;
b0 <
b0 =
b0 >
b0 ?
b0011101100011110 @
b1 A
b0 B
#31
b0 !
b1 "
b0 #
b1 $
b1 %
b0 &
b0 '
b0 (
b1 )
b0 *
b0 +
b1 ,
b10101010000000001111111101010101 -
b0000000000000000 .
b1 /
b0 0
b0 1
b0 2
b0 3
b0 4
b0 5
b0 6
b0 7
b1 8
b0 9
b0 :
b0 ;
b0 <
b0 =
b0 >
b0 ?
b0011101100011110 @
b0 A
b0 B
#32
b0 !
b1 "
b0 #
b1 $
b1 %
b0 &
b0 '
b0 (
b1 )
b1 *
b0 +
b1 ,
b10101010000000001111111101010101 -
b0000000000000000 .
b1 /
b0 0
b0 1
b0 2
b0 3
b0 4
b0 5
b0 6
b0 7
b1 8
b0 9
b0 :
b0 ;
b0 <
b0 =
b0 >
b0 ?
b0011101100011110 @
b1 A
b1 B
#33
b0 !
b1 "
b0 #
b1 $
b1 %
b0 &
b0 '
b0 (
b1 )
b1 *
b0 +
b1 ,
b10101010000000001111111101010101 -
b0000000000000000 .
b1 /
b0 0
b0 1
b0 2
b0 3
b0 4
b0 5
b0 6
b0 7
b1 8
b0 9
b0 :
b0 ;
b0 <
b0 =
b0 >
b0 ?
b0011101100011110 @
b0 A
b1 B
#34
b0 !
b1 "
b0 #
b1 $
b1 %
b0 &
b0 '
b0 (
b1 )
b1 *
b0 +
b1 ,
b10101010000000001111111101010101 -
b0000000000000000 .
b1 /
b0 0
b0 1
b0 2
b0 3
b0 4
b0 5
b0 6
b0 7
b1 8
b0 9
b0 :
b0 ;
b0 <
b0 =
b0 >
b0 ?
b0011101100011110 @
b1 A
b1 B
#35
b0 !
b1 "
b0 #
b1 $
b1 %
b0 &
b0 '
b0 (
b1 )
b1 *
b0 +
b1 ,
b10101010000000001111111101010101 -
b0000000000000000 .
b1 /
b0 0
b0 1
b0 2
b0 3
b0 4
b0 5
b0 6
b0 7
b1 8
b0 9
b0 :
b0 ;
b0 <
b0 =
b0 >
b0 ?
b0011101100011110 @
b0 A
b1 B
#36
b0 !
b1 "
b0 #
b1 $
b1 %
b0 &
b0 '
b0 (
b1 )
b1 *
b0 +
b1 ,
b10101010000000001111111101010101 -
b0000000000000000 .
b1 /
b0 0
b0 1
b0 2
b0 3
b0 4
b0 5
b0 6
b0 7
b1 8
b0 9
b0 :
b0 ;
b0 <
b0 =
b0 >
b0 ?
b0011101100011110 @
b1 A
b1 B
#37
b0 !
b1 "
b0 #
b1 $
b1 %
b0 &
b0 '
b0 (
b1 )
b1 *
b0 +
b1 ,
b10101010000000001111111101010101 -
b0000000000000000 .
b1 /
b0 0
b0 1
b0 2
b0 3
b0 4
b0 5
b0 6
b0 7
b1 8
b0 9
b0 :
b0 ;
b0 <
b0 =
b0 >
b0 ?
b0011101100011110 @
b0 A
b1 B
#38
b0 !
b1 "
b0 #
b1 $
b1 %
b0 &
b1 '
b0 (
b1 )
b1 *
b0 +
b1 ,
b10101010000000001111111101010101 -
b0000000000000000 .
b1 /
b0 0
b0 1
b0 2
b0 3
b0 4
b0 5
b0 6
b0 7
b1 8
b0 9
b0 :
b0 ;
b0 <
b0 =
b0 >
b0 ?
b0011101100011111 @
b1 A
b1 B
#39
b0 !
b1 "
b0 #
b1 $
b1 %
b0 &
b1 '
b0 (
b1 )
b1 *
b0 +
b1 ,
b10101010000000001111111101010101 -
b0000000000000000 .
b1 /
b0 0
b0 1
b0 2
b0 3
b0 4
b0 5
b0 6
b0 7
b1 8
b0 9
b0 :
b0 ;
b0 <
b0 =
b0 >
b0 ?
b0011101100011111 @
b0 A
b1 B
#40
b0 !
b1 "
b0 #
b1 $
b1 %
b0 &
b1 '
b0 (
b1 )
b1 *
b0 +
b1 ,
b10101010000000001111111101010101 -
b0000000000000000 .
b1 /
b0 0
b0 1
b0 2
b0 3
b0 4
b0 5
b0 6
b0 7
b1 8
b0 9
b0 :
b0 ;
b0 <
b0 =
b0 >
b0 ?
b0011101100011111 @
b1 A
b1 B
#41
b0 !
b1 "
b0 #
b1 $
b1 %
b0 &
b1 '
b0 (
b1 )
b1 *
b0 +
b1 ,
b10101010000000001111111101010101 -
b0000000000000000 .
b1 /
b0 0
b0 1
b0 2
b0 3
b0 4
b0 5
b0 6
b0 7
b1 8
b0 9
b0 :
b0 ;
b0 <
b0 =
b0 >
b0 ?
b0011101100011111 @
b0 A
b1 B
#42
b0 !
b1 "
b0 #
b1 $
b1 %
b0 &
b1 '
b0 (
b1 )
b1 *
b0 +
b1 ,
b10101010000000001111111101010101 -
b0000000000000000 .
b1 /
b0 0
b0 1
b0 2
b0 3
b0 4
b0 5
b0 6
b0 7
b1 8
b0 9
b0 :
b0 ;
b0 <
b0 =
b0 >
b0 ?
b0011101100011111 @
b1 A
b1 B
#43
b0 !
b1 "
b0 #
b1 $
b1 %
b0 &
b1 '
b0 (
b1 )
b1 *
b0 +
b1 ,
b10101010000000001111111101010101 -
b0000000000000000 .
b1 /
b0 0
b0 1
b0 2
b0 3
b0 4
b0 5
b0 6
b0 7
b1 8
b0 9
b0 :
b0 ;
b0 <
b0 =
b0 >
b0 ?
b0011101100011111 @
b0 A
b1 B
#44
b0 !
b1 "
b0 #
b1 $
b1 %
b0 &
b1 '
b0 (
b1 )
b1 *
b0 +
b1 ,
b10101010000000001111111101010101 -
b0000000000000000 .
b1 /
b0 0
b0 1
b0 2
b0 3
b0 4
b0 5
b0 6
b0 7
b1 8
b0 9
b0 :
b0 ;
b0 <
b0 =
b0 >
b0 ?
b0011101100011111 @
b1 A
b1 B
#45
b0 !
b1 "
b0 #
b1 $
b1 %
b0 &
b1 '
b0 (
b1 )
b1 *
b0 +
b1 ,
b10101010000000001111111101010101 -
b0000000000000000 .
b1 /
b0 0
b0 1
b0 2
b0 3
b0 4
b0 5
b0 6
b0 7
b1 8
b0 9
b0 :
b0 ;
b0 <
b0 =
b0 >
b0 ?
b0011101100011111 @
b0 A
b1 B
#46
b0 !
b1 "
b0 #
b0 $
b1 %
b0 &
b0 '
b0 (
b1 )
b0 *
b0 +
b1 ,
b10101010000000001111111101010101 -
b0000000000000000 .
b1 /
b0 0
b0 1
b0 2
b0 3
b0 4
b0 5
b0 6
b0 7
b0 8
b1 9
b0 :
b0 ;
b0 <
b0 =
b0 >
b0 ?
b0011101100011111 @
b1 A
b1 B
#47
b0 !
b1 "
b0 #
b0 $
b1 %
b0 &
b0 '
b0 (
b1 )
b0 *
b0 +
b1 ,
b10101010000000001111111101010101 -
b0000000000000000 .
b1 /
b0 0
b0 1
b0 2
b0 3
b0 4
b0 5
b0 6
b0 7
b0 8
b1 9
b0 :
b0 ;
b0 <
b0 =
b0 >
b0 ?
b0011101100011111 @
b0 A
b1 B
#48
b0 !
b1 "
b0 #
b0 $
b1 %
b0 &
b0 '
b0 (
b1 )
b0 *
b0 +
b1 ,
b10101010000000001111111101010101 -
b0000000000000000 .
b1 /
b0 0
b0 1
b0 2
b0 3
b0 4
b0 5
b0 6
b0 7
b0 8
b1 9
b0 :
b0 ;
b0 <
b0 =
b0 >
b0 ?
b0011101100011111 @
b1 A
b1 B
#49
b0 !
b1 "
b0 #
b0 $
b1 %
b0 &
b0 '
b0 (
b1 )
b0 *
b0 +
b1 ,
b10101010000000001111111101010101 -
b0000000000000000 .
b1 /
b0 0
b0 1
b0 2
b0 3
b0 4
b0 5
b0 6
b0 7
b0 8
b1 9
b0 :
b0 ;
b0 <
b0 =
b0 >
b0 ?
b0011101100011111 @
b0 A
b1 B
#50
b0 !
b1 "
b0 #
b0 $
b1 %
b0 &
b0 '
b0 (
b1 )
b0 *
b0 +
b1 ,
b10101010000000001111111101010101 -
b0000000000000000 .
b1 /
b0 0
b0 1
b0 2
b0 3
b0 4
b0 5
b0 6
b0 7
b0 8
b1 9
b0 :
b0 ;
b0 <
b0 =
b0 >
b0 ?
b0011101100011111 @
b1 A
b1 B
#51
b0 !
b1 "
b0 #
b0 $
b1 %
b0 &
b0 '
b0 (
b1 )
b0 *
b0 +
b1 ,
b10101010000000001111111101010101 -
b0000000000000000 .
b1 /
b0 0
b0 1
b0 2
b0 3
b0 4
b0 5
b0 6
b0 7
b0 8
b1 9
b0 :
b0 ;
b0 <
b0 =
b0 >
b0 ?
b0011101100011111 @
b0 A
b1 B
#52
b0 !
b1 "
b0 #
b0 $
b1 %
b0 &
b1 '
b0 (
b1 )
b0 *
b0 +
b1 ,
b01010101000000000111111110101010 -
b0000000000000001 .
b0 /
b0 0
b0 1
b0 2
b0 3
b0 4
b0 5
b0 6
b0 7
b0 8
b1 9
b0 :
b0 ;
b0 <
b0 =
b0 >
b0 ?
b0011101100100000 @
b1 A
b1 B
#53
b0 !
b1 "
b0 #
b0 $
b1 %
b0 &
b1 '
b0 (
b1 )
b0 *
b0 +
b1 ,
b01010101000000000111111110101010 -
b0000000000000001 .
b0 /
b0 0
b0 1
b0 2
b0 3
b0 4
b0 5
b0 6
b0 7
b0 8
b1 9
b0 :
b0 ;
b0 <
b0 =
b0 >
b0 ?
b0011101100100000 @
b0 A
b1 B
#54
b0 !
b1 "
b0 #
b0 $
b1 %
b0 &
b1 '
b0 (
b1 )
b0 *
b0 +
b1 ,
b01010101000000000111111110101010 -
b0000000000000001 .
b0 /
b0 0
b0 1
b0 2
b0 3
b0 4
b0 5
b0 6
b0 7
b0 8
b1 9
b0 :
b0 ;
b0 <
b0 =
b0 >
b0 ?
b0011101100100000 @
b1 A
b1 B
#55
b0 !
b1 "
b0 #
b0 $
b1 %
b0 &
b1 '
b0 (
b1 )
b0 *
b0 +
b1 ,
b01010101000000000111111110101010 -
b0000000000000001 .
b0 /
b0 0
b0 1
b0 2
b0 3
b0 4
b0 5
b0 6
b0 7
b0 8
b1 9
b0 :
b0 ;
b0 <
b0 =
b0 >
b0 ?
b0011101100100000 @
b0 A
b1 B
#56
b0 !
b1 "
b0 #
b0 $
b1 %
b0 &
b1 '
b0 (
b1 )
b0 *
b0 +
b1 ,
b01010101000000000111111110101010 -
b0000000000000001 .
b0 /
b0 0
b0 1
b0 2
b0 3
b0 4
b0 5
b0 6
b0 7
b0 8
b1 9
b0 :
b0 ;
b0 <
b0 =
b0 >
b0 ?
b0011101100100000 @
b1 A
b1 B
#57
b0 !
b1 "
b0 #
b0 $
b1 %
b0 &
b1 '
b0 (
b1 )
b0 *
b0 +
b1 ,
b01010101000000000111111110101010 -
b0000000000000001 .
b0 /
b0 0
b0 1
b0 2
b0 3
b0 4
b0 5
b0 6
b0 7
b0 8
b1 9
b0 :
b0 ;
b0 <
b0 =
b0 >
b0 ?
b0011101100100000 @
b0 A
b1 B
#58
b1 !
b0 "
b0 #
b0 $
b1 %
b0 &
b0 '
b0 (
b1 )
b0 *
b0 +
b1 ,
b01010101000000000111111110101010 -
b0000000000000001 .
b0 /
b1 0
b0 1
b0 2
b0 3
b0 4
b0 5
b0 6
b0 7
b0 8
b0 9
b0 :
b0 ;
b0 <
b0 =
b0 >
b0 ?
b0011101100100000 @
b1 A
b1 B
#59
b1 !
b0 "
b0 #
b0 $
b1 %
b0 &
b0 '
b0 (
b1 )
b0 *
b0 +
b1 ,
b01010101000000000111111110101010 -
b0000000000000001 .
b0 /
b1 0
b0 1
b0 2
b0 3
b0 4
b0 5
b0 6
b0 7
b0 8
b0 9
b0 :
b0 ;
b0 <
b0 =
b0 >
b0 ?
b0011101100100000 @
b0 A
b1 B
#60
b1 !
b0 "
b0 #
b0 $
b1 %
b0 &
b0 '
b0 (
b1 )
b0 *
b0 +
b1 ,
b01010101000000000111111110101010 -
b0000000000000001 .
b0 /
b1 0
b0 1
b0 2
b0 3
b0 4
b0 5
b0 6
b0 7
b0 8
b0 9
b0 :
b0 ;
b0 <
b0 =
b0 >
b0 ?
b0011101100100000 @
b1 A
b1 B
#61
b1 !
b0 "
b0 #
b0 $
b1 %
b0 &
b0 '
b0 (
b1 )
b0 *
b0 +
b1 ,
b01010101000000000111111110101010 -
b0000000000000001 .
b0 /
b1 0
b0 1
b0 2
b0 3
b0 4
b0 5
b0 6
b0 7
b0 8
b0 9
b0 :
b0 ;
b0 <
b0 =
b0 >
b0 ?
b0011101100100000 @
b0 A
b1 B
#62
b1 !
b0 "
b0 #
b0 $
b1 %
b0 &
b0 '
b0 (
b1 )
b0 *
b0 +
b1 ,
b01010101000000000111111110101010 -
b0000000000000001 .
b0 /
b1 0
b0 1
b0 2
b0 3
b0 4
b0 5
b0 6
b0 7
b0 8
b0 9
b0 :
b0 ;
b0 <
b0 =
b0 >
b0 ?
b0011101100100000 @
b1 A
b1 B
#63
b1 !
b0 "
b0 #
b0 $
b1 %
b0 &
b0 '
b0 (
b1 )
b0 *
b0 +
b1 ,
b01010101000000000111111110101010 -
b0000000000000001 .
b0 /
b1 0
b0 1
b0 2
b0 3
b0 4
b0 5
b0 6
b0 7
b0 8
b0 9
b0 :
b0 ;
b0 <
b0 =
b0 >
b0 ?
b0011101100100000 @
b0 A
b1 B
#64
b1 !
b0 "
b0 #
b0 $
b1 %
b0 &
b0 '
b0 (
b1 )
b0 *
b0 +
b1 ,
b01010101000000000111111110101010 -
b0000000000000001 .
b0 /
b1 0
b0 1
b0 2
b0 3
b0 4
b0 5
b0 6
b0 7
b0 8
b0 9
b0 :
b0 ;
b0 <
b0 =
b0 >
b0 ?
b0011101100100000 @
b1 A
b1 B
#65
b1 !
b0 "
b0 #
b0 $
b1 %
b0 &
b0 '
b0 (
b1 )
b0 *
b0 +
b1 ,
b01010101000000000111111110101010 -
b0000000000000001 .
b0 /
b1 0
b0 1
b0 2
b0 3
b0 4
b0 5
b0 6
b0 7
b0 8
b0 9
b0 :
b0 ;
b0 <
b0 =
b0 >
b0 ?
b0011101100100000 @
b0 A
b1 B
#66
b1 !
b1 "
b0 #
b0 $
b1 %
b0 &
b1 '
b0 (
b1 )
b0 *
b0 +
b1 ,
b00101010100000000011111111010101 -
b0000000000000010 .
b1 /
b1 0
b0 1
b0 2
b0 3
b0 4
b0 5
b0 6
b0 7
b0 8
b0 9
b0 :
b0 ;
b0 <
b0 =
b0 >
b0 ?
b0011101100100001 @
b1 A
b1 B
#67
b1 !
b1 "
b0 #
b0 $
b1 %
b0 &
b1 '
b0 (
b1 )
b0 *
b0 +
b1 ,
b00101010100000000011111111010101 -
b0000000000000010 .
b1 /
b1 0
b0 1
b0 2
b0 3
b0 4
b0 5
b0 6
b0 7
b0 8
b0 9
b0 :
b0 ;
b0 <
b0 =
b0 >
b0 ?
b0011101100100001 @
b0 A
b1 B
#68
b1 !
b1 "
b0 #
b0 $
b1 %
b0 &
b1 '
b0 (
b1 )
b0 *
b0 +
b1 ,
b00101010100000000011111111010101 -
b0000000000000010 .
b1 /
b1 0
b0 1
b0 2
b0 3
b0 4
b0 5
b0 6
b0 7
b0 8
b0 9
b0 :
b0 ;
b0 <
b0 =
b0 >
b0 ?
b0011101100100001 @
b1 A
b1 B
#69
b1 !
b1 "
b0 #
b0 $
b1 %
b0 &
b1 '
b0 (
b1 )
b0 *
b0 +
b1 ,
b00101010100000000011111111010101 -
b0000000000000010 .
b1 /
b1 0
b0 1
b0 2
b0 3
b0 4
b0 5
b0 6
b0 7
b0 8
b0 9
b0 :
b0 ;
b0 <
b0 =
b0 >
b0 ?
b0011101100100001 @
b0 A
b1 B
