examples/vcd-dumps/irscan10-100mhz-subsamp1x-usbblstr2.vcd
$date
	2021-07-05 21:22
$end
$timescale 4000ps $end
$scope 1ps $end
$var wire 1 ! main_jtag_phy_altera_reserved_tck $end
$var wire 1 " main_jtag_phy_altera_reserved_tdi $end
$var wire 1 # main_jtag_phy_altera_reserved_tms $end
$var wire 1 $ main_jtag_phy_capture $end
$var wire 1 % main_jtag_phy_corectl $end
$var wire 1 & main_jtag_phy_ntdopinena $end
$var wire 1 ' main_jtag_phy_reset $end
$var wire 1 ( main_jtag_phy_runtest $end
$var wire 1 ) main_jtag_phy_sel $end
$var wire 1 * main_jtag_phy_shift $end
$var wire 1 + main_jtag_phy_tck $end
$var wire 1 , main_jtag_phy_tckcore $end
$var wire 1 - main_jtag_phy_tckutap $end
$var wire 1 . main_jtag_phy_tdi $end
$var wire 1 / main_jtag_phy_tdicore $end
$var wire 1 0 main_jtag_phy_tdiutap $end
$var wire 1 1 main_jtag_phy_tdo $end
$var wire 1 2 main_jtag_phy_tdocore $end
$var wire 1 3 main_jtag_phy_tdouser $end
$var wire 1 4 main_jtag_phy_tms $end
$var wire 1 5 main_jtag_phy_tmscore $end
$var wire 1 6 main_jtag_phy_tmsutap $end
$var wire 1 7 main_jtag_phy_update $end
$var wire 32 8 main_hello_code $end
$var wire 1 9 main_buf $end
$var wire 1 : main_capture_dr $end
$var wire 1 ; main_capture_ir $end
$var wire 1 < main_exit1_dr $end
$var wire 1 = main_exit1_ir $end
$var wire 1 > main_exit2_dr $end
$var wire 1 ? main_exit2_ir $end
$var wire 1 @ main_pause_dr $end
$var wire 1 A main_pause_ir $end
$var wire 1 B main_run_test_idle $end
$var wire 1 C main_select_dr_scan $end
$var wire 1 D main_select_ir_scan $end
$var wire 1 E main_shift_dr $end
$var wire 1 F main_shift_ir $end
$var wire 1 G main_test_logic_reset $end
$var wire 1 H main_update_dr $end
$var wire 1 I main_update_ir $end
$var wire 1 J scope_clk $end
$var wire 1 K scope_trig $end
$unscope  $end
$enddefinitions  $end
$dumpvars
bx !
bx "
bx #
bx $
bx %
bx &
bx '
bx (
bx )
bx *
bx +
bx ,
bx -
bx .
bx /
bx 0
bx 1
bx 2
bx 3
bx 4
bx 5
bx 6
bx 7
bxxxxxxxxxxxxxxxxxxxxxxxxxxxxxxxx 8
bx 9
bx :
bx ;
bx <
bx =
bx >
bx ?
bx @
bx A
bx B
bx C
bx D
bx E
bx F
bx G
bx H
bx I
bx J
bx K
$end
#0
b0 !
b0 "
b0 #
b1 $
b0 %
b0 &
b0 '
b0 (
b0 )
b0 *
b0 +
b0 ,
b0 -
b0 .
b0 /
b0 0
b1 1
b1 2
b1 3
b0 4
b0 5
b0 6
b0 7
b10101010000000001111111101010101 8
b0 9
b0 :
b0 ;
b0 <
b0 =
b0 >
b0 ?
b0 @
b0 A
b1 B
b0 C
b0 D
b0 E
b0 F
b0 G
b0 H
b0 I
b1 J
b0 K
#1
b0 !
b0 "
b0 #
b1 $
b0 %
b0 &
b0 '
b0 (
b0 )
b0 *
b0 +
b0 ,
b0 -
b0 .
b0 /
b0 0
b1 1
b1 2
b1 3
b0 4
b0 5
b0 6
b0 7
b10101010000000001111111101010101 8
b0 9
b0 :
b0 ;
b0 <
b0 =
b0 >
b0 ?
b0 @
b0 A
b1 B
b0 C
b0 D
b0 E
b0 F
b0 G
b0 H
b0 I
b0 J
b0 K
#2
b0 !
b0 "
b0 #
b1 $
b0 %
b0 &
b0 '
b0 (
b0 )
b0 *
b0 +
b0 ,
b0 -
b0 .
b0 /
b0 0
b1 1
b1 2
b1 3
b0 4
b0 5
b0 6
b0 7
b10101010000000001111111101010101 8
b0 9
b0 :
b0 ;
b0 <
b0 =
b0 >
b0 ?
b0 @
b0 A
b1 B
b0 C
b0 D
b0 E
b0 F
b0 G
b0 H
b0 I
b1 J
b0 K
#3
b0 !
b0 "
b0 #
b1 $
b0 %
b0 &
b0 '
b0 (
b0 )
b0 *
b0 +
b0 ,
b0 -
b0 .
b0 /
b0 0
b1 1
b1 2
b1 3
b0 4
b0 5
b0 6
b0 7
b10101010000000001111111101010101 8
b0 9
b0 :
b0 ;
b0 <
b0 =
b0 >
b0 ?
b0 @
b0 A
b1 B
b0 C
b0 D
b0 E
b0 F
b0 G
b0 H
b0 I
b0 J
b0 K
#4
b0 !
b0 "
b0 #
b1 $
b0 %
b0 &
b0 '
b0 (
b0 )
b0 *
b0 +
b0 ,
b0 -
b0 .
b0 /
b0 0
b1 1
b1 2
b1 3
b0 4
b0 5
b0 6
b0 7
b10101010000000001111111101010101 8
b0 9
b0 :
b0 ;
b0 <
b0 =
b0 >
b0 ?
b0 @
b0 A
b1 B
b0 C
b0 D
b0 E
b0 F
b0 G
b0 H
b0 I
b1 J
b0 K
#5
b0 !
b0 "
b0 #
b1 $
b0 %
b0 &
b0 '
b0 (
b0 )
b0 *
b0 +
b0 ,
b0 -
b0 .
b0 /
b0 0
b1 1
b1 2
b1 3
b0 4
b0 5
b0 6
b0 7
b10101010000000001111111101010101 8
b0 9
b0 :
b0 ;
b0 <
b0 =
b0 >
b0 ?
b0 @
b0 A
b1 B
b0 C
b0 D
b0 E
b0 F
b0 G
b0 H
b0 I
b0 J
b0 K
#6
b0 !
b0 "
b0 #
b1 $
b0 %
b0 &
b0 '
b0 (
b0 )
b0 *
b0 +
b0 ,
b0 -
b0 .
b0 /
b0 0
b1 1
b1 2
b1 3
b0 4
b0 5
b0 6
b0 7
b10101010000000001111111101010101 8
b0 9
b0 :
b0 ;
b0 <
b0 =
b0 >
b0 ?
b0 @
b0 A
b1 B
b0 C
b0 D
b0 E
b0 F
b0 G
b0 H
b0 I
b1 J
b0 K
#7
b0 !
b0 "
b0 #
b1 $
b0 %
b0 &
b0 '
b0 (
b0 )
b0 *
b0 +
b0 ,
b0 -
b0 .
b0 /
b0 0
b1 1
b1 2
b1 3
b0 4
b0 5
b0 6
b0 7
b10101010000000001111111101010101 8
b0 9
b0 :
b0 ;
b0 <
b0 =
b0 >
b0 ?
b0 @
b0 A
b1 B
b0 C
b0 D
b0 E
b0 F
b0 G
b0 H
b0 I
b0 J
b0 K
#8
b0 !
b0 "
b0 #
b1 $
b0 %
b0 &
b0 '
b0 (
b0 )
b0 *
b0 +
b0 ,
b0 -
b0 .
b0 /
b0 0
b1 1
b1 2
b1 3
b0 4
b0 5
b0 6
b0 7
b10101010000000001111111101010101 8
b0 9
b0 :
b0 ;
b0 <
b0 =
b0 >
b0 ?
b0 @
b0 A
b1 B
b0 C
b0 D
b0 E
b0 F
b0 G
b0 H
b0 I
b1 J
b0 K
#9
b0 !
b0 "
b0 #
b1 $
b0 %
b0 &
b0 '
b0 (
b0 )
b0 *
b0 +
b0 ,
b0 -
b0 .
b0 /
b0 0
b1 1
b1 2
b1 3
b0 4
b0 5
b0 6
b0 7
b10101010000000001111111101010101 8
b0 9
b0 :
b0 ;
b0 <
b0 =
b0 >
b0 ?
b0 @
b0 A
b1 B
b0 C
b0 D
b0 E
b0 F
b0 G
b0 H
b0 I
b0 J
b0 K
#10
b0 !
b0 "
b0 #
b1 $
b0 %
b0 &
b0 '
b0 (
b0 )
b0 *
b0 +
b0 ,
b0 -
b0 .
b0 /
b0 0
b1 1
b1 2
b1 3
b0 4
b0 5
b0 6
b0 7
b10101010000000001111111101010101 8
b0 9
b0 :
b0 ;
b0 <
b0 =
b0 >
b0 ?
b0 @
b0 A
b1 B
b0 C
b0 D
b0 E
b0 F
b0 G
b0 H
b0 I
b1 J
b0 K
#11
b0 !
b0 "
b0 #
b1 $
b0 %
b0 &
b0 '
b0 (
b0 )
b0 *
b0 +
b0 ,
b0 -
b0 .
b0 /
b0 0
b1 1
b1 2
b1 3
b0 4
b0 5
b0 6
b0 7
b10101010000000001111111101010101 8
b0 9
b0 :
b0 ;
b0 <
b0 =
b0 >
b0 ?
b0 @
b0 A
b1 B
b0 C
b0 D
b0 E
b0 F
b0 G
b0 H
b0 I
b0 J
b0 K
#12
b0 !
b0 "
b0 #
b1 $
b0 %
b0 &
b0 '
b0 (
b0 )
b0 *
b0 +
b0 ,
b0 -
b0 .
b0 /
b0 0
b1 1
b1 2
b1 3
b0 4
b0 5
b0 6
b0 7
b10101010000000001111111101010101 8
b0 9
b0 :
b0 ;
b0 <
b0 =
b0 >
b0 ?
b0 @
b0 A
b1 B
b0 C
b0 D
b0 E
b0 F
b0 G
b0 H
b0 I
b1 J
b0 K
#13
b0 !
b0 "
b0 #
b1 $
b0 %
b0 &
b0 '
b0 (
b0 )
b0 *
b0 +
b0 ,
b0 -
b0 .
b0 /
b0 0
b1 1
b1 2
b1 3
b0 4
b0 5
b0 6
b0 7
b10101010000000001111111101010101 8
b0 9
b0 :
b0 ;
b0 <
b0 =
b0 >
b0 ?
b0 @
b0 A
b1 B
b0 C
b0 D
b0 E
b0 F
b0 G
b0 H
b0 I
b0 J
b0 K
#14
b0 !
b0 "
b0 #
b1 $
b0 %
b0 &
b0 '
b0 (
b0 )
b0 *
b0 +
b0 ,
b0 -
b0 .
b0 /
b0 0
b1 1
b1 2
b1 3
b0 4
b0 5
b0 6
b0 7
b10101010000000001111111101010101 8
b0 9
b0 :
b0 ;
b0 <
b0 =
b0 >
b0 ?
b0 @
b0 A
b1 B
b0 C
b0 D
b0 E
b0 F
b0 G
b0 H
b0 I
b1 J
b0 K
#15
b0 !
b0 "
b0 #
b1 $
b0 %
b0 &
b0 '
b0 (
b0 )
b0 *
b0 +
b0 ,
b0 -
b0 .
b0 /
b0 0
b1 1
b1 2
b1 3
b0 4
b0 5
b0 6
b0 7
b10101010000000001111111101010101 8
b0 9
b0 :
b0 ;
b0 <
b0 =
b0 >
b0 ?
b0 @
b0 A
b1 B
b0 C
b0 D
b0 E
b0 F
b0 G
b0 H
b0 I
b0 J
b0 K
#16
b0 !
b0 "
b0 #
b1 $
b0 %
b0 &
b0 '
b0 (
b0 )
b0 *
b0 +
b0 ,
b0 -
b0 .
b0 /
b0 0
b1 1
b1 2
b1 3
b0 4
b0 5
b0 6
b0 7
b10101010000000001111111101010101 8
b0 9
b0 :
b0 ;
b0 <
b0 =
b0 >
b0 ?
b0 @
b0 A
b1 B
b0 C
b0 D
b0 E
b0 F
b0 G
b0 H
b0 I
b1 J
b0 K
#17
b0 !
b0 "
b0 #
b1 $
b0 %
b0 &
b0 '
b0 (
b0 )
b0 *
b0 +
b0 ,
b0 -
b0 .
b0 /
b0 0
b1 1
b1 2
b1 3
b0 4
b0 5
b0 6
b0 7
b10101010000000001111111101010101 8
b0 9
b0 :
b0 ;
b0 <
b0 =
b0 >
b0 ?
b0 @
b0 A
b1 B
b0 C
b0 D
b0 E
b0 F
b0 G
b0 H
b0 I
b0 J
b0 K
#18
b0 !
b0 "
b0 #
b1 $
b0 %
b0 &
b0 '
b0 (
b0 )
b0 *
b0 +
b0 ,
b0 -
b0 .
b0 /
b0 0
b1 1
b1 2
b1 3
b0 4
b0 5
b0 6
b0 7
b10101010000000001111111101010101 8
b0 9
b0 :
b0 ;
b0 <
b0 =
b0 >
b0 ?
b0 @
b0 A
b1 B
b0 C
b0 D
b0 E
b0 F
b0 G
b0 H
b0 I
b1 J
b0 K
#19
b0 !
b0 "
b0 #
b1 $
b0 %
b0 &
b0 '
b0 (
b0 )
b0 *
b0 +
b0 ,
b0 -
b0 .
b0 /
b0 0
b1 1
b1 2
b1 3
b0 4
b0 5
b0 6
b0 7
b10101010000000001111111101010101 8
b0 9
b0 :
b0 ;
b0 <
b0 =
b0 >
b0 ?
b0 @
b0 A
b1 B
b0 C
b0 D
b0 E
b0 F
b0 G
b0 H
b0 I
b0 J
b0 K
#20
b0 !
b0 "
b0 #
b1 $
b0 %
b0 &
b0 '
b0 (
b0 )
b0 *
b0 +
b0 ,
b0 -
b0 .
b0 /
b0 0
b1 1
b1 2
b1 3
b0 4
b0 5
b0 6
b0 7
b10101010000000001111111101010101 8
b0 9
b0 :
b0 ;
b0 <
b0 =
b0 >
b0 ?
b0 @
b0 A
b1 B
b0 C
b0 D
b0 E
b0 F
b0 G
b0 H
b0 I
b1 J
b0 K
#21
b0 !
b0 "
b0 #
b1 $
b0 %
b0 &
b0 '
b0 (
b0 )
b0 *
b0 +
b0 ,
b0 -
b0 .
b0 /
b0 0
b1 1
b1 2
b1 3
b0 4
b0 5
b0 6
b0 7
b10101010000000001111111101010101 8
b0 9
b0 :
b0 ;
b0 <
b0 =
b0 >
b0 ?
b0 @
b0 A
b1 B
b0 C
b0 D
b0 E
b0 F
b0 G
b0 H
b0 I
b0 J
b0 K
#22
b0 !
b0 "
b0 #
b1 $
b0 %
b0 &
b0 '
b0 (
b0 )
b0 *
b0 +
b0 ,
b0 -
b0 .
b0 /
b0 0
b1 1
b1 2
b1 3
b0 4
b0 5
b0 6
b0 7
b10101010000000001111111101010101 8
b0 9
b0 :
b0 ;
b0 <
b0 =
b0 >
b0 ?
b0 @
b0 A
b1 B
b0 C
b0 D
b0 E
b0 F
b0 G
b0 H
b0 I
b1 J
b0 K
#23
b0 !
b0 "
b0 #
b1 $
b0 %
b0 &
b0 '
b0 (
b0 )
b0 *
b0 +
b0 ,
b0 -
b0 .
b0 /
b0 0
b1 1
b1 2
b1 3
b0 4
b0 5
b0 6
b0 7
b10101010000000001111111101010101 8
b0 9
b0 :
b0 ;
b0 <
b0 =
b0 >
b0 ?
b0 @
b0 A
b1 B
b0 C
b0 D
b0 E
b0 F
b0 G
b0 H
b0 I
b0 J
b0 K
#24
b0 !
b0 "
b0 #
b1 $
b0 %
b0 &
b0 '
b0 (
b0 )
b0 *
b0 +
b0 ,
b0 -
b0 .
b0 /
b0 0
b1 1
b1 2
b1 3
b0 4
b0 5
b0 6
b0 7
b10101010000000001111111101010101 8
b0 9
b0 :
b0 ;
b0 <
b0 =
b0 >
b0 ?
b0 @
b0 A
b1 B
b0 C
b0 D
b0 E
b0 F
b0 G
b0 H
b0 I
b1 J
b0 K
#25
b0 !
b0 "
b0 #
b1 $
b0 %
b0 &
b0 '
b0 (
b0 )
b0 *
b0 +
b0 ,
b0 -
b0 .
b0 /
b0 0
b1 1
b1 2
b1 3
b0 4
b0 5
b0 6
b0 7
b10101010000000001111111101010101 8
b0 9
b0 :
b0 ;
b0 <
b0 =
b0 >
b0 ?
b0 @
b0 A
b1 B
b0 C
b0 D
b0 E
b0 F
b0 G
b0 H
b0 I
b0 J
b0 K
#26
b0 !
b0 "
b0 #
b1 $
b0 %
b0 &
b0 '
b0 (
b0 )
b0 *
b0 +
b0 ,
b0 -
b0 .
b0 /
b0 0
b1 1
b1 2
b1 3
b0 4
b0 5
b0 6
b0 7
b10101010000000001111111101010101 8
b0 9
b0 :
b0 ;
b0 <
b0 =
b0 >
b0 ?
b0 @
b0 A
b1 B
b0 C
b0 D
b0 E
b0 F
b0 G
b0 H
b0 I
b1 J
b0 K
#27
b0 !
b0 "
b0 #
b1 $
b0 %
b0 &
b0 '
b0 (
b0 )
b0 *
b0 +
b0 ,
b0 -
b0 .
b0 /
b0 0
b1 1
b1 2
b1 3
b0 4
b0 5
b0 6
b0 7
b10101010000000001111111101010101 8
b0 9
b0 :
b0 ;
b0 <
b0 =
b0 >
b0 ?
b0 @
b0 A
b1 B
b0 C
b0 D
b0 E
b0 F
b0 G
b0 H
b0 I
b0 J
b0 K
#28
b0 !
b0 "
b0 #
b1 $
b0 %
b0 &
b0 '
b0 (
b0 )
b0 *
b0 +
b0 ,
b0 -
b0 .
b0 /
b0 0
b1 1
b1 2
b1 3
b0 4
b0 5
b0 6
b0 7
b10101010000000001111111101010101 8
b0 9
b0 :
b0 ;
b0 <
b0 =
b0 >
b0 ?
b0 @
b0 A
b1 B
b0 C
b0 D
b0 E
b0 F
b0 G
b0 H
b0 I
b1 J
b0 K
#29
b0 !
b0 "
b0 #
b1 $
b0 %
b0 &
b0 '
b0 (
b0 )
b0 *
b0 +
b0 ,
b0 -
b0 .
b0 /
b0 0
b1 1
b1 2
b1 3
b0 4
b0 5
b0 6
b0 7
b10101010000000001111111101010101 8
b0 9
b0 :
b0 ;
b0 <
b0 =
b0 >
b0 ?
b0 @
b0 A
b1 B
b0 C
b0 D
b0 E
b0 F
b0 G
b0 H
b0 I
b0 J
b0 K
#30
b0 !
b0 "
b0 #
b1 $
b0 %
b0 &
b0 '
b0 (
b0 )
b0 *
b0 +
b0 ,
b0 -
b0 .
b0 /
b0 0
b1 1
b1 2
b1 3
b0 4
b0 5
b0 6
b0 7
b10101010000000001111111101010101 8
b0 9
b0 :
b0 ;
b0 <
b0 =
b0 >
b0 ?
b0 @
b0 A
b1 B
b0 C
b0 D
b0 E
b0 F
b0 G
b0 H
b0 I
b1 J
b0 K
#31
b0 !
b0 "
b0 #
b1 $
b0 %
b0 &
b0 '
b0 (
b0 )
b0 *
b0 +
b0 ,
b0 -
b0 .
b0 /
b0 0
b1 1
b1 2
b1 3
b0 4
b0 5
b0 6
b0 7
b10101010000000001111111101010101 8
b0 9
b0 :
b0 ;
b0 <
b0 =
b0 >
b0 ?
b0 @
b0 A
b1 B
b0 C
b0 D
b0 E
b0 F
b0 G
b0 H
b0 I
b0 J
b0 K
#32
b0 !
b0 "
b0 #
b1 $
b0 %
b0 &
b0 '
b0 (
b0 )
b0 *
b0 +
b0 ,
b0 -
b0 .
b0 /
b0 0
b1 1
b1 2
b1 3
b0 4
b0 5
b0 6
b0 7
b10101010000000001111111101010101 8
b0 9
b0 :
b0 ;
b0 <
b0 =
b0 >
b0 ?
b0 @
b0 A
b1 B
b0 C
b0 D
b0 E
b0 F
b0 G
b0 H
b0 I
b1 J
b1 K
#33
b0 !
b0 "
b0 #
b1 $
b0 %
b0 &
b0 '
b0 (
b0 )
b0 *
b0 +
b0 ,
b0 -
b0 .
b0 /
b0 0
b1 1
b1 2
b1 3
b0 4
b0 5
b0 6
b0 7
b10101010000000001111111101010101 8
b0 9
b0 :
b0 ;
b0 <
b0 =
b0 >
b0 ?
b0 @
b0 A
b1 B
b0 C
b0 D
b0 E
b0 F
b0 G
b0 H
b0 I
b0 J
b1 K
#34
b0 !
b0 "
b0 #
b1 $
b0 %
b0 &
b0 '
b0 (
b0 )
b0 *
b0 +
b0 ,
b0 -
b0 .
b0 /
b0 0
b1 1
b1 2
b1 3
b0 4
b0 5
b0 6
b0 7
b10101010000000001111111101010101 8
b0 9
b0 :
b0 ;
b0 <
b0 =
b0 >
b0 ?
b0 @
b0 A
b1 B
b0 C
b0 D
b0 E
b0 F
b0 G
b0 H
b0 I
b1 J
b1 K
#35
b0 !
b0 "
b0 #
b1 $
b0 %
b0 &
b0 '
b0 (
b0 )
b0 *
b0 +
b0 ,
b0 -
b0 .
b0 /
b0 0
b1 1
b1 2
b1 3
b0 4
b0 5
b0 6
b0 7
b10101010000000001111111101010101 8
b0 9
b0 :
b0 ;
b0 <
b0 =
b0 >
b0 ?
b0 @
b0 A
b1 B
b0 C
b0 D
b0 E
b0 F
b0 G
b0 H
b0 I
b0 J
b1 K
#36
b0 !
b0 "
b0 #
b1 $
b0 %
b0 &
b0 '
b0 (
b0 )
b0 *
b0 +
b0 ,
b0 -
b0 .
b0 /
b0 0
b1 1
b1 2
b1 3
b0 4
b0 5
b0 6
b0 7
b10101010000000001111111101010101 8
b0 9
b0 :
b0 ;
b0 <
b0 =
b0 >
b0 ?
b0 @
b0 A
b1 B
b0 C
b0 D
b0 E
b0 F
b0 G
b0 H
b0 I
b1 J
b1 K
#37
b0 !
b0 "
b0 #
b1 $
b0 %
b0 &
b0 '
b0 (
b0 )
b0 *
b0 +
b0 ,
b0 -
b0 .
b0 /
b0 0
b1 1
b1 2
b1 3
b0 4
b0 5
b0 6
b0 7
b10101010000000001111111101010101 8
b0 9
b0 :
b0 ;
b0 <
b0 =
b0 >
b0 ?
b0 @
b0 A
b1 B
b0 C
b0 D
b0 E
b0 F
b0 G
b0 H
b0 I
b0 J
b1 K
#38
b0 !
b0 "
b0 #
b1 $
b0 %
b0 &
b0 '
b0 (
b0 )
b0 *
b0 +
b0 ,
b0 -
b0 .
b0 /
b0 0
b1 1
b1 2
b1 3
b0 4
b0 5
b0 6
b0 7
b10101010000000001111111101010101 8
b0 9
b0 :
b0 ;
b0 <
b0 =
b0 >
b0 ?
b0 @
b0 A
b1 B
b0 C
b0 D
b0 E
b0 F
b0 G
b0 H
b0 I
b1 J
b1 K
#39
b0 !
b0 "
b0 #
b1 $
b0 %
b0 &
b0 '
b0 (
b0 )
b0 *
b0 +
b0 ,
b0 -
b0 .
b0 /
b0 0
b1 1
b1 2
b1 3
b0 4
b0 5
b0 6
b0 7
b10101010000000001111111101010101 8
b0 9
b0 :
b0 ;
b0 <
b0 =
b0 >
b0 ?
b0 @
b0 A
b1 B
b0 C
b0 D
b0 E
b0 F
b0 G
b0 H
b0 I
b0 J
b1 K
#40
b0 !
b0 "
b0 #
b1 $
b0 %
b0 &
b0 '
b0 (
b0 )
b0 *
b0 +
b0 ,
b0 -
b0 .
b0 /
b0 0
b1 1
b1 2
b1 3
b0 4
b0 5
b0 6
b0 7
b10101010000000001111111101010101 8
b0 9
b0 :
b0 ;
b0 <
b0 =
b0 >
b0 ?
b0 @
b0 A
b1 B
b0 C
b0 D
b0 E
b0 F
b0 G
b0 H
b0 I
b1 J
b1 K
#41
b0 !
b0 "
b0 #
b1 $
b0 %
b0 &
b0 '
b0 (
b0 )
b0 *
b0 +
b0 ,
b0 -
b0 .
b0 /
b0 0
b1 1
b1 2
b1 3
b0 4
b0 5
b0 6
b0 7
b10101010000000001111111101010101 8
b0 9
b0 :
b0 ;
b0 <
b0 =
b0 >
b0 ?
b0 @
b0 A
b1 B
b0 C
b0 D
b0 E
b0 F
b0 G
b0 H
b0 I
b0 J
b1 K
#42
b0 !
b0 "
b0 #
b1 $
b0 %
b0 &
b0 '
b0 (
b0 )
b0 *
b0 +
b0 ,
b0 -
b0 .
b0 /
b0 0
b1 1
b1 2
b1 3
b0 4
b0 5
b0 6
b0 7
b10101010000000001111111101010101 8
b0 9
b0 :
b0 ;
b0 <
b0 =
b0 >
b0 ?
b0 @
b0 A
b1 B
b0 C
b0 D
b0 E
b0 F
b0 G
b0 H
b0 I
b1 J
b1 K
#43
b0 !
b0 "
b0 #
b1 $
b0 %
b0 &
b0 '
b0 (
b0 )
b0 *
b0 +
b0 ,
b0 -
b0 .
b0 /
b0 0
b1 1
b1 2
b1 3
b0 4
b0 5
b0 6
b0 7
b10101010000000001111111101010101 8
b0 9
b0 :
b0 ;
b0 <
b0 =
b0 >
b0 ?
b0 @
b0 A
b1 B
b0 C
b0 D
b0 E
b0 F
b0 G
b0 H
b0 I
b0 J
b1 K
#44
b0 !
b0 "
b0 #
b1 $
b0 %
b0 &
b0 '
b0 (
b0 )
b0 *
b0 +
b0 ,
b0 -
b0 .
b0 /
b0 0
b1 1
b1 2
b1 3
b0 4
b0 5
b0 6
b0 7
b10101010000000001111111101010101 8
b0 9
b0 :
b0 ;
b0 <
b0 =
b0 >
b0 ?
b0 @
b0 A
b1 B
b0 C
b0 D
b0 E
b0 F
b0 G
b0 H
b0 I
b1 J
b1 K
#45
b0 !
b0 "
b0 #
b1 $
b0 %
b0 &
b0 '
b0 (
b0 )
b0 *
b0 +
b0 ,
b0 -
b0 .
b0 /
b0 0
b1 1
b1 2
b1 3
b0 4
b0 5
b0 6
b0 7
b10101010000000001111111101010101 8
b0 9
b0 :
b0 ;
b0 <
b0 =
b0 >
b0 ?
b0 @
b0 A
b1 B
b0 C
b0 D
b0 E
b0 F
b0 G
b0 H
b0 I
b0 J
b1 K
#46
b0 !
b0 "
b0 #
b1 $
b0 %
b0 &
b0 '
b0 (
b0 )
b0 *
b0 +
b0 ,
b0 -
b0 .
b0 /
b0 0
b1 1
b1 2
b1 3
b0 4
b0 5
b0 6
b0 7
b10101010000000001111111101010101 8
b0 9
b0 :
b0 ;
b0 <
b0 =
b0 >
b0 ?
b0 @
b0 A
b1 B
b0 C
b0 D
b0 E
b0 F
b0 G
b0 H
b0 I
b1 J
b1 K
#47
b0 !
b0 "
b0 #
b1 $
b0 %
b0 &
b0 '
b0 (
b0 )
b0 *
b0 +
b0 ,
b0 -
b0 .
b0 /
b0 0
b1 1
b1 2
b1 3
b0 4
b0 5
b0 6
b0 7
b10101010000000001111111101010101 8
b0 9
b0 :
b0 ;
b0 <
b0 =
b0 >
b0 ?
b0 @
b0 A
b1 B
b0 C
b0 D
b0 E
b0 F
b0 G
b0 H
b0 I
b0 J
b1 K
#48
b0 !
b0 "
b0 #
b1 $
b0 %
b0 &
b0 '
b0 (
b0 )
b0 *
b0 +
b0 ,
b0 -
b0 .
b0 /
b0 0
b1 1
b1 2
b1 3
b0 4
b0 5
b0 6
b0 7
b10101010000000001111111101010101 8
b0 9
b0 :
b0 ;
b0 <
b0 =
b0 >
b0 ?
b0 @
b0 A
b1 B
b0 C
b0 D
b0 E
b0 F
b0 G
b0 H
b0 I
b1 J
b1 K
#49
b0 !
b0 "
b0 #
b1 $
b0 %
b0 &
b0 '
b0 (
b0 )
b0 *
b0 +
b0 ,
b0 -
b0 .
b0 /
b0 0
b1 1
b1 2
b1 3
b0 4
b0 5
b0 6
b0 7
b10101010000000001111111101010101 8
b0 9
b0 :
b0 ;
b0 <
b0 =
b0 >
b0 ?
b0 @
b0 A
b1 B
b0 C
b0 D
b0 E
b0 F
b0 G
b0 H
b0 I
b0 J
b1 K
#50
b0 !
b0 "
b0 #
b1 $
b0 %
b0 &
b0 '
b0 (
b0 )
b0 *
b0 +
b0 ,
b0 -
b0 .
b0 /
b0 0
b1 1
b1 2
b1 3
b0 4
b0 5
b0 6
b0 7
b10101010000000001111111101010101 8
b0 9
b0 :
b0 ;
b0 <
b0 =
b0 >
b0 ?
b0 @
b0 A
b1 B
b0 C
b0 D
b0 E
b0 F
b0 G
b0 H
b0 I
b1 J
b1 K
#51
b0 !
b0 "
b0 #
b1 $
b0 %
b0 &
b0 '
b0 (
b0 )
b0 *
b0 +
b0 ,
b0 -
b0 .
b0 /
b0 0
b1 1
b1 2
b1 3
b0 4
b0 5
b0 6
b0 7
b10101010000000001111111101010101 8
b0 9
b0 :
b0 ;
b0 <
b0 =
b0 >
b0 ?
b0 @
b0 A
b1 B
b0 C
b0 D
b0 E
b0 F
b0 G
b0 H
b0 I
b0 J
b1 K
#52
b0 !
b0 "
b0 #
b1 $
b0 %
b0 &
b0 '
b0 (
b0 )
b0 *
b0 +
b0 ,
b0 -
b0 .
b0 /
b0 0
b1 1
b1 2
b1 3
b0 4
b0 5
b0 6
b0 7
b10101010000000001111111101010101 8
b0 9
b0 :
b0 ;
b0 <
b0 =
b0 >
b0 ?
b0 @
b0 A
b1 B
b0 C
b0 D
b0 E
b0 F
b0 G
b0 H
b0 I
b1 J
b1 K
#53
b0 !
b0 "
b0 #
b1 $
b0 %
b0 &
b0 '
b0 (
b0 )
b0 *
b0 +
b0 ,
b0 -
b0 .
b0 /
b0 0
b1 1
b1 2
b1 3
b0 4
b0 5
b0 6
b0 7
b10101010000000001111111101010101 8
b0 9
b0 :
b0 ;
b0 <
b0 =
b0 >
b0 ?
b0 @
b0 A
b1 B
b0 C
b0 D
b0 E
b0 F
b0 G
b0 H
b0 I
b0 J
b1 K
#54
b0 !
b0 "
b0 #
b1 $
b0 %
b0 &
b0 '
b0 (
b0 )
b0 *
b0 +
b0 ,
b0 -
b0 .
b0 /
b0 0
b1 1
b1 2
b1 3
b0 4
b0 5
b0 6
b0 7
b10101010000000001111111101010101 8
b0 9
b0 :
b0 ;
b0 <
b0 =
b0 >
b0 ?
b0 @
b0 A
b1 B
b0 C
b0 D
b0 E
b0 F
b0 G
b0 H
b0 I
b1 J
b1 K
#55
b0 !
b0 "
b0 #
b1 $
b0 %
b0 &
b0 '
b0 (
b0 )
b0 *
b0 +
b0 ,
b0 -
b0 .
b0 /
b0 0
b1 1
b1 2
b1 3
b0 4
b0 5
b0 6
b0 7
b10101010000000001111111101010101 8
b0 9
b0 :
b0 ;
b0 <
b0 =
b0 >
b0 ?
b0 @
b0 A
b1 B
b0 C
b0 D
b0 E
b0 F
b0 G
b0 H
b0 I
b0 J
b1 K
#56
b0 !
b0 "
b1 #
b1 $
b0 %
b0 &
b0 '
b0 (
b0 )
b0 *
b0 +
b0 ,
b0 -
b0 .
b0 /
b0 0
b1 1
b1 2
b1 3
b1 4
b0 5
b1 6
b0 7
b10101010000000001111111101010101 8
b0 9
b0 :
b0 ;
b0 <
b0 =
b0 >
b0 ?
b0 @
b0 A
b1 B
b0 C
b0 D
b0 E
b0 F
b0 G
b0 H
b0 I
b1 J
b1 K
#57
b0 !
b0 "
b1 #
b1 $
b0 %
b0 &
b0 '
b0 (
b0 )
b0 *
b0 +
b0 ,
b0 -
b0 .
b0 /
b0 0
b1 1
b1 2
b1 3
b1 4
b0 5
b1 6
b0 7
b10101010000000001111111101010101 8
b0 9
b0 :
b0 ;
b0 <
b0 =
b0 >
b0 ?
b0 @
b0 A
b1 B
b0 C
b0 D
b0 E
b0 F
b0 G
b0 H
b0 I
b0 J
b1 K
#58
b0 !
b0 "
b1 #
b1 $
b0 %
b0 &
b0 '
b0 (
b0 )
b0 *
b0 +
b0 ,
b0 -
b0 .
b0 /
b0 0
b1 1
b1 2
b1 3
b1 4
b0 5
b1 6
b0 7
b10101010000000001111111101010101 8
b0 9
b0 :
b0 ;
b0 <
b0 =
b0 >
b0 ?
b0 @
b0 A
b0 B
b1 C
b0 D
b0 E
b0 F
b0 G
b0 H
b0 I
b1 J
b1 K
