examples/vcd-dumps/scan-altera.vcd
$date
	Thu Jul  8 09:58:09 2021
$end
$version
	GTKWave Analyzer v3.3.107 (w)1999-2020 BSI
$end
$timescale
	4000ps
$end
$var wire 1 E main_jtag_phy_update_ir $end
$var wire 1 4 main_jtag_phy_sel $end
$var wire 16 # main_jtag_hello_tck_cnt[15:0] $end
$var wire 1 ( main_jtag_phy_capture_dr $end
$var wire 1 / main_jtag_phy_pause_dr $end
$var wire 1 * main_jtag_phy_drck $end
$var wire 1 ? main_jtag_phy_tdouser $end
$var wire 1 A main_jtag_phy_tmscore $end
$var wire 1 B main_jtag_phy_tmsutap $end
$var wire 1 C main_jtag_phy_update $end
$var wire 1 F scope_clk $end
$var wire 1 3 main_jtag_phy_runtest $end
$var wire 1 1 main_jtag_phy_reset $end
$var wire 1 % main_jtag_phy_altera_reserved_tdi $end
$var wire 1 G scope_trig $end
$var wire 1 9 main_jtag_phy_shift_ir $end
$var wire 1 > main_jtag_phy_tdiutap $end
$var wire 1 ' main_jtag_phy_capture $end
$var wire 1 D main_jtag_phy_update_dr $end
$var wire 1 & main_jtag_phy_altera_reserved_tms $end
$var wire 1 $ main_jtag_phy_altera_reserved_tck $end
$var wire 1 0 main_jtag_phy_pause_ir $end
$var wire 1 " main_jtag_hello_buf $end
$var wire 1 2 main_jtag_phy_run_test_idle $end
$var wire 1 ) main_jtag_phy_capture_ir $end
$var wire 1 + main_jtag_phy_exit1_dr $end
$var wire 1 7 main_jtag_phy_shift $end
$var wire 1 @ main_jtag_phy_test_logic_reset $end
$var wire 16 : main_jtag_phy_tck_cnt[15:0] $end
$var wire 1 < main_jtag_phy_tckutap $end
$var wire 1 = main_jtag_phy_tdicore $end
$var wire 1 . main_jtag_phy_exit2_ir $end
$var wire 1 6 main_jtag_phy_select_ir_scan $end
$var wire 1 8 main_jtag_phy_shift_dr $end
$var wire 1 ; main_jtag_phy_tckcore $end
$var wire 1 5 main_jtag_phy_select_dr_scan $end
$var wire 1 , main_jtag_phy_exit1_ir $end
$var wire 1 - main_jtag_phy_exit2_dr $end
$enddefinitions $end
#0
$dumpvars
0=
00
0,
06
0(
0E
14
0.
0A
09
05
0;
0>
08
0'
0B
1F
0/
0D
0-
0$
0C
0&
0<
01
1*
1"
b1 #
0)
13
12
0G
1?
0+
07
b10000101001110 :
0%
0@
$end
#1
0F
#2
1F
#3
0F
#4
1F
#5
0F
#6
1F
#7
0F
#8
1F
#9
0F
#10
1F
#11
0F
#12
1F
#13
0F
#14
1F
#15
0F
#16
1F
#17
0F
#18
1F
#19
0F
#20
1F
#21
0F
#22
1F
#23
0F
#24
1F
#25
0F
#26
1F
#27
0F
#28
1F
#29
0F
#30
1F
#31
0F
#32
1F
1G
#33
0F
#34
1F
#35
0F
#36
1F
#37
0F
#38
1F
#39
0F
#40
1F
#41
0F
#42
1F
#43
0F
#44
1F
#45
0F
#46
1F
#47
0F
#48
1F
#49
0F
#50
1F
#51
0F
#52
1F
#53
0F
#54
1F
#55
0F
#56
1F
#57
0F
#58
1F
1&
#59
0F
#60
1F
1B
#61
0F
#62
1F
#63
0F
#64
1F
15
1$
1<
b10 #
0"
b10000101001111 :
03
02
0?
#65
0F
#66
1F
#67
0F
#68
1F
0B
0<
0$
0&
#69
0F
#70
1F
#71
0F
#72
1F
1?
1(
05
1$
1<
1"
b11 #
b10000101010000 :
#73
0F
#74
1F
#75
0F
#76
1F
0*
0$
0<
#77
0F
#78
1F
#79
0F
#80
1F
b10000101010001 :
0(
18
0?
1<
b100 #
1$
0"
1*
#81
0F
#82
1F
#83
0F
#84
1F
0*
0$
0<
17
#85
0F
#86
1F
#87
0F
#88
1F
#89
0F
#90
1F
#91
0F
#92
1F
1>
1%
#93
0F
#94
1F
#95
0F
#96
1F
b10000101010011 :
1<
1$
1*
b101 #
#97
0F
#98
1F
1?
1"
b10000101010010 :
#99
0F
#100
1F
0$
0<
#101
0F
#102
1F
0*
#103
0F
#104
1F
1<
1$
#105
0F
#106
1F
b110 #
1*
0"
b10000101010011 :
0?
#107
0F
#108
1F
#109
0F
#110
1F
0$
0<
0*
#111
0F
#112
1F
#113
0F
#114
1F
1?
1*
b10000101010100 :
1<
1"
1$
b111 #
#115
0F
#116
1F
#117
0F
#118
1F
0$
0*
0<
#119
0F
#120
1F
#121
0F
#122
1F
b1000 #
1<
0?
1*
0"
1$
b10000101010101 :
#123
0F
#124
1F
#125
0F
#126
1F
0%
0$
0<
0>
0*
#127
0F
#128
1F
#129
0F
#130
1F
1*
b10000101010110 :
b1001 #
1<
1"
1$
1?
#131
0F
#132
1F
#133
0F
#134
1F
0*
0$
1>
1%
0<
#135
0F
#136
1F
#137
0F
#138
1F
1<
1*
b10000101010111 :
1$
b1010 #
#139
0F
#140
1F
#141
0F
#142
1F
0$
0*
0<
#143
0F
#144
1F
#145
0F
#146
1F
b1011 #
1<
1*
1$
b10000101011101 :
#147
0F
#148
1F
b10000101011000 :
#149
0F
#150
1F
0$
0<
#151
0F
#152
1F
0*
#153
0F
#154
1F
1<
1$
#155
0F
#156
1F
b10000101011001 :
1*
b1100 #
#157
0F
#158
1F
0%
#159
0F
#160
1F
0*
0>
0$
0<
#161
0F
#162
1F
#163
0F
#164
1F
b1101 #
1<
1$
b10000101011010 :
1*
#165
0F
#166
1F
#167
0F
#168
1F
0*
1%
0$
0<
1>
#169
0F
#170
1F
#171
0F
#172
1F
1<
b10000101011011 :
1$
b1110 #
1*
#173
0F
#174
1F
#175
0F
#176
1F
0*
0$
0<
#177
0F
#178
1F
#179
0F
#180
1F
1<
b1111 #
1$
1*
b10000101011100 :
#181
0F
#182
1F
#183
0F
#184
1F
0*
0$
0<
#185
0F
#186
1F
#187
0F
#188
1F
1<
b10000101011101 :
1$
1*
b10000 #
#189
0F
#190
1F
#191
0F
#192
1F
0*
0$
0<
#193
0F
#194
1F
#195
0F
#196
1F
1<
b10001 #
1$
1*
b10000101011111 :
#197
0F
#198
1F
0?
b10000101011110 :
0"
#199
0F
#200
1F
0$
0<
#201
0F
#202
1F
0*
#203
0F
#204
1F
1<
1$
#205
0F
#206
1F
1*
b10000101011111 :
b10010 #
#207
0F
#208
1F
0%
#209
0F
#210
1F
0>
0$
0<
0*
#211
0F
#212
1F
#213
0F
#214
1F
1*
1<
1$
b10011 #
b10000101100000 :
#215
0F
#216
1F
#217
0F
#218
1F
1%
0$
0*
0<
1>
#219
0F
#220
1F
#221
0F
#222
1F
b10000101100001 :
b10100 #
1<
1*
1$
#223
0F
#224
1F
#225
0F
#226
1F
0$
0*
0<
#227
0F
#228
1F
#229
0F
#230
1F
1<
1*
1$
b10000101100010 :
b10101 #
#231
0F
#232
1F
#233
0F
#234
1F
0>
0$
0<
0*
0%
#235
0F
#236
1F
#237
0F
#238
1F
b10110 #
b10000101100011 :
1*
1<
1$
#239
0F
#240
1F
#241
0F
#242
1F
0$
0<
1%
0*
1>
#243
0F
#244
1F
#245
0F
#246
1F
1*
1$
b10111 #
1<
b10000101100000 :
#247
0F
#248
1F
b10000101100100 :
#249
0F
#250
1F
0<
0$
0*
#251
0F
#252
1F
#253
0F
#254
1F
1$
1<
#255
0F
#256
1F
b10000101100101 :
1*
b11000 #
#257
0F
#258
1F
0%
#259
0F
#260
1F
0>
0<
0*
0$
#261
0F
#262
1F
#263
0F
#264
1F
1$
1*
1<
b11001 #
b10000101100110 :
#265
0F
#266
1F
#267
0F
#268
1F
1%
0<
0$
0*
1>
#269
0F
#270
1F
#271
0F
#272
1F
b10000101100111 :
1"
b11010 #
1*
1$
1?
1<
#273
0F
#274
1F
#275
0F
#276
1F
0<
0>
0$
0*
0%
#277
0F
#278
1F
#279
0F
#280
1F
b10000101101000 :
1*
0?
1$
b11011 #
0"
1<
#281
0F
#282
1F
#283
0F
#284
1F
0<
1%
0*
0$
1>
#285
0F
#286
1F
#287
0F
#288
1F
1<
1$
b10000101101001 :
1*
b11100 #
1?
1"
