dram-tests/vcd-dumps/good-128-bit-read.vcd
$date
	Fri Sep  3 17:03:43 2021
$end
$version
	GTKWave Analyzer v3.3.107 (w)1999-2020 BSI
$end
$timescale
	4000ps
$end
$var wire 1 ) main_a7ddrphy_dfi_p0_ras_n $end
$var wire 1 ' main_a7ddrphy_dfi_p0_cs_n $end
$var wire 1 % main_a7ddrphy_dfi_p0_cas_n $end
$var wire 1 & main_a7ddrphy_dfi_p0_cke $end
$var wire 1 n main_fdp_dwc_rdata_valid $end
$var wire 32 { main_flash_dram_readback_word_storage[31:0] $end
$var wire 1 . main_a7ddrphy_dfi_p0_we_n $end
$var wire 4 a main_a7ddrphy_dfi_p3_wrdata_mask[3:0] $end
$var wire 1 - main_a7ddrphy_dfi_p0_reset_n $end
$var wire 14 # main_a7ddrphy_dfi_p0_address[13:0] $end
$var wire 3 $ main_a7ddrphy_dfi_p0_bank[2:0] $end
$var wire 1 k main_fdp_dwc_rdata_first $end
$var wire 1 ( main_a7ddrphy_dfi_p0_odt $end
$var wire 1 l main_fdp_dwc_rdata_last $end
$var wire 8 z main_flash_dram_rdc_tmp[7:0] $end
$var wire 1 m main_fdp_dwc_rdata_ready $end
$var wire 26 d main_fdp_dwc_cmd_addr[25:0] $end
$var wire 32 ? main_a7ddrphy_dfi_p1_wrdata[31:0] $end
$var wire 1 i main_fdp_dwc_cmd_we $end
$var wire 1 M main_a7ddrphy_dfi_p2_reset_n $end
$var wire 1 p main_fdp_dwc_wdata_first $end
$var wire 1 2 main_a7ddrphy_dfi_p1_act_n $end
$var wire 1 \ main_a7ddrphy_dfi_p3_rddata_valid $end
$var wire 1 x main_flash_dram_go_storage $end
$var wire 6 b main_ctrl_fsm_next_state[5:0] $end
$var wire 1 "! main_flash_dram_rd_launch_flag $end
$var wire 1 $! main_flash_dram_wr_launch_flag $end
$var wire 1 f main_fdp_dwc_cmd_last $end
$var wire 1 )! scope_trig $end
$var wire 1 = main_a7ddrphy_dfi_p1_reset_n $end
$var wire 1 P main_a7ddrphy_dfi_p2_wrdata_en $end
$var wire 1 8 main_a7ddrphy_dfi_p1_odt $end
$var wire 1 6 main_a7ddrphy_dfi_p1_cke $end
$var wire 32 _ main_a7ddrphy_dfi_p3_wrdata[31:0] $end
$var wire 1 ] main_a7ddrphy_dfi_p3_reset_n $end
$var wire 1 X main_a7ddrphy_dfi_p3_odt $end
$var wire 1 ^ main_a7ddrphy_dfi_p3_we_n $end
$var wire 1 R main_a7ddrphy_dfi_p3_act_n $end
$var wire 14 S main_a7ddrphy_dfi_p3_address[13:0] $end
$var wire 1 ; main_a7ddrphy_dfi_p1_rddata_en $end
$var wire 1 F main_a7ddrphy_dfi_p2_cke $end
$var wire 32 : main_a7ddrphy_dfi_p1_rddata[31:0] $end
$var wire 1 s main_fdp_dwc_wdata_valid $end
$var wire 1 #! main_flash_dram_wr_land_flag $end
$var wire 32 v main_flash_dram_fa_tmp[31:0] $end
$var wire 14 C main_a7ddrphy_dfi_p2_address[13:0] $end
$var wire 1 Y main_a7ddrphy_dfi_p3_ras_n $end
$var wire 1 L main_a7ddrphy_dfi_p2_rddata_valid $end
$var wire 1 K main_a7ddrphy_dfi_p2_rddata_en $end
$var wire 1 > main_a7ddrphy_dfi_p1_we_n $end
$var wire 1 U main_a7ddrphy_dfi_p3_cas_n $end
$var wire 1 u main_flash_dram_combo_trigger $end
$var wire 1 e main_fdp_dwc_cmd_first $end
$var wire 1 B main_a7ddrphy_dfi_p2_act_n $end
$var wire 1 9 main_a7ddrphy_dfi_p1_ras_n $end
$var wire 1 E main_a7ddrphy_dfi_p2_cas_n $end
$var wire 1 (! scope_clk $end
$var wire 6 c main_ctrl_fsm_state[5:0] $end
$var wire 32 j main_fdp_dwc_rdata_data[31:0] $end
$var wire 1 } main_flash_dram_idle_flag $end
$var wire 1 5 main_a7ddrphy_dfi_p1_cas_n $end
$var wire 3 4 main_a7ddrphy_dfi_p1_bank[2:0] $end
$var wire 32 O main_a7ddrphy_dfi_p2_wrdata[31:0] $end
$var wire 14 3 main_a7ddrphy_dfi_p1_address[13:0] $end
$var wire 32 J main_a7ddrphy_dfi_p2_rddata[31:0] $end
$var wire 1 [ main_a7ddrphy_dfi_p3_rddata_en $end
$var wire 1 g main_fdp_dwc_cmd_ready $end
$var wire 1 N main_a7ddrphy_dfi_p2_we_n $end
$var wire 1 !! main_flash_dram_rd_land_flag $end
$var wire 1 h main_fdp_dwc_cmd_valid $end
$var wire 1 r main_fdp_dwc_wdata_ready $end
$var wire 1 '! main_trace_sig $end
$var wire 1 | main_flash_dram_reset $end
$var wire 32 Z main_a7ddrphy_dfi_p3_rddata[31:0] $end
$var wire 8 y main_flash_dram_rd_cnt_storage[7:0] $end
$var wire 4 t main_fdp_dwc_wdata_we[3:0] $end
$var wire 1 &! main_lock $end
$var wire 32 w main_flash_dram_fill_addr_storage[31:0] $end
$var wire 4 Q main_a7ddrphy_dfi_p2_wrdata_mask[3:0] $end
$var wire 1 I main_a7ddrphy_dfi_p2_ras_n $end
$var wire 1 @ main_a7ddrphy_dfi_p1_wrdata_en $end
$var wire 1 %! main_flush $end
$var wire 1 , main_a7ddrphy_dfi_p0_rddata_valid $end
$var wire 1 ` main_a7ddrphy_dfi_p3_wrdata_en $end
$var wire 1 q main_fdp_dwc_wdata_last $end
$var wire 1 7 main_a7ddrphy_dfi_p1_cs_n $end
$var wire 32 * main_a7ddrphy_dfi_p0_rddata[31:0] $end
$var wire 3 T main_a7ddrphy_dfi_p3_bank[2:0] $end
$var wire 1 W main_a7ddrphy_dfi_p3_cs_n $end
$var wire 1 + main_a7ddrphy_dfi_p0_rddata_en $end
$var wire 3 D main_a7ddrphy_dfi_p2_bank[2:0] $end
$var wire 4 1 main_a7ddrphy_dfi_p0_wrdata_mask[3:0] $end
$var wire 1 V main_a7ddrphy_dfi_p3_cke $end
$var wire 1 0 main_a7ddrphy_dfi_p0_wrdata_en $end
$var wire 32 / main_a7ddrphy_dfi_p0_wrdata[31:0] $end
$var wire 1 " main_a7ddrphy_dfi_p0_act_n $end
$var wire 1 < main_a7ddrphy_dfi_p1_rddata_valid $end
$var wire 1 ~ main_flash_dram_reset_flag $end
$var wire 1 H main_a7ddrphy_dfi_p2_odt $end
$var wire 4 A main_a7ddrphy_dfi_p1_wrdata_mask[3:0] $end
$var wire 1 G main_a7ddrphy_dfi_p2_cs_n $end
$var wire 32 o main_fdp_dwc_wdata_data[31:0] $end
$enddefinitions $end
#0
$dumpvars
b0 O
00
b101010000 S
0!!
b0 3
1&
1)
0'
18
b1111 a
0m
1N
0[
b0 J
16
b0 _
0g
b0 d
0&!
0'!
1r
1]
0h
1X
1-
b0 ?
b0 t
b0 Z
1|
1^
0R
b11 y
0i
1Y
0q
1I
0n
b10101010101000 w
b1111 Q
0;
b101010000 #
1M
0`
0%!
0@
1F
b0 :
0,
0p
1V
b101 T
b0 *
0s
07
0#!
b101 $
02
b1111 1
0+
0W
b0 v
b0 C
b0 D
0\
b0 4
0$!
b1111 A
0"
b0 {
b0 /
1%
0L
0k
0x
1>
1~
0<
0K
b1 b
1H
0e
b0 o
0G
1U
0u
1(
0"!
0P
1(!
1.
0B
19
1E
0l
0f
15
b0 j
0)!
b0 c
0}
b0 z
1=
$end
#1
0(!
#2
1(!
#3
0(!
#4
1(!
1'!
0|
1u
#5
0(!
#6
1(!
0~
b10 b
b1 c
#7
0(!
#8
1(!
b10 c
b11 b
#9
0(!
#10
1(!
b100 b
b11 c
#11
0(!
#12
1(!
b100 c
b101 b
#13
0(!
#14
1(!
b110 b
b101 c
#15
0(!
#16
1(!
b110 c
b111 b
#17
0(!
#18
1(!
b1000 b
b111 c
#19
0(!
#20
1(!
b1000 c
b1001 b
#21
0(!
#22
1(!
b1010 b
b1001 c
#23
0(!
#24
1(!
b1010 c
b1011 b
#25
0(!
#26
1(!
b1100 b
b1011 c
#27
0(!
#28
1(!
b1100 c
b1101 b
#29
0(!
#30
1(!
b1110 b
b1101 c
#31
0(!
#32
1(!
b1110 c
b1111 b
1)!
#33
0(!
#34
1(!
b10000 b
b1111 c
#35
0(!
#36
1(!
b10000 c
b10001 b
1}
#37
0(!
#38
1(!
b10101010101000 v
0}
b10010 b
b10001 c
b11 z
#39
0(!
#40
1(!
b10010 c
b10011 b
#41
0(!
#42
1(!
b10100 b
b10011 c
#43
0(!
#44
1(!
b10100 c
b10101 b
#45
0(!
#46
1(!
b10110 b
b10101 c
#47
0(!
#48
1(!
b10110 c
b10111 b
#49
0(!
#50
1(!
b11000 b
b10111 c
#51
0(!
#52
1(!
b11000 c
b11001 b
#53
0(!
#54
1(!
b11010 b
b11001 c
#55
0(!
#56
1(!
b11010 c
b11011 b
#57
0(!
#58
1(!
b11100 b
b11011 c
#59
0(!
#60
1(!
b11100 c
b11101 b
#61
0(!
#62
1(!
b11110 b
b11101 c
#63
0(!
#64
1(!
b11110 c
b11111 b
#65
0(!
#66
1(!
b100000 b
b11111 c
#67
0(!
#68
1(!
b10101010101000 d
1g
1h
b100000 c
1"!
#69
0(!
#70
1(!
0g
b10101010101001 d
b10101010101001 w
b10 y
#71
0(!
#72
1(!
#73
0(!
#74
1(!
1g
#75
0(!
#76
1(!
b10101010101010 w
b1 y
b10101010101010 d
#77
0(!
#78
1(!
b10101010101011 d
b0 y
b10101010101011 w
b100001 b
#79
0(!
#80
1(!
0g
b10 S
1!!
1m
0"!
b11 y
b0 d
0Y
b10 #
b10101010101100 w
b100001 c
0h
#81
0(!
#82
1(!
1Y
b101010000 S
b101010000 #
#83
0(!
#84
1(!
#85
0(!
#86
1(!
1+
0%
#87
0(!
#88
1(!
1%
0+
#89
0(!
#90
1(!
#91
0(!
#92
1(!
#93
0(!
#94
1(!
#95
0(!
#96
1(!
#97
0(!
#98
1(!
#99
0(!
#100
1(!
#101
0(!
#102
1(!
b11011110101011011011111011110001 J
b11011110101011011011111011110010 Z
b11011110101011011011111011110000 :
1,
b11011110101011011011111011101111 *
1\
1<
1L
#103
0(!
#104
1(!
0L
0,
b0 :
1n
b0 Z
b0 J
0<
0\
b1101111010101101 *
b11011110101011011011111011101111 j
#105
0(!
#106
1(!
b11011110101011011011111011110000 j
b10 y
b0 *
b11011110101011011011111011101111 {
#107
0(!
#108
1(!
b11011110101011011011111011110000 {
b11011110101011011011111011110001 j
b1 y
#109
0(!
#110
1(!
b0 y
b0 b
b11011110101011011011111011110001 {
b11011110101011011011111011110010 j
#111
0(!
#112
1(!
b0 j
b1 b
0!!
b11 y
0n
0m
b11011110101011011011111011110010 {
b10101010101000 w
b0 c
1~
#113
0(!
#114
1(!
0~
b10 b
b1 c
#115
0(!
#116
1(!
b10 c
b11 b
#117
0(!
#118
1(!
b100 b
b11 c
#119
0(!
#120
1(!
b100 c
b101 b
#121
0(!
#122
1(!
b110 b
b101 c
#123
0(!
#124
1(!
b110 c
b111 b
#125
0(!
#126
1(!
b1000 b
b111 c
#127
0(!
#128
1(!
b1000 c
b1001 b
#129
0(!
#130
1(!
b1010 b
b1001 c
#131
0(!
#132
1(!
b1010 c
b1011 b
#133
0(!
#134
1(!
b1100 b
b1011 c
#135
0(!
#136
1(!
b1100 c
b1101 b
#137
0(!
#138
1(!
b1110 b
b1101 c
#139
0(!
#140
1(!
b1110 c
b1111 b
#141
0(!
#142
1(!
b10000 b
b1111 c
#143
0(!
#144
1(!
b10000 c
b10001 b
1}
#145
0(!
#146
1(!
0}
b10010 b
b10001 c
#147
0(!
#148
1(!
b10010 c
b10011 b
#149
0(!
#150
1(!
b10100 b
b10011 c
#151
0(!
#152
1(!
b10100 c
b10101 b
#153
0(!
#154
1(!
b10110 b
b10101 c
#155
0(!
#156
1(!
b10110 c
b10111 b
#157
0(!
#158
1(!
b11000 b
b10111 c
#159
0(!
#160
1(!
b11000 c
b11001 b
#161
0(!
#162
1(!
b11010 b
b11001 c
#163
0(!
#164
1(!
b11010 c
b11011 b
#165
0(!
#166
1(!
b11100 b
b11011 c
#167
0(!
#168
1(!
b11100 c
b11101 b
#169
0(!
#170
1(!
b11110 b
b11101 c
#171
0(!
#172
1(!
b11110 c
b11111 b
#173
0(!
#174
1(!
b100000 b
b11111 c
#175
0(!
#176
1(!
b100000 c
1g
1h
1"!
b10101010101000 d
#177
0(!
#178
1(!
b10101010101001 d
b10 y
0g
b10101010101001 w
#179
0(!
#180
1(!
1g
#181
0(!
#182
1(!
b10101010101010 w
b1 y
b10101010101010 d
#183
0(!
#184
1(!
b10101010101011 d
1+
b0 y
b10101010101011 w
0%
b100001 b
#185
0(!
#186
1(!
b11 y
0"!
b100001 c
0+
0h
1!!
b0 d
1%
0g
b10101010101100 w
1m
#187
0(!
#188
1(!
#189
0(!
#190
1(!
#191
0(!
#192
1(!
#193
0(!
#194
1(!
#195
0(!
#196
1(!
#197
0(!
#198
1(!
#199
0(!
#200
1(!
b11011110101011011011111011110010 Z
1L
b11011110101011011011111011110000 :
1,
b11011110101011011011111011101111 *
b11011110101011011011111011110001 J
1<
1\
#201
0(!
#202
1(!
0\
1n
b11011110101011011011111011101111 j
b0 :
0L
b0 Z
0<
b1101111010101101 *
0,
b0 J
#203
0(!
#204
1(!
b10 y
b11011110101011011011111011110000 j
b0 *
b11011110101011011011111011101111 {
#205
0(!
#206
1(!
b11011110101011011011111011110000 {
b1 y
b11011110101011011011111011110001 j
#207
0(!
#208
1(!
b11011110101011011011111011110010 j
b0 b
b11011110101011011011111011110001 {
b0 y
#209
0(!
#210
1(!
b11 y
b1 b
0m
0!!
b0 j
b0 c
1~
0n
b11011110101011011011111011110010 {
b10101010101000 w
#211
0(!
#212
1(!
0~
b10 b
b1 c
#213
0(!
#214
1(!
b10 c
b11 b
#215
0(!
#216
1(!
b100 b
b11 c
#217
0(!
#218
1(!
b100 c
b101 b
#219
0(!
#220
1(!
b110 b
b101 c
#221
0(!
#222
1(!
b110 c
b111 b
#223
0(!
#224
1(!
b1000 b
b111 c
#225
0(!
#226
1(!
b1000 c
b1001 b
#227
0(!
#228
1(!
b1010 b
b1001 c
#229
0(!
#230
1(!
b1010 c
b1011 b
#231
0(!
#232
1(!
b1100 b
b1011 c
#233
0(!
#234
1(!
b1100 c
b1101 b
#235
0(!
#236
1(!
b1110 b
b1101 c
#237
0(!
#238
1(!
b1110 c
b1111 b
#239
0(!
#240
1(!
b10000 b
b1111 c
#241
0(!
#242
1(!
b10000 c
b10001 b
1}
#243
0(!
#244
1(!
0}
b10001 c
b10010 b
#245
0(!
#246
1(!
b10011 b
b10010 c
#247
0(!
#248
1(!
b10011 c
b10100 b
#249
0(!
#250
1(!
b10101 b
b10100 c
#251
0(!
#252
1(!
b10101 c
b10110 b
#253
0(!
#254
1(!
b10111 b
b10110 c
#255
0(!
#256
1(!
b10111 c
b11000 b
#257
0(!
#258
1(!
b11001 b
b11000 c
#259
0(!
#260
1(!
b11001 c
b11010 b
#261
0(!
#262
1(!
b11011 b
b11010 c
#263
0(!
#264
1(!
b11011 c
b11100 b
#265
0(!
#266
1(!
b11101 b
b11100 c
#267
0(!
#268
1(!
b11101 c
b11110 b
#269
0(!
#270
1(!
b11111 b
b11110 c
#271
0(!
#272
1(!
b11111 c
b100000 b
#273
0(!
#274
1(!
1h
1"!
b100000 c
b10101010101000 d
1g
#275
0(!
#276
1(!
0g
b10101010101001 w
b10 y
b10101010101001 d
#277
0(!
#278
1(!
1g
#279
0(!
#280
1(!
b10101010101010 d
b10101010101010 w
b1 y
#281
0(!
#282
1(!
b0 y
b10101010101011 d
b100001 b
1+
b10101010101011 w
0%
#283
0(!
#284
1(!
1%
0g
b0 d
0h
1!!
1m
b11 y
b10101010101100 w
0"!
0+
b100001 c
#285
0(!
#286
1(!
#287
0(!
#288
1(!
#289
0(!
#290
1(!
#291
0(!
#292
1(!
#293
0(!
#294
1(!
#295
0(!
#296
1(!
#297
0(!
#298
1(!
1\
b11011110101011011011111011110001 J
1L
b11011110101011011011111011110000 :
1<
b11011110101011011011111011110010 Z
b11011110101011011011111011101111 *
1,
#299
0(!
#300
1(!
0,
0L
0\
b0 J
b11011110101011011011111011101111 j
b1101111010101101 *
b0 :
1n
b0 Z
0<
#301
0(!
#302
1(!
b0 *
b11011110101011011011111011110000 j
b10 y
b11011110101011011011111011101111 {
#303
0(!
#304
1(!
b11011110101011011011111011110000 {
b1 y
b11011110101011011011111011110001 j
#305
0(!
#306
1(!
b0 b
b11011110101011011011111011110010 j
b0 y
b11011110101011011011111011110001 {
#307
0(!
#308
1(!
b11011110101011011011111011110010 {
0m
b0 c
1~
0!!
b11 y
b1 b
b0 j
0n
b10101010101000 w
#309
0(!
#310
1(!
0~
b1 c
b10 b
#311
0(!
#312
1(!
b11 b
b10 c
#313
0(!
#314
1(!
b11 c
b100 b
#315
0(!
#316
1(!
b101 b
b100 c
#317
0(!
#318
1(!
b101 c
b110 b
#319
0(!
#320
1(!
b111 b
b110 c
#321
0(!
#322
1(!
b111 c
b1000 b
#323
0(!
#324
1(!
b1001 b
b1000 c
#325
0(!
#326
1(!
b1001 c
b1010 b
#327
0(!
#328
1(!
b1011 b
b1010 c
#329
0(!
#330
1(!
b1011 c
b1100 b
#331
0(!
#332
1(!
b1101 b
b1100 c
#333
0(!
#334
1(!
b1101 c
b1110 b
#335
0(!
#336
1(!
b1111 b
b1110 c
#337
0(!
#338
1(!
b1111 c
b10000 b
#339
0(!
#340
1(!
b10001 b
1}
b10000 c
#341
0(!
#342
1(!
b10001 c
b10010 b
0}
#343
0(!
#344
1(!
b10010 c
b10011 b
#345
0(!
#346
1(!
b10100 b
b10011 c
#347
0(!
#348
1(!
b10100 c
b10101 b
#349
0(!
#350
1(!
b10110 b
b10101 c
#351
0(!
#352
1(!
b10110 c
b10111 b
#353
0(!
#354
1(!
b11000 b
b10111 c
#355
0(!
#356
1(!
b11000 c
b11001 b
#357
0(!
#358
1(!
b11010 b
b11001 c
#359
0(!
#360
1(!
b11010 c
b11011 b
#361
0(!
#362
1(!
b11100 b
b11011 c
#363
0(!
#364
1(!
b11100 c
b11101 b
#365
0(!
#366
1(!
b11110 b
b11101 c
#367
0(!
#368
1(!
b11110 c
b11111 b
#369
0(!
#370
1(!
b100000 b
b11111 c
#371
0(!
#372
1(!
b100000 c
b10101010101000 d
1g
1h
1"!
#373
0(!
#374
1(!
b10101010101001 w
0g
b10101010101001 d
b10 y
#375
0(!
#376
1(!
1g
#377
0(!
#378
1(!
b1 y
b10101010101010 w
b10101010101010 d
#379
0(!
#380
1(!
b10101010101011 d
b0 y
0%
b10101010101011 w
1+
b100001 b
#381
0(!
#382
1(!
0"!
b11 y
b0 d
0g
b100001 c
1m
0+
1%
1!!
b10101010101100 w
0h
#383
0(!
#384
1(!
b11011110101011011011111011101111 j
#385
0(!
#386
1(!
#387
0(!
#388
1(!
#389
0(!
#390
1(!
#391
0(!
#392
1(!
#393
0(!
#394
1(!
#395
0(!
#396
1(!
1<
b11011110101011011011111011110001 J
1,
1\
1L
b11011110101011011011111011101111 *
b11011110101011011011111011110010 Z
b11011110101011011011111011110000 :
#397
0(!
#398
1(!
b0 :
0\
0<
0,
b0 J
b0 Z
0L
b1101111010101101 *
1n
#399
0(!
#400
1(!
b11011110101011011011111011101111 {
b10 y
b0 *
b11011110101011011011111011110000 j
#401
0(!
#402
1(!
b11011110101011011011111011110001 j
b11011110101011011011111011110000 {
b1 y
#403
0(!
#404
1(!
b0 y
b0 b
b11011110101011011011111011110010 j
b11011110101011011011111011110001 {
#405
0(!
#406
1(!
b11011110101011011011111011110010 {
b1 b
0n
b11 y
b0 c
1~
b0 j
0m
b10101010101000 w
0!!
#407
0(!
#408
1(!
b1 c
b10 b
0~
#409
0(!
#410
1(!
b10 c
b11 b
#411
0(!
#412
1(!
b100 b
b11 c
#413
0(!
#414
1(!
b100 c
b101 b
#415
0(!
#416
1(!
b110 b
b101 c
#417
0(!
#418
1(!
b110 c
b111 b
#419
0(!
#420
1(!
b1000 b
b111 c
#421
0(!
#422
1(!
b1000 c
b1001 b
#423
0(!
#424
1(!
b1010 b
b1001 c
#425
0(!
#426
1(!
b1010 c
b1011 b
#427
0(!
#428
1(!
b1100 b
b1011 c
#429
0(!
#430
1(!
b1100 c
b1101 b
#431
0(!
#432
1(!
b1110 b
b1101 c
#433
0(!
#434
1(!
b1110 c
b1111 b
#435
0(!
#436
1(!
b10000 b
b1111 c
#437
0(!
#438
1(!
b10000 c
1}
b10001 b
#439
0(!
#440
1(!
b10010 b
b10001 c
0}
#441
0(!
#442
1(!
b10011 b
b10010 c
#443
0(!
#444
1(!
b10011 c
b10100 b
#445
0(!
#446
1(!
b10101 b
b10100 c
#447
0(!
#448
1(!
b10101 c
b10110 b
#449
0(!
#450
1(!
b10111 b
b10110 c
#451
0(!
#452
1(!
b10111 c
b11000 b
#453
0(!
#454
1(!
b11001 b
b11000 c
#455
0(!
#456
1(!
b11001 c
b11010 b
#457
0(!
#458
1(!
b11011 b
b11010 c
#459
0(!
#460
1(!
b11011 c
b11100 b
#461
0(!
#462
1(!
b11101 b
b11100 c
#463
0(!
#464
1(!
b11101 c
b11110 b
#465
0(!
#466
1(!
b11111 b
b11110 c
#467
0(!
#468
1(!
b11111 c
b100000 b
#469
0(!
#470
1(!
1h
1g
1"!
b10101010101000 d
b100000 c
#471
0(!
#472
1(!
0g
b10 y
b10101010101001 d
b10101010101001 w
#473
0(!
#474
1(!
1g
#475
0(!
#476
1(!
b10101010101010 w
b10101010101010 d
b1 y
#477
0(!
#478
1(!
b0 y
b100001 b
b10101010101011 d
b10101010101011 w
1+
0%
#479
0(!
#480
1(!
1%
b11 y
1!!
0g
b100001 c
0"!
0h
0+
b0 d
b10101010101100 w
1m
#481
0(!
#482
1(!
b11011110101011011011111011101111 j
#483
0(!
#484
1(!
#485
0(!
#486
1(!
#487
0(!
#488
1(!
#489
0(!
#490
1(!
#491
0(!
#492
1(!
#493
0(!
#494
1(!
1,
b11011110101011011011111011110000 :
1<
1\
b11011110101011011011111011110001 J
b11011110101011011011111011101111 *
1L
b11011110101011011011111011110010 Z
#495
0(!
#496
1(!
b0 Z
0<
b0 :
1n
0,
0L
0\
b1101111010101101 *
b0 J
#497
0(!
#498
1(!
b11011110101011011011111011101111 {
b10 y
b0 *
b11011110101011011011111011110000 j
#499
0(!
#500
1(!
b11011110101011011011111011110001 j
b11011110101011011011111011110000 {
b1 y
#501
0(!
#502
1(!
b0 y
b11011110101011011011111011110010 j
b11011110101011011011111011110001 {
b0 b
#503
0(!
#504
1(!
b1 b
0n
0m
b11 y
1~
0!!
b0 c
b11011110101011011011111011110010 {
b0 j
b10101010101000 w
#505
0(!
#506
1(!
b10 b
0~
b1 c
#507
0(!
#508
1(!
b10 c
b11 b
#509
0(!
#510
1(!
b100 b
b11 c
#511
0(!
#512
1(!
b100 c
b101 b
#513
0(!
#514
1(!
b110 b
b101 c
#515
0(!
#516
1(!
b110 c
b111 b
#517
0(!
#518
1(!
b1000 b
b111 c
#519
0(!
#520
1(!
b1000 c
b1001 b
#521
0(!
#522
1(!
b1010 b
b1001 c
#523
0(!
#524
1(!
b1010 c
b1011 b
#525
0(!
#526
1(!
b1100 b
b1011 c
#527
0(!
#528
1(!
b1100 c
b1101 b
#529
0(!
#530
1(!
b1110 b
b1101 c
#531
0(!
#532
1(!
b1110 c
b1111 b
#533
0(!
#534
1(!
b10000 b
b1111 c
#535
0(!
#536
1(!
b10000 c
1}
b10001 b
#537
0(!
#538
1(!
b10010 b
0}
b10001 c
#539
0(!
#540
1(!
b10010 c
b10011 b
#541
0(!
#542
1(!
b10100 b
b10011 c
#543
0(!
#544
1(!
b10100 c
b10101 b
#545
0(!
#546
1(!
b10110 b
b10101 c
#547
0(!
#548
1(!
b10110 c
b10111 b
#549
0(!
#550
1(!
b11000 b
b10111 c
#551
0(!
#552
1(!
b11000 c
b11001 b
#553
0(!
#554
1(!
b11010 b
b11001 c
#555
0(!
#556
1(!
b11010 c
b11011 b
#557
0(!
#558
1(!
b11100 b
b11011 c
#559
0(!
#560
1(!
b11100 c
b11101 b
#561
0(!
#562
1(!
b11110 b
b11101 c
#563
0(!
#564
1(!
b11110 c
b11111 b
#565
0(!
#566
1(!
b100000 b
b11111 c
#567
0(!
#568
1(!
b100000 c
1"!
1g
1h
b10101010101000 d
#569
0(!
#570
1(!
b10101010101001 d
b10101010101001 w
b10 y
0g
#571
0(!
#572
1(!
1g
#573
0(!
#574
1(!
b10101010101010 w
b10101010101010 d
b1 y
#575
0(!
#576
1(!
b0 y
0%
b10101010101011 w
b100001 b
b10101010101011 d
1+
#577
0(!
#578
1(!
0+
b10101010101100 w
0g
0"!
1!!
1%
1m
b11 y
b100001 c
b0 d
0h
#579
0(!
#580
1(!
b11011110101011011011111011101111 j
#581
0(!
#582
1(!
#583
0(!
#584
1(!
#585
0(!
#586
1(!
#587
0(!
#588
1(!
#589
0(!
#590
1(!
#591
0(!
#592
1(!
b11011110101011011011111011110001 J
b11011110101011011011111011110000 :
b11011110101011011011111011110010 Z
1<
1,
b11011110101011011011111011101111 *
1\
1L
#593
0(!
#594
1(!
0L
b0 Z
b0 :
1n
b0 J
0\
0<
b1101111010101101 *
0,
#595
0(!
#596
1(!
b10 y
b0 *
b11011110101011011011111011110000 j
b11011110101011011011111011101111 {
#597
0(!
#598
1(!
b11011110101011011011111011110000 {
b11011110101011011011111011110001 j
b1 y
#599
0(!
#600
1(!
b0 y
b11011110101011011011111011110010 j
b11011110101011011011111011110001 {
b0 b
#601
0(!
#602
1(!
b1 b
b10101010101000 w
0n
0m
0!!
b11011110101011011011111011110010 {
b11 y
1~
b0 j
b0 c
#603
0(!
#604
1(!
b1 c
b10 b
0~
#605
0(!
#606
1(!
b10 c
b11 b
#607
0(!
#608
1(!
b100 b
b11 c
#609
0(!
#610
1(!
b100 c
b101 b
#611
0(!
#612
1(!
b110 b
b101 c
#613
0(!
#614
1(!
b110 c
b111 b
#615
0(!
#616
1(!
b1000 b
b111 c
#617
0(!
#618
1(!
b1000 c
b1001 b
#619
0(!
#620
1(!
b1010 b
b1001 c
#621
0(!
#622
1(!
b1010 c
b1011 b
#623
0(!
#624
1(!
b1100 b
b1011 c
#625
0(!
#626
1(!
b1100 c
b1101 b
#627
0(!
#628
1(!
b1110 b
b1101 c
#629
0(!
#630
1(!
b1110 c
b1111 b
#631
0(!
#632
1(!
b10000 b
b1111 c
#633
0(!
#634
1(!
b10000 c
1}
b10001 b
#635
0(!
#636
1(!
b10010 b
b10001 c
0}
#637
0(!
#638
1(!
b10011 b
b10010 c
#639
0(!
#640
1(!
b10011 c
b10100 b
#641
0(!
#642
1(!
b10101 b
b10100 c
#643
0(!
#644
1(!
b10101 c
b10110 b
#645
0(!
#646
1(!
b10111 b
b10110 c
#647
0(!
#648
1(!
b10111 c
b11000 b
#649
0(!
#650
1(!
b11001 b
b11000 c
#651
0(!
#652
1(!
b11001 c
b11010 b
#653
0(!
#654
1(!
b11011 b
b11010 c
#655
0(!
#656
1(!
b11011 c
b11100 b
#657
0(!
#658
1(!
b11101 b
b11100 c
#659
0(!
#660
1(!
b11101 c
b11110 b
#661
0(!
#662
1(!
b11111 b
b11110 c
#663
0(!
#664
1(!
b11111 c
b100000 b
#665
0(!
#666
1(!
1h
1g
1"!
b100000 c
b10101010101000 d
#667
0(!
#668
1(!
b10101010101001 d
0g
b10101010101001 w
b10 y
#669
0(!
#670
1(!
1g
#671
0(!
#672
1(!
b1 y
b10101010101010 d
b10101010101010 w
#673
0(!
#674
1(!
b10101010101011 w
b100001 b
1+
b0 y
0%
b10101010101011 d
#675
0(!
#676
1(!
b0 d
b11 y
b10101010101100 w
0g
1m
0+
0h
1%
0"!
1!!
b100001 c
#677
0(!
#678
1(!
b11011110101011011011111011101111 j
#679
0(!
#680
1(!
#681
0(!
#682
1(!
#683
0(!
#684
1(!
#685
0(!
#686
1(!
#687
0(!
#688
1(!
#689
0(!
#690
1(!
1,
b11011110101011011011111011110000 :
1L
b11011110101011011011111011110010 Z
b11011110101011011011111011110001 J
b11011110101011011011111011101111 *
1<
1\
#691
0(!
#692
1(!
0\
0L
b0 :
1n
0,
0<
b1101111010101101 *
b0 J
b0 Z
#693
0(!
#694
1(!
b10 y
b11011110101011011011111011110000 j
b11011110101011011011111011101111 {
b0 *
#695
0(!
#696
1(!
b11011110101011011011111011110000 {
b1 y
b11011110101011011011111011110001 j
#697
0(!
#698
1(!
b0 b
b11011110101011011011111011110010 j
b0 y
b11011110101011011011111011110001 {
#699
0(!
#700
1(!
b11011110101011011011111011110010 {
b10101010101000 w
b0 c
1~
0m
0n
b11 y
b1 b
b0 j
0!!
#701
0(!
#702
1(!
0~
b1 c
b10 b
#703
0(!
#704
1(!
b11 b
b10 c
#705
0(!
#706
1(!
b11 c
b100 b
#707
0(!
#708
1(!
b101 b
b100 c
#709
0(!
#710
1(!
b101 c
b110 b
#711
0(!
#712
1(!
b111 b
b110 c
#713
0(!
#714
1(!
b111 c
b1000 b
#715
0(!
#716
1(!
b1001 b
b1000 c
#717
0(!
#718
1(!
b1001 c
b1010 b
#719
0(!
#720
1(!
b1011 b
b1010 c
#721
0(!
#722
1(!
b1011 c
b1100 b
#723
0(!
#724
1(!
b1101 b
b1100 c
#725
0(!
#726
1(!
b1101 c
b1110 b
#727
0(!
#728
1(!
b1111 b
b1110 c
#729
0(!
#730
1(!
b1111 c
b10000 b
#731
0(!
#732
1(!
b10001 b
1}
b10000 c
#733
0(!
#734
1(!
b10001 c
b10010 b
0}
#735
0(!
#736
1(!
b10010 c
b10011 b
#737
0(!
#738
1(!
b10100 b
b10011 c
#739
0(!
#740
1(!
b10100 c
b10101 b
#741
0(!
#742
1(!
b10110 b
b10101 c
#743
0(!
#744
1(!
b10110 c
b10111 b
