dram-tests/vcd-dumps/good-128-bit-read-num2.vcd
$date
	2021-09-03 17:10
$end
$timescale 4000ps $end
$scope 1ps $end
$var wire 14 ! main_a7ddrphy_dfi_p0_address $end
$var wire 3 " main_a7ddrphy_dfi_p0_bank $end
$var wire 1 # main_a7ddrphy_dfi_p0_cas_n $end
$var wire 1 $ main_a7ddrphy_dfi_p0_cs_n $end
$var wire 1 % main_a7ddrphy_dfi_p0_ras_n $end
$var wire 1 & main_a7ddrphy_dfi_p0_we_n $end
$var wire 1 ' main_a7ddrphy_dfi_p0_cke $end
$var wire 1 ( main_a7ddrphy_dfi_p0_odt $end
$var wire 1 ) main_a7ddrphy_dfi_p0_reset_n $end
$var wire 1 * main_a7ddrphy_dfi_p0_act_n $end
$var wire 32 + main_a7ddrphy_dfi_p0_wrdata $end
$var wire 1 , main_a7ddrphy_dfi_p0_wrdata_en $end
$var wire 4 - main_a7ddrphy_dfi_p0_wrdata_mask $end
$var wire 1 . main_a7ddrphy_dfi_p0_rddata_en $end
$var wire 32 / main_a7ddrphy_dfi_p0_rddata $end
$var wire 1 0 main_a7ddrphy_dfi_p0_rddata_valid $end
$var wire 14 1 main_a7ddrphy_dfi_p1_address $end
$var wire 3 2 main_a7ddrphy_dfi_p1_bank $end
$var wire 1 3 main_a7ddrphy_dfi_p1_cas_n $end
$var wire 1 4 main_a7ddrphy_dfi_p1_cs_n $end
$var wire 1 5 main_a7ddrphy_dfi_p1_ras_n $end
$var wire 1 6 main_a7ddrphy_dfi_p1_we_n $end
$var wire 1 7 main_a7ddrphy_dfi_p1_cke $end
$var wire 1 8 main_a7ddrphy_dfi_p1_odt $end
$var wire 1 9 main_a7ddrphy_dfi_p1_reset_n $end
$var wire 1 : main_a7ddrphy_dfi_p1_act_n $end
$var wire 32 ; main_a7ddrphy_dfi_p1_wrdata $end
$var wire 1 < main_a7ddrphy_dfi_p1_wrdata_en $end
$var wire 4 = main_a7ddrphy_dfi_p1_wrdata_mask $end
$var wire 1 > main_a7ddrphy_dfi_p1_rddata_en $end
$var wire 32 ? main_a7ddrphy_dfi_p1_rddata $end
$var wire 1 @ main_a7ddrphy_dfi_p1_rddata_valid $end
$var wire 14 A main_a7ddrphy_dfi_p2_address $end
$var wire 3 B main_a7ddrphy_dfi_p2_bank $end
$var wire 1 C main_a7ddrphy_dfi_p2_cas_n $end
$var wire 1 D main_a7ddrphy_dfi_p2_cs_n $end
$var wire 1 E main_a7ddrphy_dfi_p2_ras_n $end
$var wire 1 F main_a7ddrphy_dfi_p2_we_n $end
$var wire 1 G main_a7ddrphy_dfi_p2_cke $end
$var wire 1 H main_a7ddrphy_dfi_p2_odt $end
$var wire 1 I main_a7ddrphy_dfi_p2_reset_n $end
$var wire 1 J main_a7ddrphy_dfi_p2_act_n $end
$var wire 32 K main_a7ddrphy_dfi_p2_wrdata $end
$var wire 1 L main_a7ddrphy_dfi_p2_wrdata_en $end
$var wire 4 M main_a7ddrphy_dfi_p2_wrdata_mask $end
$var wire 1 N main_a7ddrphy_dfi_p2_rddata_en $end
$var wire 32 O main_a7ddrphy_dfi_p2_rddata $end
$var wire 1 P main_a7ddrphy_dfi_p2_rddata_valid $end
$var wire 14 Q main_a7ddrphy_dfi_p3_address $end
$var wire 3 R main_a7ddrphy_dfi_p3_bank $end
$var wire 1 S main_a7ddrphy_dfi_p3_cas_n $end
$var wire 1 T main_a7ddrphy_dfi_p3_cs_n $end
$var wire 1 U main_a7ddrphy_dfi_p3_ras_n $end
$var wire 1 V main_a7ddrphy_dfi_p3_we_n $end
$var wire 1 W main_a7ddrphy_dfi_p3_cke $end
$var wire 1 X main_a7ddrphy_dfi_p3_odt $end
$var wire 1 Y main_a7ddrphy_dfi_p3_reset_n $end
$var wire 1 Z main_a7ddrphy_dfi_p3_act_n $end
$var wire 32 [ main_a7ddrphy_dfi_p3_wrdata $end
$var wire 1 \ main_a7ddrphy_dfi_p3_wrdata_en $end
$var wire 4 ] main_a7ddrphy_dfi_p3_wrdata_mask $end
$var wire 1 ^ main_a7ddrphy_dfi_p3_rddata_en $end
$var wire 32 _ main_a7ddrphy_dfi_p3_rddata $end
$var wire 1 ` main_a7ddrphy_dfi_p3_rddata_valid $end
$var wire 1 a main_flash_dram_combo_trigger $end
$var wire 32 b main_flash_dram_fa_tmp $end
$var wire 32 c main_flash_dram_fill_addr_storage $end
$var wire 1 d main_flash_dram_go_storage $end
$var wire 1 e main_flash_dram_idle_flag $end
$var wire 8 f main_flash_dram_rd_cnt_storage $end
$var wire 1 g main_flash_dram_rd_land_flag $end
$var wire 1 h main_flash_dram_rd_launch_flag $end
$var wire 8 i main_flash_dram_rdc_tmp $end
$var wire 32 j main_flash_dram_readback_word_storage $end
$var wire 1 k main_flash_dram_reset_flag $end
$var wire 1 l main_trace_sig $end
$var wire 1 m main_flash_dram_wr_land_flag $end
$var wire 1 n main_flash_dram_wr_launch_flag $end
$var wire 6 o main_ctrl_fsm_next_state $end
$var wire 1 p main_flash_dram_reset $end
$var wire 6 q main_ctrl_fsm_state $end
$var wire 1 r main_flush $end
$var wire 1 s main_lock $end
$var wire 1 t main_fdp_dwc_cmd_valid $end
$var wire 1 u main_fdp_dwc_cmd_ready $end
$var wire 1 v main_fdp_dwc_cmd_first $end
$var wire 1 w main_fdp_dwc_cmd_last $end
$var wire 1 x main_fdp_dwc_cmd_we $end
$var wire 26 y main_fdp_dwc_cmd_addr $end
$var wire 1 z main_fdp_dwc_rdata_valid $end
$var wire 1 { main_fdp_dwc_rdata_ready $end
$var wire 1 | main_fdp_dwc_rdata_first $end
$var wire 1 } main_fdp_dwc_rdata_last $end
$var wire 32 ~ main_fdp_dwc_rdata_data $end
$var wire 1 "! main_fdp_dwc_wdata_valid $end
$var wire 1 "" main_fdp_dwc_wdata_ready $end
$var wire 1 "# main_fdp_dwc_wdata_first $end
$var wire 1 "$ main_fdp_dwc_wdata_last $end
$var wire 32 "% main_fdp_dwc_wdata_data $end
$var wire 4 "& main_fdp_dwc_wdata_we $end
$var wire 1 "' scope_clk $end
$var wire 1 "( scope_trig $end
$unscope  $end
$enddefinitions  $end
$dumpvars
bxxxxxxxxxxxxxx !
bxxx "
bx #
bx $
bx %
bx &
bx '
bx (
bx )
bx *
bxxxxxxxxxxxxxxxxxxxxxxxxxxxxxxxx +
bx ,
bxxxx -
bx .
bxxxxxxxxxxxxxxxxxxxxxxxxxxxxxxxx /
bx 0
bxxxxxxxxxxxxxx 1
bxxx 2
bx 3
bx 4
bx 5
bx 6
bx 7
bx 8
bx 9
bx :
bxxxxxxxxxxxxxxxxxxxxxxxxxxxxxxxx ;
bx <
bxxxx =
bx >
bxxxxxxxxxxxxxxxxxxxxxxxxxxxxxxxx ?
bx @
bxxxxxxxxxxxxxx A
bxxx B
bx C
bx D
bx E
bx F
bx G
bx H
bx I
bx J
bxxxxxxxxxxxxxxxxxxxxxxxxxxxxxxxx K
bx L
bxxxx M
bx N
bxxxxxxxxxxxxxxxxxxxxxxxxxxxxxxxx O
bx P
bxxxxxxxxxxxxxx Q
bxxx R
bx S
bx T
bx U
bx V
bx W
bx X
bx Y
bx Z
bxxxxxxxxxxxxxxxxxxxxxxxxxxxxxxxx [
bx \
bxxxx ]
bx ^
bxxxxxxxxxxxxxxxxxxxxxxxxxxxxxxxx _
bx `
bx a
bxxxxxxxxxxxxxxxxxxxxxxxxxxxxxxxx b
bxxxxxxxxxxxxxxxxxxxxxxxxxxxxxxxx c
bx d
bx e
bxxxxxxxx f
bx g
bx h
bxxxxxxxx i
bxxxxxxxxxxxxxxxxxxxxxxxxxxxxxxxx j
bx k
bx l
bx m
bx n
bxxxxxx o
bx p
bxxxxxx q
bx r
bx s
bx t
bx u
bx v
bx w
bx x
bxxxxxxxxxxxxxxxxxxxxxxxxxx y
bx z
bx {
bx |
bx }
bxxxxxxxxxxxxxxxxxxxxxxxxxxxxxxxx ~
bx "!
bx ""
bx "#
bx "$
bxxxxxxxxxxxxxxxxxxxxxxxxxxxxxxxx "%
bxxxx "&
bx "'
bx "(
$end
#0
b00000101010000 !
b101 "
b1 #
b0 $
b1 %
b1 &
b1 '
b1 (
b1 )
b0 *
b00000000000000000000000000000000 +
b0 ,
b1111 -
b0 .
b00000000000000000000000000000000 /
b0 0
b00000000000000 1
b000 2
b1 3
b0 4
b1 5
b1 6
b1 7
b1 8
b1 9
b0 :
b00000000000000000000000000000000 ;
b0 <
b1111 =
b0 >
b00000000000000000000000000000000 ?
b0 @
b00000000000000 A
b000 B
b1 C
b0 D
b1 E
b1 F
b1 G
b1 H
b1 I
b0 J
b00000000000000000000000000000000 K
b0 L
b1111 M
b0 N
b00000000000000000000000000000000 O
b0 P
b00000101010000 Q
b101 R
b1 S
b0 T
b1 U
b1 V
b1 W
b1 X
b1 Y
b0 Z
b00000000000000000000000000000000 [
b0 \
b1111 ]
b0 ^
b00000000000000000000000000000000 _
b0 `
b0 a
b00000000000000000000000000000000 b
b00000000000000000010101010101000 c
b0 d
b0 e
b00000011 f
b0 g
b0 h
b00000000 i
b00000000000000000000000000000000 j
b1 k
b0 l
b0 m
b0 n
b000001 o
b1 p
b000000 q
b0 r
b0 s
b0 t
b0 u
b0 v
b0 w
b0 x
b00000000000000000000000000 y
b0 z
b0 {
b0 |
b0 }
b00000000000000000000000000000000 ~
b0 "!
b1 ""
b0 "#
b0 "$
b00000000000000000000000000000000 "%
b0000 "&
b1 "'
b0 "(
#1
b00000101010000 !
b101 "
b1 #
b0 $
b1 %
b1 &
b1 '
b1 (
b1 )
b0 *
b00000000000000000000000000000000 +
b0 ,
b1111 -
b0 .
b00000000000000000000000000000000 /
b0 0
b00000000000000 1
b000 2
b1 3
b0 4
b1 5
b1 6
b1 7
b1 8
b1 9
b0 :
b00000000000000000000000000000000 ;
b0 <
b1111 =
b0 >
b00000000000000000000000000000000 ?
b0 @
b00000000000000 A
b000 B
b1 C
b0 D
b1 E
b1 F
b1 G
b1 H
b1 I
b0 J
b00000000000000000000000000000000 K
b0 L
b1111 M
b0 N
b00000000000000000000000000000000 O
b0 P
b00000101010000 Q
b101 R
b1 S
b0 T
b1 U
b1 V
b1 W
b1 X
b1 Y
b0 Z
b00000000000000000000000000000000 [
b0 \
b1111 ]
b0 ^
b00000000000000000000000000000000 _
b0 `
b0 a
b00000000000000000000000000000000 b
b00000000000000000010101010101000 c
b0 d
b0 e
b00000011 f
b0 g
b0 h
b00000000 i
b00000000000000000000000000000000 j
b1 k
b0 l
b0 m
b0 n
b000001 o
b1 p
b000000 q
b0 r
b0 s
b0 t
b0 u
b0 v
b0 w
b0 x
b00000000000000000000000000 y
b0 z
b0 {
b0 |
b0 }
b00000000000000000000000000000000 ~
b0 "!
b1 ""
b0 "#
b0 "$
b00000000000000000000000000000000 "%
b0000 "&
b0 "'
b0 "(
#2
b00000101010000 !
b101 "
b1 #
b0 $
b1 %
b1 &
b1 '
b1 (
b1 )
b0 *
b00000000000000000000000000000000 +
b0 ,
b1111 -
b0 .
b00000000000000000000000000000000 /
b0 0
b00000000000000 1
b000 2
b1 3
b0 4
b1 5
b1 6
b1 7
b1 8
b1 9
b0 :
b00000000000000000000000000000000 ;
b0 <
b1111 =
b0 >
b00000000000000000000000000000000 ?
b0 @
b00000000000000 A
b000 B
b1 C
b0 D
b1 E
b1 F
b1 G
b1 H
b1 I
b0 J
b00000000000000000000000000000000 K
b0 L
b1111 M
b0 N
b00000000000000000000000000000000 O
b0 P
b00000101010000 Q
b101 R
b1 S
b0 T
b1 U
b1 V
b1 W
b1 X
b1 Y
b0 Z
b00000000000000000000000000000000 [
b0 \
b1111 ]
b0 ^
b00000000000000000000000000000000 _
b0 `
b0 a
b00000000000000000000000000000000 b
b00000000000000000010101010101000 c
b0 d
b0 e
b00000011 f
b0 g
b0 h
b00000000 i
b00000000000000000000000000000000 j
b1 k
b0 l
b0 m
b0 n
b000001 o
b1 p
b000000 q
b0 r
b0 s
b0 t
b0 u
b0 v
b0 w
b0 x
b00000000000000000000000000 y
b0 z
b0 {
b0 |
b0 }
b00000000000000000000000000000000 ~
b0 "!
b1 ""
b0 "#
b0 "$
b00000000000000000000000000000000 "%
b0000 "&
b1 "'
b0 "(
#3
b00000101010000 !
b101 "
b1 #
b0 $
b1 %
b1 &
b1 '
b1 (
b1 )
b0 *
b00000000000000000000000000000000 +
b0 ,
b1111 -
b0 .
b00000000000000000000000000000000 /
b0 0
b00000000000000 1
b000 2
b1 3
b0 4
b1 5
b1 6
b1 7
b1 8
b1 9
b0 :
b00000000000000000000000000000000 ;
b0 <
b1111 =
b0 >
b00000000000000000000000000000000 ?
b0 @
b00000000000000 A
b000 B
b1 C
b0 D
b1 E
b1 F
b1 G
b1 H
b1 I
b0 J
b00000000000000000000000000000000 K
b0 L
b1111 M
b0 N
b00000000000000000000000000000000 O
b0 P
b00000101010000 Q
b101 R
b1 S
b0 T
b1 U
b1 V
b1 W
b1 X
b1 Y
b0 Z
b00000000000000000000000000000000 [
b0 \
b1111 ]
b0 ^
b00000000000000000000000000000000 _
b0 `
b0 a
b00000000000000000000000000000000 b
b00000000000000000010101010101000 c
b0 d
b0 e
b00000011 f
b0 g
b0 h
b00000000 i
b00000000000000000000000000000000 j
b1 k
b0 l
b0 m
b0 n
b000001 o
b1 p
b000000 q
b0 r
b0 s
b0 t
b0 u
b0 v
b0 w
b0 x
b00000000000000000000000000 y
b0 z
b0 {
b0 |
b0 }
b00000000000000000000000000000000 ~
b0 "!
b1 ""
b0 "#
b0 "$
b00000000000000000000000000000000 "%
b0000 "&
b0 "'
b0 "(
#4
b00000101010000 !
b101 "
b1 #
b0 $
b1 %
b1 &
b1 '
b1 (
b1 )
b0 *
b00000000000000000000000000000000 +
b0 ,
b1111 -
b0 .
b00000000000000000000000000000000 /
b0 0
b00000000000000 1
b000 2
b1 3
b0 4
b1 5
b1 6
b1 7
b1 8
b1 9
b0 :
b00000000000000000000000000000000 ;
b0 <
b1111 =
b0 >
b00000000000000000000000000000000 ?
b0 @
b00000000000000 A
b000 B
b1 C
b0 D
b1 E
b1 F
b1 G
b1 H
b1 I
b0 J
b00000000000000000000000000000000 K
b0 L
b1111 M
b0 N
b00000000000000000000000000000000 O
b0 P
b00000101010000 Q
b101 R
b1 S
b0 T
b1 U
b1 V
b1 W
b1 X
b1 Y
b0 Z
b00000000000000000000000000000000 [
b0 \
b1111 ]
b0 ^
b00000000000000000000000000000000 _
b0 `
b1 a
b00000000000000000000000000000000 b
b00000000000000000010101010101000 c
b0 d
b0 e
b00000011 f
b0 g
b0 h
b00000000 i
b00000000000000000000000000000000 j
b1 k
b1 l
b0 m
b0 n
b000001 o
b0 p
b000000 q
b0 r
b0 s
b0 t
b0 u
b0 v
b0 w
b0 x
b00000000000000000000000000 y
b0 z
b0 {
b0 |
b0 }
b00000000000000000000000000000000 ~
b0 "!
b1 ""
b0 "#
b0 "$
b00000000000000000000000000000000 "%
b0000 "&
b1 "'
b0 "(
#5
b00000101010000 !
b101 "
b1 #
b0 $
b1 %
b1 &
b1 '
b1 (
b1 )
b0 *
b00000000000000000000000000000000 +
b0 ,
b1111 -
b0 .
b00000000000000000000000000000000 /
b0 0
b00000000000000 1
b000 2
b1 3
b0 4
b1 5
b1 6
b1 7
b1 8
b1 9
b0 :
b00000000000000000000000000000000 ;
b0 <
b1111 =
b0 >
b00000000000000000000000000000000 ?
b0 @
b00000000000000 A
b000 B
b1 C
b0 D
b1 E
b1 F
b1 G
b1 H
b1 I
b0 J
b00000000000000000000000000000000 K
b0 L
b1111 M
b0 N
b00000000000000000000000000000000 O
b0 P
b00000101010000 Q
b101 R
b1 S
b0 T
b1 U
b1 V
b1 W
b1 X
b1 Y
b0 Z
b00000000000000000000000000000000 [
b0 \
b1111 ]
b0 ^
b00000000000000000000000000000000 _
b0 `
b1 a
b00000000000000000000000000000000 b
b00000000000000000010101010101000 c
b0 d
b0 e
b00000011 f
b0 g
b0 h
b00000000 i
b00000000000000000000000000000000 j
b1 k
b1 l
b0 m
b0 n
b000001 o
b0 p
b000000 q
b0 r
b0 s
b0 t
b0 u
b0 v
b0 w
b0 x
b00000000000000000000000000 y
b0 z
b0 {
b0 |
b0 }
b00000000000000000000000000000000 ~
b0 "!
b1 ""
b0 "#
b0 "$
b00000000000000000000000000000000 "%
b0000 "&
b0 "'
b0 "(
#6
b00000101010000 !
b101 "
b1 #
b0 $
b1 %
b1 &
b1 '
b1 (
b1 )
b0 *
b00000000000000000000000000000000 +
b0 ,
b1111 -
b0 .
b00000000000000000000000000000000 /
b0 0
b00000000000000 1
b000 2
b1 3
b0 4
b1 5
b1 6
b1 7
b1 8
b1 9
b0 :
b00000000000000000000000000000000 ;
b0 <
b1111 =
b0 >
b00000000000000000000000000000000 ?
b0 @
b00000000000000 A
b000 B
b1 C
b0 D
b1 E
b1 F
b1 G
b1 H
b1 I
b0 J
b00000000000000000000000000000000 K
b0 L
b1111 M
b0 N
b00000000000000000000000000000000 O
b0 P
b00000101010000 Q
b101 R
b1 S
b0 T
b1 U
b1 V
b1 W
b1 X
b1 Y
b0 Z
b00000000000000000000000000000000 [
b0 \
b1111 ]
b0 ^
b00000000000000000000000000000000 _
b0 `
b1 a
b00000000000000000000000000000000 b
b00000000000000000010101010101000 c
b0 d
b0 e
b00000011 f
b0 g
b0 h
b00000000 i
b00000000000000000000000000000000 j
b0 k
b1 l
b0 m
b0 n
b000010 o
b0 p
b000001 q
b0 r
b0 s
b0 t
b0 u
b0 v
b0 w
b0 x
b00000000000000000000000000 y
b0 z
b0 {
b0 |
b0 }
b00000000000000000000000000000000 ~
b0 "!
b1 ""
b0 "#
b0 "$
b00000000000000000000000000000000 "%
b0000 "&
b1 "'
b0 "(
#7
b00000101010000 !
b101 "
b1 #
b0 $
b1 %
b1 &
b1 '
b1 (
b1 )
b0 *
b00000000000000000000000000000000 +
b0 ,
b1111 -
b0 .
b00000000000000000000000000000000 /
b0 0
b00000000000000 1
b000 2
b1 3
b0 4
b1 5
b1 6
b1 7
b1 8
b1 9
b0 :
b00000000000000000000000000000000 ;
b0 <
b1111 =
b0 >
b00000000000000000000000000000000 ?
b0 @
b00000000000000 A
b000 B
b1 C
b0 D
b1 E
b1 F
b1 G
b1 H
b1 I
b0 J
b00000000000000000000000000000000 K
b0 L
b1111 M
b0 N
b00000000000000000000000000000000 O
b0 P
b00000101010000 Q
b101 R
b1 S
b0 T
b1 U
b1 V
b1 W
b1 X
b1 Y
b0 Z
b00000000000000000000000000000000 [
b0 \
b1111 ]
b0 ^
b00000000000000000000000000000000 _
b0 `
b1 a
b00000000000000000000000000000000 b
b00000000000000000010101010101000 c
b0 d
b0 e
b00000011 f
b0 g
b0 h
b00000000 i
b00000000000000000000000000000000 j
b0 k
b1 l
b0 m
b0 n
b000010 o
b0 p
b000001 q
b0 r
b0 s
b0 t
b0 u
b0 v
b0 w
b0 x
b00000000000000000000000000 y
b0 z
b0 {
b0 |
b0 }
b00000000000000000000000000000000 ~
b0 "!
b1 ""
b0 "#
b0 "$
b00000000000000000000000000000000 "%
b0000 "&
b0 "'
b0 "(
#8
b00000101010000 !
b101 "
b1 #
b0 $
b1 %
b1 &
b1 '
b1 (
b1 )
b0 *
b00000000000000000000000000000000 +
b0 ,
b1111 -
b0 .
b00000000000000000000000000000000 /
b0 0
b00000000000000 1
b000 2
b1 3
b0 4
b1 5
b1 6
b1 7
b1 8
b1 9
b0 :
b00000000000000000000000000000000 ;
b0 <
b1111 =
b0 >
b00000000000000000000000000000000 ?
b0 @
b00000000000000 A
b000 B
b1 C
b0 D
b1 E
b1 F
b1 G
b1 H
b1 I
b0 J
b00000000000000000000000000000000 K
b0 L
b1111 M
b0 N
b00000000000000000000000000000000 O
b0 P
b00000101010000 Q
b101 R
b1 S
b0 T
b1 U
b1 V
b1 W
b1 X
b1 Y
b0 Z
b00000000000000000000000000000000 [
b0 \
b1111 ]
b0 ^
b00000000000000000000000000000000 _
b0 `
b1 a
b00000000000000000000000000000000 b
b00000000000000000010101010101000 c
b0 d
b0 e
b00000011 f
b0 g
b0 h
b00000000 i
b00000000000000000000000000000000 j
b0 k
b1 l
b0 m
b0 n
b000011 o
b0 p
b000010 q
b0 r
b0 s
b0 t
b0 u
b0 v
b0 w
b0 x
b00000000000000000000000000 y
b0 z
b0 {
b0 |
b0 }
b00000000000000000000000000000000 ~
b0 "!
b1 ""
b0 "#
b0 "$
b00000000000000000000000000000000 "%
b0000 "&
b1 "'
b0 "(
#9
b00000101010000 !
b101 "
b1 #
b0 $
b1 %
b1 &
b1 '
b1 (
b1 )
b0 *
b00000000000000000000000000000000 +
b0 ,
b1111 -
b0 .
b00000000000000000000000000000000 /
b0 0
b00000000000000 1
b000 2
b1 3
b0 4
b1 5
b1 6
b1 7
b1 8
b1 9
b0 :
b00000000000000000000000000000000 ;
b0 <
b1111 =
b0 >
b00000000000000000000000000000000 ?
b0 @
b00000000000000 A
b000 B
b1 C
b0 D
b1 E
b1 F
b1 G
b1 H
b1 I
b0 J
b00000000000000000000000000000000 K
b0 L
b1111 M
b0 N
b00000000000000000000000000000000 O
b0 P
b00000101010000 Q
b101 R
b1 S
b0 T
b1 U
b1 V
b1 W
b1 X
b1 Y
b0 Z
b00000000000000000000000000000000 [
b0 \
b1111 ]
b0 ^
b00000000000000000000000000000000 _
b0 `
b1 a
b00000000000000000000000000000000 b
b00000000000000000010101010101000 c
b0 d
b0 e
b00000011 f
b0 g
b0 h
b00000000 i
b00000000000000000000000000000000 j
b0 k
b1 l
b0 m
b0 n
b000011 o
b0 p
b000010 q
b0 r
b0 s
b0 t
b0 u
b0 v
b0 w
b0 x
b00000000000000000000000000 y
b0 z
b0 {
b0 |
b0 }
b00000000000000000000000000000000 ~
b0 "!
b1 ""
b0 "#
b0 "$
b00000000000000000000000000000000 "%
b0000 "&
b0 "'
b0 "(
#10
b00000101010000 !
b101 "
b1 #
b0 $
b1 %
b1 &
b1 '
b1 (
b1 )
b0 *
b00000000000000000000000000000000 +
b0 ,
b1111 -
b0 .
b00000000000000000000000000000000 /
b0 0
b00000000000000 1
b000 2
b1 3
b0 4
b1 5
b1 6
b1 7
b1 8
b1 9
b0 :
b00000000000000000000000000000000 ;
b0 <
b1111 =
b0 >
b00000000000000000000000000000000 ?
b0 @
b00000000000000 A
b000 B
b1 C
b0 D
b1 E
b1 F
b1 G
b1 H
b1 I
b0 J
b00000000000000000000000000000000 K
b0 L
b1111 M
b0 N
b00000000000000000000000000000000 O
b0 P
b00000101010000 Q
b101 R
b1 S
b0 T
b1 U
b1 V
b1 W
b1 X
b1 Y
b0 Z
b00000000000000000000000000000000 [
b0 \
b1111 ]
b0 ^
b00000000000000000000000000000000 _
b0 `
b1 a
b00000000000000000000000000000000 b
b00000000000000000010101010101000 c
b0 d
b0 e
b00000011 f
b0 g
b0 h
b00000000 i
b00000000000000000000000000000000 j
b0 k
b1 l
b0 m
b0 n
b000100 o
b0 p
b000011 q
b0 r
b0 s
b0 t
b0 u
b0 v
b0 w
b0 x
b00000000000000000000000000 y
b0 z
b0 {
b0 |
b0 }
b00000000000000000000000000000000 ~
b0 "!
b1 ""
b0 "#
b0 "$
b00000000000000000000000000000000 "%
b0000 "&
b1 "'
b0 "(
#11
b00000101010000 !
b101 "
b1 #
b0 $
b1 %
b1 &
b1 '
b1 (
b1 )
b0 *
b00000000000000000000000000000000 +
b0 ,
b1111 -
b0 .
b00000000000000000000000000000000 /
b0 0
b00000000000000 1
b000 2
b1 3
b0 4
b1 5
b1 6
b1 7
b1 8
b1 9
b0 :
b00000000000000000000000000000000 ;
b0 <
b1111 =
b0 >
b00000000000000000000000000000000 ?
b0 @
b00000000000000 A
b000 B
b1 C
b0 D
b1 E
b1 F
b1 G
b1 H
b1 I
b0 J
b00000000000000000000000000000000 K
b0 L
b1111 M
b0 N
b00000000000000000000000000000000 O
b0 P
b00000101010000 Q
b101 R
b1 S
b0 T
b1 U
b1 V
b1 W
b1 X
b1 Y
b0 Z
b00000000000000000000000000000000 [
b0 \
b1111 ]
b0 ^
b00000000000000000000000000000000 _
b0 `
b1 a
b00000000000000000000000000000000 b
b00000000000000000010101010101000 c
b0 d
b0 e
b00000011 f
b0 g
b0 h
b00000000 i
b00000000000000000000000000000000 j
b0 k
b1 l
b0 m
b0 n
b000100 o
b0 p
b000011 q
b0 r
b0 s
b0 t
b0 u
b0 v
b0 w
b0 x
b00000000000000000000000000 y
b0 z
b0 {
b0 |
b0 }
b00000000000000000000000000000000 ~
b0 "!
b1 ""
b0 "#
b0 "$
b00000000000000000000000000000000 "%
b0000 "&
b0 "'
b0 "(
#12
b00000101010000 !
b101 "
b1 #
b0 $
b1 %
b1 &
b1 '
b1 (
b1 )
b0 *
b00000000000000000000000000000000 +
b0 ,
b1111 -
b0 .
b00000000000000000000000000000000 /
b0 0
b00000000000000 1
b000 2
b1 3
b0 4
b1 5
b1 6
b1 7
b1 8
b1 9
b0 :
b00000000000000000000000000000000 ;
b0 <
b1111 =
b0 >
b00000000000000000000000000000000 ?
b0 @
b00000000000000 A
b000 B
b1 C
b0 D
b1 E
b1 F
b1 G
b1 H
b1 I
b0 J
b00000000000000000000000000000000 K
b0 L
b1111 M
b0 N
b00000000000000000000000000000000 O
b0 P
b00000101010000 Q
b101 R
b1 S
b0 T
b1 U
b1 V
b1 W
b1 X
b1 Y
b0 Z
b00000000000000000000000000000000 [
b0 \
b1111 ]
b0 ^
b00000000000000000000000000000000 _
b0 `
b1 a
b00000000000000000000000000000000 b
b00000000000000000010101010101000 c
b0 d
b0 e
b00000011 f
b0 g
b0 h
b00000000 i
b00000000000000000000000000000000 j
b0 k
b1 l
b0 m
b0 n
b000101 o
b0 p
b000100 q
b0 r
b0 s
b0 t
b0 u
b0 v
b0 w
b0 x
b00000000000000000000000000 y
b0 z
b0 {
b0 |
b0 }
b00000000000000000000000000000000 ~
b0 "!
b1 ""
b0 "#
b0 "$
b00000000000000000000000000000000 "%
b0000 "&
b1 "'
b0 "(
#13
b00000101010000 !
b101 "
b1 #
b0 $
b1 %
b1 &
b1 '
b1 (
b1 )
b0 *
b00000000000000000000000000000000 +
b0 ,
b1111 -
b0 .
b00000000000000000000000000000000 /
b0 0
b00000000000000 1
b000 2
b1 3
b0 4
b1 5
b1 6
b1 7
b1 8
b1 9
b0 :
b00000000000000000000000000000000 ;
b0 <
b1111 =
b0 >
b00000000000000000000000000000000 ?
b0 @
b00000000000000 A
b000 B
b1 C
b0 D
b1 E
b1 F
b1 G
b1 H
b1 I
b0 J
b00000000000000000000000000000000 K
b0 L
b1111 M
b0 N
b00000000000000000000000000000000 O
b0 P
b00000101010000 Q
b101 R
b1 S
b0 T
b1 U
b1 V
b1 W
b1 X
b1 Y
b0 Z
b00000000000000000000000000000000 [
b0 \
b1111 ]
b0 ^
b00000000000000000000000000000000 _
b0 `
b1 a
b00000000000000000000000000000000 b
b00000000000000000010101010101000 c
b0 d
b0 e
b00000011 f
b0 g
b0 h
b00000000 i
b00000000000000000000000000000000 j
b0 k
b1 l
b0 m
b0 n
b000101 o
b0 p
b000100 q
b0 r
b0 s
b0 t
b0 u
b0 v
b0 w
b0 x
b00000000000000000000000000 y
b0 z
b0 {
b0 |
b0 }
b00000000000000000000000000000000 ~
b0 "!
b1 ""
b0 "#
b0 "$
b00000000000000000000000000000000 "%
b0000 "&
b0 "'
b0 "(
#14
b00000101010000 !
b101 "
b1 #
b0 $
b1 %
b1 &
b1 '
b1 (
b1 )
b0 *
b00000000000000000000000000000000 +
b0 ,
b1111 -
b0 .
b00000000000000000000000000000000 /
b0 0
b00000000000000 1
b000 2
b1 3
b0 4
b1 5
b1 6
b1 7
b1 8
b1 9
b0 :
b00000000000000000000000000000000 ;
b0 <
b1111 =
b0 >
b00000000000000000000000000000000 ?
b0 @
b00000000000000 A
b000 B
b1 C
b0 D
b1 E
b1 F
b1 G
b1 H
b1 I
b0 J
b00000000000000000000000000000000 K
b0 L
b1111 M
b0 N
b00000000000000000000000000000000 O
b0 P
b00000101010000 Q
b101 R
b1 S
b0 T
b1 U
b1 V
b1 W
b1 X
b1 Y
b0 Z
b00000000000000000000000000000000 [
b0 \
b1111 ]
b0 ^
b00000000000000000000000000000000 _
b0 `
b1 a
b00000000000000000000000000000000 b
b00000000000000000010101010101000 c
b0 d
b0 e
b00000011 f
b0 g
b0 h
b00000000 i
b00000000000000000000000000000000 j
b0 k
b1 l
b0 m
b0 n
b000110 o
b0 p
b000101 q
b0 r
b0 s
b0 t
b0 u
b0 v
b0 w
b0 x
b00000000000000000000000000 y
b0 z
b0 {
b0 |
b0 }
b00000000000000000000000000000000 ~
b0 "!
b1 ""
b0 "#
b0 "$
b00000000000000000000000000000000 "%
b0000 "&
b1 "'
b0 "(
