dram-tests/vcd-dumps/prefetch-0-sim.vcd
$date
	2021-09-09 10:06
$end
$timescale 4000ps $end
$scope 1ps $end
$var wire 8 ! main_flash_mem_cnt $end
$var wire 1 " main_get_cmd_flag $end
$var wire 1 # main_analyzer_trigger $end
$var wire 1 $ main_anal_enable $end
$var wire 1 % main_anal_hit $end
$var wire 1 & main_run_flag $end
$var wire 8 ' main_dr_tmp $end
$var wire 1 ( main_spi_uart_master_start $end
$var wire 8 ) main_spi_uart_master_length $end
$var wire 1 * main_spi_uart_master_done $end
$var wire 1 + main_spi_uart_master_irq $end
$var wire 24 , main_idcode $end
$var wire 1 - spiflash_emu_sclk $end
$var wire 1 . spiflash_emu_csn $end
$var wire 1 / spiflash_emu_si $end
$var wire 1 0 spiflash_emu_so $end
$var wire 8 1 main_spi_uart_master_mosi $end
$var wire 8 2 main_spi_uart_master_miso $end
$var wire 1 3 main_bad_cmd_err $end
$var wire 1 4 main_spi_uart_master_cs $end
$var wire 1 5 main_spi_uart_master_cs_mode $end
$var wire 16 6 main_cnt $end
$var wire 1 7 main_spi_uart_master_loopback $end
$var wire 16 8 main_spi_uart_master_clk_divider0 $end
$var wire 1 9 main_eso $end
$var wire 1 : main_eso_delayed $end
$var wire 3 ; main_cmd_bit_cnt $end
$var wire 8 < main_cmd $end
$var wire 8 = main_cmd_next $end
$var wire 24 > main_addr $end
$var wire 24 ? main_addr_next $end
$var wire 5 @ main_addr_cnt $end
$var wire 8 A main_dr $end
$var wire 3 B main_dr_bit_cnt $end
$var wire 1 C main_partial_addr_valid $end
$var wire 1 D main_partial_addr_valid_sys $end
$var wire 24 E main_partial_addr $end
$var wire 1 F main_flash_mem_sel $end
$var wire 1 G scope_clk $end
$var wire 1 H scope_trig $end
$unscope  $end
$enddefinitions  $end
$dumpvars
bxxxxxxxx !
bx "
bx #
bx $
bx %
bx &
bxxxxxxxx '
bx (
bxxxxxxxx )
bx *
bx +
bxxxxxxxxxxxxxxxxxxxxxxxx ,
bx -
bx .
bx /
bx 0
bxxxxxxxx 1
bxxxxxxxx 2
bx 3
bx 4
bx 5
bxxxxxxxxxxxxxxxx 6
bx 7
bxxxxxxxxxxxxxxxx 8
bx 9
bx :
bxxx ;
bxxxxxxxx <
bxxxxxxxx =
bxxxxxxxxxxxxxxxxxxxxxxxx >
bxxxxxxxxxxxxxxxxxxxxxxxx ?
bxxxxx @
bxxxxxxxx A
bxxx B
bx C
bx D
bxxxxxxxxxxxxxxxxxxxxxxxx E
bx F
bx G
bx H
$end
#0
b00000000 !
b1 "
b0 #
b1 $
b0 %
b0 &
b00000000 '
b0 (
b00001000 )
b1 *
b0 +
b110000100010010100111001 ,
b0 -
b1 .
b0 /
b0 0
b00000000 1
b00000000 2
b0 3
b0 4
b1 5
b0000000000000000 6
b0 7
b0000000000000100 8
b0 9
b0 :
b001 ;
b00000000 <
b00000000 =
b000000000000000000000000 >
b000000000000000000000000 ?
b00000 @
b00000000 A
b000 B
b0 C
b0 D
b000000000000000000000000 E
b0 F
b1 G
b0 H
#1
b00000000 !
b1 "
b0 #
b1 $
b0 %
b0 &
b00000000 '
b0 (
b00001000 )
b1 *
b0 +
b110000100010010100111001 ,
b0 -
b1 .
b0 /
b0 0
b00000000 1
b00000000 2
b0 3
b0 4
b1 5
b0000000000000000 6
b0 7
b0000000000000100 8
b0 9
b0 :
b001 ;
b00000000 <
b00000000 =
b000000000000000000000000 >
b000000000000000000000000 ?
b00000 @
b00000000 A
b000 B
b0 C
b0 D
b000000000000000000000000 E
b0 F
b0 G
b0 H
#2
b00000000 !
b1 "
b0 #
b1 $
b0 %
b0 &
b00000000 '
b0 (
b00001000 )
b1 *
b0 +
b110000100010010100111001 ,
b0 -
b1 .
b0 /
b0 0
b00000000 1
b00000000 2
b0 3
b0 4
b1 5
b0000000000000000 6
b0 7
b0000000000000100 8
b0 9
b0 :
b001 ;
b00000000 <
b00000000 =
b000000000000000000000000 >
b000000000000000000000000 ?
b00000 @
b00000000 A
b000 B
b0 C
b0 D
b000000000000000000000000 E
b0 F
b1 G
b0 H
#3
b00000000 !
b1 "
b0 #
b1 $
b0 %
b0 &
b00000000 '
b0 (
b00001000 )
b1 *
b0 +
b110000100010010100111001 ,
b0 -
b1 .
b0 /
b0 0
b00000000 1
b00000000 2
b0 3
b0 4
b1 5
b0000000000000000 6
b0 7
b0000000000000100 8
b0 9
b0 :
b001 ;
b00000000 <
b00000000 =
b000000000000000000000000 >
b000000000000000000000000 ?
b00000 @
b00000000 A
b000 B
b0 C
b0 D
b000000000000000000000000 E
b0 F
b0 G
b0 H
#4
b00000000 !
b1 "
b0 #
b1 $
b0 %
b0 &
b00000000 '
b0 (
b00001000 )
b1 *
b0 +
b110000100010010100111001 ,
b0 -
b1 .
b0 /
b0 0
b00000000 1
b00000000 2
b0 3
b0 4
b1 5
b0000000000000000 6
b0 7
b0000000000000100 8
b0 9
b0 :
b001 ;
b00000000 <
b00000000 =
b000000000000000000000000 >
b000000000000000000000000 ?
b00000 @
b00000000 A
b000 B
b0 C
b0 D
b000000000000000000000000 E
b0 F
b1 G
b0 H
#5
b00000000 !
b1 "
b0 #
b1 $
b0 %
b0 &
b00000000 '
b0 (
b00001000 )
b1 *
b0 +
b110000100010010100111001 ,
b0 -
b1 .
b0 /
b0 0
b00000000 1
b00000000 2
b0 3
b0 4
b1 5
b0000000000000000 6
b0 7
b0000000000000100 8
b0 9
b0 :
b001 ;
b00000000 <
b00000000 =
b000000000000000000000000 >
b000000000000000000000000 ?
b00000 @
b00000000 A
b000 B
b0 C
b0 D
b000000000000000000000000 E
b0 F
b0 G
b0 H
#6
b00000000 !
b1 "
b0 #
b1 $
b0 %
b0 &
b00000000 '
b0 (
b00001000 )
b1 *
b0 +
b110000100010010100111001 ,
b0 -
b1 .
b0 /
b0 0
b00000000 1
b00000000 2
b0 3
b0 4
b1 5
b0000000000000000 6
b0 7
b0000000000000100 8
b0 9
b0 :
b001 ;
b00000000 <
b00000000 =
b000000000000000000000000 >
b000000000000000000000000 ?
b00000 @
b00000000 A
b000 B
b0 C
b0 D
b000000000000000000000000 E
b0 F
b1 G
b0 H
#7
b00000000 !
b1 "
b0 #
b1 $
b0 %
b0 &
b00000000 '
b0 (
b00001000 )
b1 *
b0 +
b110000100010010100111001 ,
b0 -
b1 .
b0 /
b0 0
b00000000 1
b00000000 2
b0 3
b0 4
b1 5
b0000000000000000 6
b0 7
b0000000000000100 8
b0 9
b0 :
b001 ;
b00000000 <
b00000000 =
b000000000000000000000000 >
b000000000000000000000000 ?
b00000 @
b00000000 A
b000 B
b0 C
b0 D
b000000000000000000000000 E
b0 F
b0 G
b0 H
#8
b00000000 !
b1 "
b0 #
b1 $
b0 %
b0 &
b00000000 '
b0 (
b00001000 )
b1 *
b0 +
b110000100010010100111001 ,
b0 -
b1 .
b0 /
b0 0
b00000000 1
b00000000 2
b0 3
b0 4
b1 5
b0000000000000000 6
b0 7
b0000000000000100 8
b0 9
b0 :
b001 ;
b00000000 <
b00000000 =
b000000000000000000000000 >
b000000000000000000000000 ?
b00000 @
b00000000 A
b000 B
b0 C
b0 D
b000000000000000000000000 E
b0 F
b1 G
b0 H
#9
b00000000 !
b1 "
b0 #
b1 $
b0 %
b0 &
b00000000 '
b0 (
b00001000 )
b1 *
b0 +
b110000100010010100111001 ,
b0 -
b1 .
b0 /
b0 0
b00000000 1
b00000000 2
b0 3
b0 4
b1 5
b0000000000000000 6
b0 7
b0000000000000100 8
b0 9
b0 :
b001 ;
b00000000 <
b00000000 =
b000000000000000000000000 >
b000000000000000000000000 ?
b00000 @
b00000000 A
b000 B
b0 C
b0 D
b000000000000000000000000 E
b0 F
b0 G
b0 H
#10
b00000000 !
b1 "
b0 #
b1 $
b0 %
b0 &
b00000000 '
b0 (
b00001000 )
b1 *
b0 +
b110000100010010100111001 ,
b0 -
b1 .
b0 /
b0 0
b00000000 1
b00000000 2
b0 3
b0 4
b1 5
b0000000000000000 6
b0 7
b0000000000000100 8
b0 9
b0 :
b001 ;
b00000000 <
b00000000 =
b000000000000000000000000 >
b000000000000000000000000 ?
b00000 @
b00000000 A
b000 B
b0 C
b0 D
b000000000000000000000000 E
b0 F
b1 G
b0 H
#11
b00000000 !
b1 "
b0 #
b1 $
b0 %
b0 &
b00000000 '
b0 (
b00001000 )
b1 *
b0 +
b110000100010010100111001 ,
b0 -
b1 .
b0 /
b0 0
b00000000 1
b00000000 2
b0 3
b0 4
b1 5
b0000000000000000 6
b0 7
b0000000000000100 8
b0 9
b0 :
b001 ;
b00000000 <
b00000000 =
b000000000000000000000000 >
b000000000000000000000000 ?
b00000 @
b00000000 A
b000 B
b0 C
b0 D
b000000000000000000000000 E
b0 F
b0 G
b0 H
#12
b00000000 !
b1 "
b0 #
b1 $
b0 %
b0 &
b00000000 '
b0 (
b00001000 )
b1 *
b0 +
b110000100010010100111001 ,
b0 -
b1 .
b0 /
b0 0
b00000000 1
b00000000 2
b0 3
b0 4
b1 5
b0000000000000000 6
b0 7
b0000000000000100 8
b0 9
b0 :
b001 ;
b00000000 <
b00000000 =
b000000000000000000000000 >
b000000000000000000000000 ?
b00000 @
b00000000 A
b000 B
b0 C
b0 D
b000000000000000000000000 E
b0 F
b1 G
b0 H
#13
b00000000 !
b1 "
b0 #
b1 $
b0 %
b0 &
b00000000 '
b0 (
b00001000 )
b1 *
b0 +
b110000100010010100111001 ,
b0 -
b1 .
b0 /
b0 0
b00000000 1
b00000000 2
b0 3
b0 4
b1 5
b0000000000000000 6
b0 7
b0000000000000100 8
b0 9
b0 :
b001 ;
b00000000 <
b00000000 =
b000000000000000000000000 >
b000000000000000000000000 ?
b00000 @
b00000000 A
b000 B
b0 C
b0 D
b000000000000000000000000 E
b0 F
b0 G
b0 H
#14
b00000000 !
b1 "
b0 #
b1 $
b0 %
b0 &
b00000000 '
b0 (
b00001000 )
b1 *
b0 +
b110000100010010100111001 ,
b0 -
b1 .
b0 /
b0 0
b00000000 1
b00000000 2
b0 3
b0 4
b1 5
b0000000000000000 6
b0 7
b0000000000000100 8
b0 9
b0 :
b001 ;
b00000000 <
b00000000 =
b000000000000000000000000 >
b000000000000000000000000 ?
b00000 @
b00000000 A
b000 B
b0 C
b0 D
b000000000000000000000000 E
b0 F
b1 G
b0 H
#15
b00000000 !
b1 "
b0 #
b1 $
b0 %
b0 &
b00000000 '
b0 (
b00001000 )
b1 *
b0 +
b110000100010010100111001 ,
b0 -
b1 .
b0 /
b0 0
b00000000 1
b00000000 2
b0 3
b0 4
b1 5
b0000000000000000 6
b0 7
b0000000000000100 8
b0 9
b0 :
b001 ;
b00000000 <
b00000000 =
b000000000000000000000000 >
b000000000000000000000000 ?
b00000 @
b00000000 A
b000 B
b0 C
b0 D
b000000000000000000000000 E
b0 F
b0 G
b0 H
#16
b00000000 !
b1 "
b0 #
b1 $
b0 %
b0 &
b00000000 '
b0 (
b00001000 )
b1 *
b0 +
b110000100010010100111001 ,
b0 -
b1 .
b0 /
b0 0
b00000000 1
b00000000 2
b0 3
b0 4
b1 5
b0000000000000000 6
b0 7
b0000000000000100 8
b0 9
b0 :
b001 ;
b00000000 <
b00000000 =
b000000000000000000000000 >
b000000000000000000000000 ?
b00000 @
b00000000 A
b000 B
b0 C
b0 D
b000000000000000000000000 E
b0 F
b1 G
b0 H
#17
b00000000 !
b1 "
b0 #
b1 $
b0 %
b0 &
b00000000 '
b0 (
b00001000 )
b1 *
b0 +
b110000100010010100111001 ,
b0 -
b1 .
b0 /
b0 0
b00000000 1
b00000000 2
b0 3
b0 4
b1 5
b0000000000000000 6
b0 7
b0000000000000100 8
b0 9
b0 :
b001 ;
b00000000 <
b00000000 =
b000000000000000000000000 >
b000000000000000000000000 ?
b00000 @
b00000000 A
b000 B
b0 C
b0 D
b000000000000000000000000 E
b0 F
b0 G
b0 H
#18
b00000000 !
b1 "
b0 #
b1 $
b0 %
b0 &
b00000000 '
b0 (
b00001000 )
b1 *
b0 +
b110000100010010100111001 ,
b0 -
b1 .
b0 /
b0 0
b00000000 1
b00000000 2
b0 3
b0 4
b1 5
b0000000000000000 6
b0 7
b0000000000000100 8
b0 9
b0 :
b001 ;
b00000000 <
b00000000 =
b000000000000000000000000 >
b000000000000000000000000 ?
b00000 @
b00000000 A
b000 B
b0 C
b0 D
b000000000000000000000000 E
b0 F
b1 G
b0 H
#19
b00000000 !
b1 "
b0 #
b1 $
b0 %
b0 &
b00000000 '
b0 (
b00001000 )
b1 *
b0 +
b110000100010010100111001 ,
b0 -
b1 .
b0 /
b0 0
b00000000 1
b00000000 2
b0 3
b0 4
b1 5
b0000000000000000 6
b0 7
b0000000000000100 8
b0 9
b0 :
b001 ;
b00000000 <
b00000000 =
b000000000000000000000000 >
b000000000000000000000000 ?
b00000 @
b00000000 A
b000 B
b0 C
b0 D
b000000000000000000000000 E
b0 F
b0 G
b0 H
#20
b00000000 !
b1 "
b0 #
b1 $
b0 %
b0 &
b00000000 '
b0 (
b00001000 )
b1 *
b0 +
b110000100010010100111001 ,
b0 -
b1 .
b0 /
b0 0
b00000000 1
b00000000 2
b0 3
b0 4
b1 5
b0000000000000000 6
b0 7
b0000000000000100 8
b0 9
b0 :
b001 ;
b00000000 <
b00000000 =
b000000000000000000000000 >
b000000000000000000000000 ?
b00000 @
b00000000 A
b000 B
b0 C
b0 D
b000000000000000000000000 E
b0 F
b1 G
b0 H
#21
b00000000 !
b1 "
b0 #
b1 $
b0 %
b0 &
b00000000 '
b0 (
b00001000 )
b1 *
b0 +
b110000100010010100111001 ,
b0 -
b1 .
b0 /
b0 0
b00000000 1
b00000000 2
b0 3
b0 4
b1 5
b0000000000000000 6
b0 7
b0000000000000100 8
b0 9
b0 :
b001 ;
b00000000 <
b00000000 =
b000000000000000000000000 >
b000000000000000000000000 ?
b00000 @
b00000000 A
b000 B
b0 C
b0 D
b000000000000000000000000 E
b0 F
b0 G
b0 H
#22
b00000000 !
b1 "
b0 #
b1 $
b0 %
b0 &
b00000000 '
b0 (
b00001000 )
b1 *
b0 +
b110000100010010100111001 ,
b0 -
b1 .
b0 /
b0 0
b00000000 1
b00000000 2
b0 3
b0 4
b1 5
b0000000000000000 6
b0 7
b0000000000000100 8
b0 9
b0 :
b001 ;
b00000000 <
b00000000 =
b000000000000000000000000 >
b000000000000000000000000 ?
b00000 @
b00000000 A
b000 B
b0 C
b0 D
b000000000000000000000000 E
b0 F
b1 G
b0 H
#23
b00000000 !
b1 "
b0 #
b1 $
b0 %
b0 &
b00000000 '
b0 (
b00001000 )
b1 *
b0 +
b110000100010010100111001 ,
b0 -
b1 .
b0 /
b0 0
b00000000 1
b00000000 2
b0 3
b0 4
b1 5
b0000000000000000 6
b0 7
b0000000000000100 8
b0 9
b0 :
b001 ;
b00000000 <
b00000000 =
b000000000000000000000000 >
b000000000000000000000000 ?
b00000 @
b00000000 A
b000 B
b0 C
b0 D
b000000000000000000000000 E
b0 F
b0 G
b0 H
#24
b00000000 !
b1 "
b0 #
b1 $
b0 %
b0 &
b00000000 '
b0 (
b00001000 )
b1 *
b0 +
b110000100010010100111001 ,
b0 -
b1 .
b0 /
b0 0
b00000000 1
b00000000 2
b0 3
b0 4
b1 5
b0000000000000000 6
b0 7
b0000000000000100 8
b0 9
b0 :
b001 ;
b00000000 <
b00000000 =
b000000000000000000000000 >
b000000000000000000000000 ?
b00000 @
b00000000 A
b000 B
b0 C
b0 D
b000000000000000000000000 E
b0 F
b1 G
b0 H
#25
b00000000 !
b1 "
b0 #
b1 $
b0 %
b0 &
b00000000 '
b0 (
b00001000 )
b1 *
b0 +
b110000100010010100111001 ,
b0 -
b1 .
b0 /
b0 0
b00000000 1
b00000000 2
b0 3
b0 4
b1 5
b0000000000000000 6
b0 7
b0000000000000100 8
b0 9
b0 :
b001 ;
b00000000 <
b00000000 =
b000000000000000000000000 >
b000000000000000000000000 ?
b00000 @
b00000000 A
b000 B
b0 C
b0 D
b000000000000000000000000 E
b0 F
b0 G
b0 H
#26
b00000000 !
b1 "
b0 #
b1 $
b0 %
b0 &
b00000000 '
b0 (
b00001000 )
b1 *
b0 +
b110000100010010100111001 ,
b0 -
b1 .
b0 /
b0 0
b00000000 1
b00000000 2
b0 3
b0 4
b1 5
b0000000000000000 6
b0 7
b0000000000000100 8
b0 9
b0 :
b001 ;
b00000000 <
b00000000 =
b000000000000000000000000 >
b000000000000000000000000 ?
b00000 @
b00000000 A
b000 B
b0 C
b0 D
b000000000000000000000000 E
b0 F
b1 G
b0 H
#27
b00000000 !
b1 "
b0 #
b1 $
b0 %
b0 &
b00000000 '
b0 (
b00001000 )
b1 *
b0 +
b110000100010010100111001 ,
b0 -
b1 .
b0 /
b0 0
b00000000 1
b00000000 2
b0 3
b0 4
b1 5
b0000000000000000 6
b0 7
b0000000000000100 8
b0 9
b0 :
b001 ;
b00000000 <
b00000000 =
b000000000000000000000000 >
b000000000000000000000000 ?
b00000 @
b00000000 A
b000 B
b0 C
b0 D
b000000000000000000000000 E
b0 F
b0 G
b0 H
#28
b00000000 !
b1 "
b0 #
b1 $
b0 %
b0 &
b00000000 '
b0 (
b00001000 )
b1 *
b0 +
b110000100010010100111001 ,
b0 -
b1 .
b0 /
b0 0
b00000000 1
b00000000 2
b0 3
b0 4
b1 5
b0000000000000000 6
b0 7
b0000000000000100 8
b0 9
b0 :
b001 ;
b00000000 <
b00000000 =
b000000000000000000000000 >
b000000000000000000000000 ?
b00000 @
b00000000 A
b000 B
b0 C
b0 D
b000000000000000000000000 E
b0 F
b1 G
b0 H
#29
b00000000 !
b1 "
b0 #
b1 $
b0 %
b0 &
b00000000 '
b0 (
b00001000 )
b1 *
b0 +
b110000100010010100111001 ,
b0 -
b1 .
b0 /
b0 0
b00000000 1
b00000000 2
b0 3
b0 4
b1 5
b0000000000000000 6
b0 7
b0000000000000100 8
b0 9
b0 :
b001 ;
b00000000 <
b00000000 =
b000000000000000000000000 >
b000000000000000000000000 ?
b00000 @
b00000000 A
b000 B
b0 C
b0 D
b000000000000000000000000 E
b0 F
b0 G
b0 H
#30
b00000000 !
b1 "
b0 #
b1 $
b0 %
b0 &
b00000000 '
b0 (
b00001000 )
b1 *
b0 +
b110000100010010100111001 ,
b0 -
b1 .
b0 /
b0 0
b00000000 1
b00000000 2
b0 3
b0 4
b1 5
b0000000000000000 6
b0 7
b0000000000000100 8
b0 9
b0 :
b001 ;
b00000000 <
b00000000 =
b000000000000000000000000 >
b000000000000000000000000 ?
b00000 @
b00000000 A
b000 B
b0 C
b0 D
b000000000000000000000000 E
b0 F
b1 G
b0 H
#31
b00000000 !
b1 "
b0 #
b1 $
b0 %
b0 &
b00000000 '
b0 (
b00001000 )
b1 *
b0 +
b110000100010010100111001 ,
b0 -
b1 .
b0 /
b0 0
b00000000 1
b00000000 2
b0 3
b0 4
b1 5
b0000000000000000 6
b0 7
b0000000000000100 8
b0 9
b0 :
b001 ;
b00000000 <
b00000000 =
b000000000000000000000000 >
b000000000000000000000000 ?
b00000 @
b00000000 A
b000 B
b0 C
b0 D
b000000000000000000000000 E
b0 F
b0 G
b0 H
#32
b00000000 !
b1 "
b0 #
b1 $
b0 %
b0 &
b00000000 '
b0 (
b00001000 )
b1 *
b0 +
b110000100010010100111001 ,
b0 -
b1 .
b0 /
b0 0
b00000000 1
b00000000 2
b0 3
b0 4
b1 5
b0000000000000000 6
b0 7
b0000000000000100 8
b0 9
b0 :
b001 ;
b00000000 <
b00000000 =
b000000000000000000000000 >
b000000000000000000000000 ?
b00000 @
b00000000 A
b000 B
b0 C
b0 D
b000000000000000000000000 E
b0 F
b1 G
b1 H
#33
b00000000 !
b1 "
b0 #
b1 $
b0 %
b0 &
b00000000 '
b0 (
b00001000 )
b1 *
b0 +
b110000100010010100111001 ,
b0 -
b1 .
b0 /
b0 0
b00000000 1
b00000000 2
b0 3
b0 4
b1 5
b0000000000000000 6
b0 7
b0000000000000100 8
b0 9
b0 :
b001 ;
b00000000 <
b00000000 =
b000000000000000000000000 >
b000000000000000000000000 ?
b00000 @
b00000000 A
b000 B
b0 C
b0 D
b000000000000000000000000 E
b0 F
b0 G
b1 H
#34
b00000000 !
b1 "
b0 #
b1 $
b0 %
b0 &
b00000000 '
b0 (
b00001000 )
b1 *
b0 +
b110000100010010100111001 ,
b0 -
b1 .
b0 /
b0 0
b00000000 1
b00000000 2
b0 3
b0 4
b1 5
b0000000000000000 6
b0 7
b0000000000000100 8
b0 9
b0 :
b001 ;
b00000000 <
b00000000 =
b000000000000000000000000 >
b000000000000000000000000 ?
b00000 @
b00000000 A
b000 B
b0 C
b0 D
b000000000000000000000000 E
b0 F
b1 G
b1 H
#35
b00000000 !
b1 "
b0 #
b1 $
b0 %
b0 &
b00000000 '
b0 (
b00001000 )
b1 *
b0 +
b110000100010010100111001 ,
b0 -
b1 .
b0 /
b0 0
b00000000 1
b00000000 2
b0 3
b0 4
b1 5
b0000000000000000 6
b0 7
b0000000000000100 8
b0 9
b0 :
b001 ;
b00000000 <
b00000000 =
b000000000000000000000000 >
b000000000000000000000000 ?
b00000 @
b00000000 A
b000 B
b0 C
b0 D
b000000000000000000000000 E
b0 F
b0 G
b1 H
#36
b00000000 !
b1 "
b0 #
b1 $
b0 %
b0 &
b00000000 '
b0 (
b00001000 )
b1 *
b0 +
b110000100010010100111001 ,
b0 -
b1 .
b0 /
b0 0
b00000000 1
b00000000 2
b0 3
b0 4
b1 5
b0000000000000000 6
b0 7
b0000000000000100 8
b0 9
b0 :
b001 ;
b00000000 <
b00000000 =
b000000000000000000000000 >
b000000000000000000000000 ?
b00000 @
b00000000 A
b000 B
b0 C
b0 D
b000000000000000000000000 E
b0 F
b1 G
b1 H
#37
b00000000 !
b1 "
b0 #
b1 $
b0 %
b0 &
b00000000 '
b0 (
b00001000 )
b1 *
b0 +
b110000100010010100111001 ,
b0 -
b1 .
b0 /
b0 0
b00000000 1
b00000000 2
b0 3
b0 4
b1 5
b0000000000000000 6
b0 7
b0000000000000100 8
b0 9
b0 :
b001 ;
b00000000 <
b00000000 =
b000000000000000000000000 >
b000000000000000000000000 ?
b00000 @
b00000000 A
b000 B
b0 C
b0 D
b000000000000000000000000 E
b0 F
b0 G
b1 H
#38
b00000000 !
b1 "
b0 #
b1 $
b0 %
b0 &
b00000000 '
b0 (
b00001000 )
b1 *
b0 +
b110000100010010100111001 ,
b0 -
b1 .
b0 /
b0 0
b00000000 1
b00000000 2
b0 3
b0 4
b1 5
b0000000000000000 6
b0 7
b0000000000000100 8
b0 9
b0 :
b001 ;
b00000000 <
b00000000 =
b000000000000000000000000 >
b000000000000000000000000 ?
b00000 @
b00000000 A
b000 B
b0 C
b0 D
b000000000000000000000000 E
b0 F
b1 G
b1 H
#39
b00000000 !
b1 "
b0 #
b1 $
b0 %
b0 &
b00000000 '
b0 (
b00001000 )
b1 *
b0 +
b110000100010010100111001 ,
b0 -
b1 .
b0 /
b0 0
b00000000 1
b00000000 2
b0 3
b0 4
b1 5
b0000000000000000 6
b0 7
b0000000000000100 8
b0 9
b0 :
b001 ;
b00000000 <
b00000000 =
b000000000000000000000000 >
b000000000000000000000000 ?
b00000 @
b00000000 A
b000 B
b0 C
b0 D
b000000000000000000000000 E
b0 F
b0 G
b1 H
#40
b00000000 !
b1 "
b0 #
b1 $
b0 %
b0 &
b00000000 '
b0 (
b00001000 )
b1 *
b0 +
b110000100010010100111001 ,
b0 -
b1 .
b0 /
b0 0
b00000000 1
b00000000 2
b0 3
b0 4
b1 5
b0000000000000000 6
b0 7
b0000000000000100 8
b0 9
b0 :
b001 ;
b00000000 <
b00000000 =
b000000000000000000000000 >
b000000000000000000000000 ?
b00000 @
b00000000 A
b000 B
b0 C
b0 D
b000000000000000000000000 E
b0 F
b1 G
b1 H
#41
b00000000 !
b1 "
b0 #
b1 $
b0 %
b0 &
b00000000 '
b0 (
b00001000 )
b1 *
b0 +
b110000100010010100111001 ,
b0 -
b1 .
b0 /
b0 0
b00000000 1
b00000000 2
b0 3
b0 4
b1 5
b0000000000000000 6
b0 7
b0000000000000100 8
b0 9
b0 :
b001 ;
b00000000 <
b00000000 =
b000000000000000000000000 >
b000000000000000000000000 ?
b00000 @
b00000000 A
b000 B
b0 C
b0 D
b000000000000000000000000 E
b0 F
b0 G
b1 H
#42
b00000000 !
b1 "
b0 #
b1 $
b0 %
b0 &
b00000000 '
b0 (
b00001000 )
b1 *
b0 +
b110000100010010100111001 ,
b0 -
b1 .
b0 /
b0 0
b00000000 1
b00000000 2
b0 3
b0 4
b1 5
b0000000000000000 6
b0 7
b0000000000000100 8
b0 9
b0 :
b001 ;
b00000000 <
b00000000 =
b000000000000000000000000 >
b000000000000000000000000 ?
b00000 @
b00000000 A
b000 B
b0 C
b0 D
b000000000000000000000000 E
b0 F
b1 G
b1 H
#43
b00000000 !
b1 "
b0 #
b1 $
b0 %
b0 &
b00000000 '
b0 (
b00001000 )
b1 *
b0 +
b110000100010010100111001 ,
b0 -
b1 .
b0 /
b0 0
b00000000 1
b00000000 2
b0 3
b0 4
b1 5
b0000000000000000 6
b0 7
b0000000000000100 8
b0 9
b0 :
b001 ;
b00000000 <
b00000000 =
b000000000000000000000000 >
b000000000000000000000000 ?
b00000 @
b00000000 A
b000 B
b0 C
b0 D
b000000000000000000000000 E
b0 F
b0 G
b1 H
#44
b00000000 !
b1 "
b0 #
b1 $
b0 %
b0 &
b00000000 '
b0 (
b00001000 )
b1 *
b0 +
b110000100010010100111001 ,
b0 -
b1 .
b0 /
b0 0
b00000000 1
b00000000 2
b0 3
b0 4
b1 5
b0000000000000000 6
b0 7
b0000000000000100 8
b0 9
b0 :
b001 ;
b00000000 <
b00000000 =
b000000000000000000000000 >
b000000000000000000000000 ?
b00000 @
b00000000 A
b000 B
b0 C
b0 D
b000000000000000000000000 E
b0 F
b1 G
b1 H
#45
b00000000 !
b1 "
b0 #
b1 $
b0 %
b0 &
b00000000 '
b0 (
b00001000 )
b1 *
b0 +
b110000100010010100111001 ,
b0 -
b1 .
b0 /
b0 0
b00000000 1
b00000000 2
b0 3
b0 4
b1 5
b0000000000000000 6
b0 7
b0000000000000100 8
b0 9
b0 :
b001 ;
b00000000 <
b00000000 =
b000000000000000000000000 >
b000000000000000000000000 ?
b00000 @
b00000000 A
b000 B
b0 C
b0 D
b000000000000000000000000 E
b0 F
b0 G
b1 H
#46
b00000000 !
b1 "
b0 #
b1 $
b0 %
b0 &
b00000000 '
b0 (
b00001000 )
b1 *
b0 +
b110000100010010100111001 ,
b0 -
b1 .
b0 /
b0 0
b00000000 1
b00000000 2
b0 3
b0 4
b1 5
b0000000000000000 6
b0 7
b0000000000000100 8
b0 9
b0 :
b001 ;
b00000000 <
b00000000 =
b000000000000000000000000 >
b000000000000000000000000 ?
b00000 @
b00000000 A
b000 B
b0 C
b0 D
b000000000000000000000000 E
b0 F
b1 G
b1 H
#47
b00000000 !
b1 "
b0 #
b1 $
b0 %
b0 &
b00000000 '
b0 (
b00001000 )
b1 *
b0 +
b110000100010010100111001 ,
b0 -
b1 .
b0 /
b0 0
b00000000 1
b00000000 2
b0 3
b0 4
b1 5
b0000000000000000 6
b0 7
b0000000000000100 8
b0 9
b0 :
b001 ;
b00000000 <
b00000000 =
b000000000000000000000000 >
b000000000000000000000000 ?
b00000 @
b00000000 A
b000 B
b0 C
b0 D
b000000000000000000000000 E
b0 F
b0 G
b1 H
#48
b00000000 !
b1 "
b0 #
b1 $
b0 %
b0 &
b00000000 '
b0 (
b00001000 )
b1 *
b0 +
b110000100010010100111001 ,
b0 -
b1 .
b0 /
b0 0
b00000000 1
b00000000 2
b0 3
b0 4
b1 5
b0000000000000000 6
b0 7
b0000000000000100 8
b0 9
b0 :
b001 ;
b00000000 <
b00000000 =
b000000000000000000000000 >
b000000000000000000000000 ?
b00000 @
b00000000 A
b000 B
b0 C
b0 D
b000000000000000000000000 E
b0 F
b1 G
b1 H
#49
b00000000 !
b1 "
b0 #
b1 $
b0 %
b0 &
b00000000 '
b0 (
b00001000 )
b1 *
b0 +
b110000100010010100111001 ,
b0 -
b1 .
b0 /
b0 0
b00000000 1
b00000000 2
b0 3
b0 4
b1 5
b0000000000000000 6
b0 7
b0000000000000100 8
b0 9
b0 :
b001 ;
b00000000 <
b00000000 =
b000000000000000000000000 >
b000000000000000000000000 ?
b00000 @
b00000000 A
b000 B
b0 C
b0 D
b000000000000000000000000 E
b0 F
b0 G
b1 H
#50
b00000000 !
b1 "
b0 #
b1 $
b0 %
b0 &
b00000000 '
b0 (
b00001000 )
b1 *
b0 +
b110000100010010100111001 ,
b0 -
b1 .
b0 /
b0 0
b00000000 1
b00000000 2
b0 3
b0 4
b1 5
b0000000000000000 6
b0 7
b0000000000000100 8
b0 9
b0 :
b001 ;
b00000000 <
b00000000 =
b000000000000000000000000 >
b000000000000000000000000 ?
b00000 @
b00000000 A
b000 B
b0 C
b0 D
b000000000000000000000000 E
b0 F
b1 G
b1 H
#51
b00000000 !
b1 "
b0 #
b1 $
b0 %
b0 &
b00000000 '
b0 (
b00001000 )
b1 *
b0 +
b110000100010010100111001 ,
b0 -
b1 .
b0 /
b0 0
b00000000 1
b00000000 2
b0 3
b0 4
b1 5
b0000000000000000 6
b0 7
b0000000000000100 8
b0 9
b0 :
b001 ;
b00000000 <
b00000000 =
b000000000000000000000000 >
b000000000000000000000000 ?
b00000 @
b00000000 A
b000 B
b0 C
b0 D
b000000000000000000000000 E
b0 F
b0 G
b1 H
