dram-tests/vcd-dumps/prefetch-6-sim.vcd
$date
	2021-09-09 11:18
$end
$timescale 4000ps $end
$scope 1ps $end
$var wire 8 ! main_flash_mem_cnt $end
$var wire 1 " main_get_cmd_flag $end
$var wire 1 # main_analyzer_trigger $end
$var wire 1 $ main_anal_enable $end
$var wire 1 % main_anal_hit $end
$var wire 1 & main_run_flag $end
$var wire 3 ' main_state $end
$var wire 3 ( main_next_state $end
$var wire 1 ) main_spi_uart_master_start $end
$var wire 8 * main_dr_tmp $end
$var wire 8 + main_spi_uart_master_length $end
$var wire 1 , main_spi_uart_master_done $end
$var wire 1 - main_spi_uart_master_irq $end
$var wire 24 . main_idcode $end
$var wire 8 / main_spi_uart_master_mosi $end
$var wire 1 0 spiflash_emu_sclk $end
$var wire 1 1 spiflash_emu_csn $end
$var wire 1 2 spiflash_emu_si $end
$var wire 1 3 spiflash_emu_so $end
$var wire 8 4 main_spi_uart_master_miso $end
$var wire 1 5 main_spi_uart_master_cs $end
$var wire 1 6 main_spi_uart_master_cs_mode $end
$var wire 1 7 main_bad_cmd_err $end
$var wire 1 8 main_spi_uart_master_loopback $end
$var wire 16 9 main_spi_uart_master_clk_divider0 $end
$var wire 16 : main_cnt $end
$var wire 1 ; main_eso $end
$var wire 1 < main_eso_delayed $end
$var wire 3 = main_cmd_bit_cnt $end
$var wire 8 > main_cmd $end
$var wire 8 ? main_cmd_next $end
$var wire 24 @ main_addr $end
$var wire 24 A main_addr_next $end
$var wire 5 B main_addr_cnt $end
$var wire 8 C main_dr $end
$var wire 3 D main_dr_bit_cnt $end
$var wire 1 E main_partial_addr_valid $end
$var wire 1 F main_partial_addr_valid_sys $end
$var wire 18 G main_partial_addr $end
$var wire 24 H main_partial_addr_fw $end
$var wire 1 I main_flash_mem_sel $end
$var wire 1 J scope_clk $end
$var wire 1 K scope_trig $end
$unscope  $end
$enddefinitions  $end
$dumpvars
bxxxxxxxx !
bx "
bx #
bx $
bx %
bx &
bxxx '
bxxx (
bx )
bxxxxxxxx *
bxxxxxxxx +
bx ,
bx -
bxxxxxxxxxxxxxxxxxxxxxxxx .
bxxxxxxxx /
bx 0
bx 1
bx 2
bx 3
bxxxxxxxx 4
bx 5
bx 6
bx 7
bx 8
bxxxxxxxxxxxxxxxx 9
bxxxxxxxxxxxxxxxx :
bx ;
bx <
bxxx =
bxxxxxxxx >
bxxxxxxxx ?
bxxxxxxxxxxxxxxxxxxxxxxxx @
bxxxxxxxxxxxxxxxxxxxxxxxx A
bxxxxx B
bxxxxxxxx C
bxxx D
bx E
bx F
bxxxxxxxxxxxxxxxxxx G
bxxxxxxxxxxxxxxxxxxxxxxxx H
bx I
bx J
bx K
$end
#0
b00000000 !
b1 "
b0 #
b1 $
b0 %
b0 &
b000 '
b000 (
b0 )
b00000000 *
b00001000 +
b1 ,
b0 -
b110000100010010100111001 .
b00000000 /
b0 0
b1 1
b0 2
b0 3
b00000000 4
b0 5
b1 6
b0 7
b0 8
b0000000000000100 9
b0000000000000000 :
b0 ;
b0 <
b001 =
b00000000 >
b00000000 ?
b000000000000000000000000 @
b000000000000000000000000 A
b00000 B
b00000000 C
b000 D
b0 E
b0 F
b000000000000000000 G
b000000000000000000000000 H
b0 I
b1 J
b0 K
#1
b00000000 !
b1 "
b0 #
b1 $
b0 %
b0 &
b000 '
b000 (
b0 )
b00000000 *
b00001000 +
b1 ,
b0 -
b110000100010010100111001 .
b00000000 /
b0 0
b1 1
b0 2
b0 3
b00000000 4
b0 5
b1 6
b0 7
b0 8
b0000000000000100 9
b0000000000000000 :
b0 ;
b0 <
b001 =
b00000000 >
b00000000 ?
b000000000000000000000000 @
b000000000000000000000000 A
b00000 B
b00000000 C
b000 D
b0 E
b0 F
b000000000000000000 G
b000000000000000000000000 H
b0 I
b0 J
b0 K
#2
b00000000 !
b1 "
b0 #
b1 $
b0 %
b0 &
b000 '
b000 (
b0 )
b00000000 *
b00001000 +
b1 ,
b0 -
b110000100010010100111001 .
b00000000 /
b0 0
b1 1
b0 2
b0 3
b00000000 4
b0 5
b1 6
b0 7
b0 8
b0000000000000100 9
b0000000000000000 :
b0 ;
b0 <
b001 =
b00000000 >
b00000000 ?
b000000000000000000000000 @
b000000000000000000000000 A
b00000 B
b00000000 C
b000 D
b0 E
b0 F
b000000000000000000 G
b000000000000000000000000 H
b0 I
b1 J
b0 K
#3
b00000000 !
b1 "
b0 #
b1 $
b0 %
b0 &
b000 '
b000 (
b0 )
b00000000 *
b00001000 +
b1 ,
b0 -
b110000100010010100111001 .
b00000000 /
b0 0
b1 1
b0 2
b0 3
b00000000 4
b0 5
b1 6
b0 7
b0 8
b0000000000000100 9
b0000000000000000 :
b0 ;
b0 <
b001 =
b00000000 >
b00000000 ?
b000000000000000000000000 @
b000000000000000000000000 A
b00000 B
b00000000 C
b000 D
b0 E
b0 F
b000000000000000000 G
b000000000000000000000000 H
b0 I
b0 J
b0 K
#4
b00000000 !
b1 "
b0 #
b1 $
b0 %
b0 &
b000 '
b000 (
b0 )
b00000000 *
b00001000 +
b1 ,
b0 -
b110000100010010100111001 .
b00000000 /
b0 0
b1 1
b0 2
b0 3
b00000000 4
b0 5
b1 6
b0 7
b0 8
b0000000000000100 9
b0000000000000000 :
b0 ;
b0 <
b001 =
b00000000 >
b00000000 ?
b000000000000000000000000 @
b000000000000000000000000 A
b00000 B
b00000000 C
b000 D
b0 E
b0 F
b000000000000000000 G
b000000000000000000000000 H
b0 I
b1 J
b0 K
#5
b00000000 !
b1 "
b0 #
b1 $
b0 %
b0 &
b000 '
b000 (
b0 )
b00000000 *
b00001000 +
b1 ,
b0 -
b110000100010010100111001 .
b00000000 /
b0 0
b1 1
b0 2
b0 3
b00000000 4
b0 5
b1 6
b0 7
b0 8
b0000000000000100 9
b0000000000000000 :
b0 ;
b0 <
b001 =
b00000000 >
b00000000 ?
b000000000000000000000000 @
b000000000000000000000000 A
b00000 B
b00000000 C
b000 D
b0 E
b0 F
b000000000000000000 G
b000000000000000000000000 H
b0 I
b0 J
b0 K
#6
b00000000 !
b1 "
b0 #
b1 $
b0 %
b0 &
b000 '
b000 (
b0 )
b00000000 *
b00001000 +
b1 ,
b0 -
b110000100010010100111001 .
b00000000 /
b0 0
b1 1
b0 2
b0 3
b00000000 4
b0 5
b1 6
b0 7
b0 8
b0000000000000100 9
b0000000000000000 :
b0 ;
b0 <
b001 =
b00000000 >
b00000000 ?
b000000000000000000000000 @
b000000000000000000000000 A
b00000 B
b00000000 C
b000 D
b0 E
b0 F
b000000000000000000 G
b000000000000000000000000 H
b0 I
b1 J
b0 K
#7
b00000000 !
b1 "
b0 #
b1 $
b0 %
b0 &
b000 '
b000 (
b0 )
b00000000 *
b00001000 +
b1 ,
b0 -
b110000100010010100111001 .
b00000000 /
b0 0
b1 1
b0 2
b0 3
b00000000 4
b0 5
b1 6
b0 7
b0 8
b0000000000000100 9
b0000000000000000 :
b0 ;
b0 <
b001 =
b00000000 >
b00000000 ?
b000000000000000000000000 @
b000000000000000000000000 A
b00000 B
b00000000 C
b000 D
b0 E
b0 F
b000000000000000000 G
b000000000000000000000000 H
b0 I
b0 J
b0 K
#8
b00000000 !
b1 "
b0 #
b1 $
b0 %
b0 &
b000 '
b000 (
b0 )
b00000000 *
b00001000 +
b1 ,
b0 -
b110000100010010100111001 .
b00000000 /
b0 0
b1 1
b0 2
b0 3
b00000000 4
b0 5
b1 6
b0 7
b0 8
b0000000000000100 9
b0000000000000000 :
b0 ;
b0 <
b001 =
b00000000 >
b00000000 ?
b000000000000000000000000 @
b000000000000000000000000 A
b00000 B
b00000000 C
b000 D
b0 E
b0 F
b000000000000000000 G
b000000000000000000000000 H
b0 I
b1 J
b0 K
#9
b00000000 !
b1 "
b0 #
b1 $
b0 %
b0 &
b000 '
b000 (
b0 )
b00000000 *
b00001000 +
b1 ,
b0 -
b110000100010010100111001 .
b00000000 /
b0 0
b1 1
b0 2
b0 3
b00000000 4
b0 5
b1 6
b0 7
b0 8
b0000000000000100 9
b0000000000000000 :
b0 ;
b0 <
b001 =
b00000000 >
b00000000 ?
b000000000000000000000000 @
b000000000000000000000000 A
b00000 B
b00000000 C
b000 D
b0 E
b0 F
b000000000000000000 G
b000000000000000000000000 H
b0 I
b0 J
b0 K
#10
b00000000 !
b1 "
b0 #
b1 $
b0 %
b0 &
b000 '
b000 (
b0 )
b00000000 *
b00001000 +
b1 ,
b0 -
b110000100010010100111001 .
b00000000 /
b0 0
b1 1
b0 2
b0 3
b00000000 4
b0 5
b1 6
b0 7
b0 8
b0000000000000100 9
b0000000000000000 :
b0 ;
b0 <
b001 =
b00000000 >
b00000000 ?
b000000000000000000000000 @
b000000000000000000000000 A
b00000 B
b00000000 C
b000 D
b0 E
b0 F
b000000000000000000 G
b000000000000000000000000 H
b0 I
b1 J
b0 K
#11
b00000000 !
b1 "
b0 #
b1 $
b0 %
b0 &
b000 '
b000 (
b0 )
b00000000 *
b00001000 +
b1 ,
b0 -
b110000100010010100111001 .
b00000000 /
b0 0
b1 1
b0 2
b0 3
b00000000 4
b0 5
b1 6
b0 7
b0 8
b0000000000000100 9
b0000000000000000 :
b0 ;
b0 <
b001 =
b00000000 >
b00000000 ?
b000000000000000000000000 @
b000000000000000000000000 A
b00000 B
b00000000 C
b000 D
b0 E
b0 F
b000000000000000000 G
b000000000000000000000000 H
b0 I
b0 J
b0 K
#12
b00000000 !
b1 "
b0 #
b1 $
b0 %
b0 &
b000 '
b000 (
b0 )
b00000000 *
b00001000 +
b1 ,
b0 -
b110000100010010100111001 .
b00000000 /
b0 0
b1 1
b0 2
b0 3
b00000000 4
b0 5
b1 6
b0 7
b0 8
b0000000000000100 9
b0000000000000000 :
b0 ;
b0 <
b001 =
b00000000 >
b00000000 ?
b000000000000000000000000 @
b000000000000000000000000 A
b00000 B
b00000000 C
b000 D
b0 E
b0 F
b000000000000000000 G
b000000000000000000000000 H
b0 I
b1 J
b0 K
#13
b00000000 !
b1 "
b0 #
b1 $
b0 %
b0 &
b000 '
b000 (
b0 )
b00000000 *
b00001000 +
b1 ,
b0 -
b110000100010010100111001 .
b00000000 /
b0 0
b1 1
b0 2
b0 3
b00000000 4
b0 5
b1 6
b0 7
b0 8
b0000000000000100 9
b0000000000000000 :
b0 ;
b0 <
b001 =
b00000000 >
b00000000 ?
b000000000000000000000000 @
b000000000000000000000000 A
b00000 B
b00000000 C
b000 D
b0 E
b0 F
b000000000000000000 G
b000000000000000000000000 H
b0 I
b0 J
b0 K
#14
b00000000 !
b1 "
b0 #
b1 $
b0 %
b0 &
b000 '
b000 (
b0 )
b00000000 *
b00001000 +
b1 ,
b0 -
b110000100010010100111001 .
b00000000 /
b0 0
b1 1
b0 2
b0 3
b00000000 4
b0 5
b1 6
b0 7
b0 8
b0000000000000100 9
b0000000000000000 :
b0 ;
b0 <
b001 =
b00000000 >
b00000000 ?
b000000000000000000000000 @
b000000000000000000000000 A
b00000 B
b00000000 C
b000 D
b0 E
b0 F
b000000000000000000 G
b000000000000000000000000 H
b0 I
b1 J
b0 K
#15
b00000000 !
b1 "
b0 #
b1 $
b0 %
b0 &
b000 '
b000 (
b0 )
b00000000 *
b00001000 +
b1 ,
b0 -
b110000100010010100111001 .
b00000000 /
b0 0
b1 1
b0 2
b0 3
b00000000 4
b0 5
b1 6
b0 7
b0 8
b0000000000000100 9
b0000000000000000 :
b0 ;
b0 <
b001 =
b00000000 >
b00000000 ?
b000000000000000000000000 @
b000000000000000000000000 A
b00000 B
b00000000 C
b000 D
b0 E
b0 F
b000000000000000000 G
b000000000000000000000000 H
b0 I
b0 J
b0 K
#16
b00000000 !
b1 "
b0 #
b1 $
b0 %
b0 &
b000 '
b000 (
b0 )
b00000000 *
b00001000 +
b1 ,
b0 -
b110000100010010100111001 .
b00000000 /
b0 0
b1 1
b0 2
b0 3
b00000000 4
b0 5
b1 6
b0 7
b0 8
b0000000000000100 9
b0000000000000000 :
b0 ;
b0 <
b001 =
b00000000 >
b00000000 ?
b000000000000000000000000 @
b000000000000000000000000 A
b00000 B
b00000000 C
b000 D
b0 E
b0 F
b000000000000000000 G
b000000000000000000000000 H
b0 I
b1 J
b0 K
#17
b00000000 !
b1 "
b0 #
b1 $
b0 %
b0 &
b000 '
b000 (
b0 )
b00000000 *
b00001000 +
b1 ,
b0 -
b110000100010010100111001 .
b00000000 /
b0 0
b1 1
b0 2
b0 3
b00000000 4
b0 5
b1 6
b0 7
b0 8
b0000000000000100 9
b0000000000000000 :
b0 ;
b0 <
b001 =
b00000000 >
b00000000 ?
b000000000000000000000000 @
b000000000000000000000000 A
b00000 B
b00000000 C
b000 D
b0 E
b0 F
b000000000000000000 G
b000000000000000000000000 H
b0 I
b0 J
b0 K
#18
b00000000 !
b1 "
b0 #
b1 $
b0 %
b0 &
b000 '
b000 (
b0 )
b00000000 *
b00001000 +
b1 ,
b0 -
b110000100010010100111001 .
b00000000 /
b0 0
b1 1
b0 2
b0 3
b00000000 4
b0 5
b1 6
b0 7
b0 8
b0000000000000100 9
b0000000000000000 :
b0 ;
b0 <
b001 =
b00000000 >
b00000000 ?
b000000000000000000000000 @
b000000000000000000000000 A
b00000 B
b00000000 C
b000 D
b0 E
b0 F
b000000000000000000 G
b000000000000000000000000 H
b0 I
b1 J
b0 K
#19
b00000000 !
b1 "
b0 #
b1 $
b0 %
b0 &
b000 '
b000 (
b0 )
b00000000 *
b00001000 +
b1 ,
b0 -
b110000100010010100111001 .
b00000000 /
b0 0
b1 1
b0 2
b0 3
b00000000 4
b0 5
b1 6
b0 7
b0 8
b0000000000000100 9
b0000000000000000 :
b0 ;
b0 <
b001 =
b00000000 >
b00000000 ?
b000000000000000000000000 @
b000000000000000000000000 A
b00000 B
b00000000 C
b000 D
b0 E
b0 F
b000000000000000000 G
b000000000000000000000000 H
b0 I
b0 J
b0 K
#20
b00000000 !
b1 "
b0 #
b1 $
b0 %
b0 &
b000 '
b000 (
b0 )
b00000000 *
b00001000 +
b1 ,
b0 -
b110000100010010100111001 .
b00000000 /
b0 0
b1 1
b0 2
b0 3
b00000000 4
b0 5
b1 6
b0 7
b0 8
b0000000000000100 9
b0000000000000000 :
b0 ;
b0 <
b001 =
b00000000 >
b00000000 ?
b000000000000000000000000 @
b000000000000000000000000 A
b00000 B
b00000000 C
b000 D
b0 E
b0 F
b000000000000000000 G
b000000000000000000000000 H
b0 I
b1 J
b0 K
#21
b00000000 !
b1 "
b0 #
b1 $
b0 %
b0 &
b000 '
b000 (
b0 )
b00000000 *
b00001000 +
b1 ,
b0 -
b110000100010010100111001 .
b00000000 /
b0 0
b1 1
b0 2
b0 3
b00000000 4
b0 5
b1 6
b0 7
b0 8
b0000000000000100 9
b0000000000000000 :
b0 ;
b0 <
b001 =
b00000000 >
b00000000 ?
b000000000000000000000000 @
b000000000000000000000000 A
b00000 B
b00000000 C
b000 D
b0 E
b0 F
b000000000000000000 G
b000000000000000000000000 H
b0 I
b0 J
b0 K
#22
b00000000 !
b1 "
b0 #
b1 $
b0 %
b0 &
b000 '
b000 (
b0 )
b00000000 *
b00001000 +
b1 ,
b0 -
b110000100010010100111001 .
b00000000 /
b0 0
b1 1
b0 2
b0 3
b00000000 4
b0 5
b1 6
b0 7
b0 8
b0000000000000100 9
b0000000000000000 :
b0 ;
b0 <
b001 =
b00000000 >
b00000000 ?
b000000000000000000000000 @
b000000000000000000000000 A
b00000 B
b00000000 C
b000 D
b0 E
b0 F
b000000000000000000 G
b000000000000000000000000 H
b0 I
b1 J
b0 K
#23
b00000000 !
b1 "
b0 #
b1 $
b0 %
b0 &
b000 '
b000 (
b0 )
b00000000 *
b00001000 +
b1 ,
b0 -
b110000100010010100111001 .
b00000000 /
b0 0
b1 1
b0 2
b0 3
b00000000 4
b0 5
b1 6
b0 7
b0 8
b0000000000000100 9
b0000000000000000 :
b0 ;
b0 <
b001 =
b00000000 >
b00000000 ?
b000000000000000000000000 @
b000000000000000000000000 A
b00000 B
b00000000 C
b000 D
b0 E
b0 F
b000000000000000000 G
b000000000000000000000000 H
b0 I
b0 J
b0 K
#24
b00000000 !
b1 "
b0 #
b1 $
b0 %
b0 &
b000 '
b000 (
b0 )
b00000000 *
b00001000 +
b1 ,
b0 -
b110000100010010100111001 .
b00000000 /
b0 0
b1 1
b0 2
b0 3
b00000000 4
b0 5
b1 6
b0 7
b0 8
b0000000000000100 9
b0000000000000000 :
b0 ;
b0 <
b001 =
b00000000 >
b00000000 ?
b000000000000000000000000 @
b000000000000000000000000 A
b00000 B
b00000000 C
b000 D
b0 E
b0 F
b000000000000000000 G
b000000000000000000000000 H
b0 I
b1 J
b0 K
#25
b00000000 !
b1 "
b0 #
b1 $
b0 %
b0 &
b000 '
b000 (
b0 )
b00000000 *
b00001000 +
b1 ,
b0 -
b110000100010010100111001 .
b00000000 /
b0 0
b1 1
b0 2
b0 3
b00000000 4
b0 5
b1 6
b0 7
b0 8
b0000000000000100 9
b0000000000000000 :
b0 ;
b0 <
b001 =
b00000000 >
b00000000 ?
b000000000000000000000000 @
b000000000000000000000000 A
b00000 B
b00000000 C
b000 D
b0 E
b0 F
b000000000000000000 G
b000000000000000000000000 H
b0 I
b0 J
b0 K
#26
b00000000 !
b1 "
b0 #
b1 $
b0 %
b0 &
b000 '
b000 (
b0 )
b00000000 *
b00001000 +
b1 ,
b0 -
b110000100010010100111001 .
b00000000 /
b0 0
b1 1
b0 2
b0 3
b00000000 4
b0 5
b1 6
b0 7
b0 8
b0000000000000100 9
b0000000000000000 :
b0 ;
b0 <
b001 =
b00000000 >
b00000000 ?
b000000000000000000000000 @
b000000000000000000000000 A
b00000 B
b00000000 C
b000 D
b0 E
b0 F
b000000000000000000 G
b000000000000000000000000 H
b0 I
b1 J
b0 K
#27
b00000000 !
b1 "
b0 #
b1 $
b0 %
b0 &
b000 '
b000 (
b0 )
b00000000 *
b00001000 +
b1 ,
b0 -
b110000100010010100111001 .
b00000000 /
b0 0
b1 1
b0 2
b0 3
b00000000 4
b0 5
b1 6
b0 7
b0 8
b0000000000000100 9
b0000000000000000 :
b0 ;
b0 <
b001 =
b00000000 >
b00000000 ?
b000000000000000000000000 @
b000000000000000000000000 A
b00000 B
b00000000 C
b000 D
b0 E
b0 F
b000000000000000000 G
b000000000000000000000000 H
b0 I
b0 J
b0 K
#28
b00000000 !
b1 "
b0 #
b1 $
b0 %
b0 &
b000 '
b000 (
b0 )
b00000000 *
b00001000 +
b1 ,
b0 -
b110000100010010100111001 .
b00000000 /
b0 0
b1 1
b0 2
b0 3
b00000000 4
b0 5
b1 6
b0 7
b0 8
b0000000000000100 9
b0000000000000000 :
b0 ;
b0 <
b001 =
b00000000 >
b00000000 ?
b000000000000000000000000 @
b000000000000000000000000 A
b00000 B
b00000000 C
b000 D
b0 E
b0 F
b000000000000000000 G
b000000000000000000000000 H
b0 I
b1 J
b0 K
#29
b00000000 !
b1 "
b0 #
b1 $
b0 %
b0 &
b000 '
b000 (
b0 )
b00000000 *
b00001000 +
b1 ,
b0 -
b110000100010010100111001 .
b00000000 /
b0 0
b1 1
b0 2
b0 3
b00000000 4
b0 5
b1 6
b0 7
b0 8
b0000000000000100 9
b0000000000000000 :
b0 ;
b0 <
b001 =
b00000000 >
b00000000 ?
b000000000000000000000000 @
b000000000000000000000000 A
b00000 B
b00000000 C
b000 D
b0 E
b0 F
b000000000000000000 G
b000000000000000000000000 H
b0 I
b0 J
b0 K
#30
b00000000 !
b1 "
b0 #
b1 $
b0 %
b0 &
b000 '
b000 (
b0 )
b00000000 *
b00001000 +
b1 ,
b0 -
b110000100010010100111001 .
b00000000 /
b0 0
b1 1
b0 2
b0 3
b00000000 4
b0 5
b1 6
b0 7
b0 8
b0000000000000100 9
b0000000000000000 :
b0 ;
b0 <
b001 =
b00000000 >
b00000000 ?
b000000000000000000000000 @
b000000000000000000000000 A
b00000 B
b00000000 C
b000 D
b0 E
b0 F
b000000000000000000 G
b000000000000000000000000 H
b0 I
b1 J
b0 K
#31
b00000000 !
b1 "
b0 #
b1 $
b0 %
b0 &
b000 '
b000 (
b0 )
b00000000 *
b00001000 +
b1 ,
b0 -
b110000100010010100111001 .
b00000000 /
b0 0
b1 1
b0 2
b0 3
b00000000 4
b0 5
b1 6
b0 7
b0 8
b0000000000000100 9
b0000000000000000 :
b0 ;
b0 <
b001 =
b00000000 >
b00000000 ?
b000000000000000000000000 @
b000000000000000000000000 A
b00000 B
b00000000 C
b000 D
b0 E
b0 F
b000000000000000000 G
b000000000000000000000000 H
b0 I
b0 J
b0 K
#32
b00000000 !
b1 "
b0 #
b1 $
b0 %
b0 &
b000 '
b000 (
b0 )
b00000000 *
b00001000 +
b1 ,
b0 -
b110000100010010100111001 .
b00000000 /
b0 0
b1 1
b0 2
b0 3
b00000000 4
b0 5
b1 6
b0 7
b0 8
b0000000000000100 9
b0000000000000000 :
b0 ;
b0 <
b001 =
b00000000 >
b00000000 ?
b000000000000000000000000 @
b000000000000000000000000 A
b00000 B
b00000000 C
b000 D
b0 E
b0 F
b000000000000000000 G
b000000000000000000000000 H
b0 I
b1 J
b1 K
#33
b00000000 !
b1 "
b0 #
b1 $
b0 %
b0 &
b000 '
b000 (
b0 )
b00000000 *
b00001000 +
b1 ,
b0 -
b110000100010010100111001 .
b00000000 /
b0 0
b1 1
b0 2
b0 3
b00000000 4
b0 5
b1 6
b0 7
b0 8
b0000000000000100 9
b0000000000000000 :
b0 ;
b0 <
b001 =
b00000000 >
b00000000 ?
b000000000000000000000000 @
b000000000000000000000000 A
b00000 B
b00000000 C
b000 D
b0 E
b0 F
b000000000000000000 G
b000000000000000000000000 H
b0 I
b0 J
b1 K
#34
b00000000 !
b1 "
b0 #
b1 $
b0 %
b0 &
b000 '
b000 (
b0 )
b00000000 *
b00001000 +
b1 ,
b0 -
b110000100010010100111001 .
b00000000 /
b0 0
b1 1
b0 2
b0 3
b00000000 4
b0 5
b1 6
b0 7
b0 8
b0000000000000100 9
b0000000000000000 :
b0 ;
b0 <
b001 =
b00000000 >
b00000000 ?
b000000000000000000000000 @
b000000000000000000000000 A
b00000 B
b00000000 C
b000 D
b0 E
b0 F
b000000000000000000 G
b000000000000000000000000 H
b0 I
b1 J
b1 K
#35
b00000000 !
b1 "
b0 #
b1 $
b0 %
b0 &
b000 '
b000 (
b0 )
b00000000 *
b00001000 +
b1 ,
b0 -
b110000100010010100111001 .
b00000000 /
b0 0
b1 1
b0 2
b0 3
b00000000 4
b0 5
b1 6
b0 7
b0 8
b0000000000000100 9
b0000000000000000 :
b0 ;
b0 <
b001 =
b00000000 >
b00000000 ?
b000000000000000000000000 @
b000000000000000000000000 A
b00000 B
b00000000 C
b000 D
b0 E
b0 F
b000000000000000000 G
b000000000000000000000000 H
b0 I
b0 J
b1 K
#36
b00000000 !
b1 "
b0 #
b1 $
b0 %
b0 &
b000 '
b000 (
b0 )
b00000000 *
b00001000 +
b1 ,
b0 -
b110000100010010100111001 .
b00000000 /
b0 0
b1 1
b0 2
b0 3
b00000000 4
b0 5
b1 6
b0 7
b0 8
b0000000000000100 9
b0000000000000000 :
b0 ;
b0 <
b001 =
b00000000 >
b00000000 ?
b000000000000000000000000 @
b000000000000000000000000 A
b00000 B
b00000000 C
b000 D
b0 E
b0 F
b000000000000000000 G
b000000000000000000000000 H
b0 I
b1 J
b1 K
#37
b00000000 !
b1 "
b0 #
b1 $
b0 %
b0 &
b000 '
b000 (
b0 )
b00000000 *
b00001000 +
b1 ,
b0 -
b110000100010010100111001 .
b00000000 /
b0 0
b1 1
b0 2
b0 3
b00000000 4
b0 5
b1 6
b0 7
b0 8
b0000000000000100 9
b0000000000000000 :
b0 ;
b0 <
b001 =
b00000000 >
b00000000 ?
b000000000000000000000000 @
b000000000000000000000000 A
b00000 B
b00000000 C
b000 D
b0 E
b0 F
b000000000000000000 G
b000000000000000000000000 H
b0 I
b0 J
b1 K
#38
b00000000 !
b1 "
b0 #
b1 $
b0 %
b0 &
b000 '
b000 (
b0 )
b00000000 *
b00001000 +
b1 ,
b0 -
b110000100010010100111001 .
b00000000 /
b0 0
b1 1
b0 2
b0 3
b00000000 4
b0 5
b1 6
b0 7
b0 8
b0000000000000100 9
b0000000000000000 :
b0 ;
b0 <
b001 =
b00000000 >
b00000000 ?
b000000000000000000000000 @
b000000000000000000000000 A
b00000 B
b00000000 C
b000 D
b0 E
b0 F
b000000000000000000 G
b000000000000000000000000 H
b0 I
b1 J
b1 K
#39
b00000000 !
b1 "
b0 #
b1 $
b0 %
b0 &
b000 '
b000 (
b0 )
b00000000 *
b00001000 +
b1 ,
b0 -
b110000100010010100111001 .
b00000000 /
b0 0
b1 1
b0 2
b0 3
b00000000 4
b0 5
b1 6
b0 7
b0 8
b0000000000000100 9
b0000000000000000 :
b0 ;
b0 <
b001 =
b00000000 >
b00000000 ?
b000000000000000000000000 @
b000000000000000000000000 A
b00000 B
b00000000 C
b000 D
b0 E
b0 F
b000000000000000000 G
b000000000000000000000000 H
b0 I
b0 J
b1 K
#40
b00000000 !
b1 "
b0 #
b1 $
b0 %
b0 &
b000 '
b000 (
b0 )
b00000000 *
b00001000 +
b1 ,
b0 -
b110000100010010100111001 .
b00000000 /
b0 0
b1 1
b0 2
b0 3
b00000000 4
b0 5
b1 6
b0 7
b0 8
b0000000000000100 9
b0000000000000000 :
b0 ;
b0 <
b001 =
b00000000 >
b00000000 ?
b000000000000000000000000 @
b000000000000000000000000 A
b00000 B
b00000000 C
b000 D
b0 E
b0 F
b000000000000000000 G
b000000000000000000000000 H
b0 I
b1 J
b1 K
#41
b00000000 !
b1 "
b0 #
b1 $
b0 %
b0 &
b000 '
b000 (
b0 )
b00000000 *
b00001000 +
b1 ,
b0 -
b110000100010010100111001 .
b00000000 /
b0 0
b1 1
b0 2
b0 3
b00000000 4
b0 5
b1 6
b0 7
b0 8
b0000000000000100 9
b0000000000000000 :
b0 ;
b0 <
b001 =
b00000000 >
b00000000 ?
b000000000000000000000000 @
b000000000000000000000000 A
b00000 B
b00000000 C
b000 D
b0 E
b0 F
b000000000000000000 G
b000000000000000000000000 H
b0 I
b0 J
b1 K
#42
b00000000 !
b1 "
b0 #
b1 $
b0 %
b0 &
b000 '
b000 (
b0 )
b00000000 *
b00001000 +
b1 ,
b0 -
b110000100010010100111001 .
b00000000 /
b0 0
b1 1
b0 2
b0 3
b00000000 4
b0 5
b1 6
b0 7
b0 8
b0000000000000100 9
b0000000000000000 :
b0 ;
b0 <
b001 =
b00000000 >
b00000000 ?
b000000000000000000000000 @
b000000000000000000000000 A
b00000 B
b00000000 C
b000 D
b0 E
b0 F
b000000000000000000 G
b000000000000000000000000 H
b0 I
b1 J
b1 K
#43
b00000000 !
b1 "
b0 #
b1 $
b0 %
b0 &
b000 '
b000 (
b0 )
b00000000 *
b00001000 +
b1 ,
b0 -
b110000100010010100111001 .
b00000000 /
b0 0
b1 1
b0 2
b0 3
b00000000 4
b0 5
b1 6
b0 7
b0 8
b0000000000000100 9
b0000000000000000 :
b0 ;
b0 <
b001 =
b00000000 >
b00000000 ?
b000000000000000000000000 @
b000000000000000000000000 A
b00000 B
b00000000 C
b000 D
b0 E
b0 F
b000000000000000000 G
b000000000000000000000000 H
b0 I
b0 J
b1 K
#44
b00000000 !
b1 "
b0 #
b1 $
b0 %
b0 &
b000 '
b000 (
b0 )
b00000000 *
b00001000 +
b1 ,
b0 -
b110000100010010100111001 .
b00000000 /
b0 0
b1 1
b0 2
b0 3
b00000000 4
b0 5
b1 6
b0 7
b0 8
b0000000000000100 9
b0000000000000000 :
b0 ;
b0 <
b001 =
b00000000 >
b00000000 ?
b000000000000000000000000 @
b000000000000000000000000 A
b00000 B
b00000000 C
b000 D
b0 E
b0 F
b000000000000000000 G
b000000000000000000000000 H
b0 I
b1 J
b1 K
#45
b00000000 !
b1 "
b0 #
b1 $
b0 %
b0 &
b000 '
b000 (
b0 )
b00000000 *
b00001000 +
b1 ,
b0 -
b110000100010010100111001 .
b00000000 /
b0 0
b1 1
b0 2
b0 3
b00000000 4
b0 5
b1 6
b0 7
b0 8
b0000000000000100 9
b0000000000000000 :
b0 ;
b0 <
b001 =
b00000000 >
b00000000 ?
b000000000000000000000000 @
b000000000000000000000000 A
b00000 B
b00000000 C
b000 D
b0 E
b0 F
b000000000000000000 G
b000000000000000000000000 H
b0 I
b0 J
b1 K
#46
b00000000 !
b1 "
b0 #
b1 $
b0 %
b0 &
b000 '
b000 (
b0 )
b00000000 *
b00001000 +
b1 ,
b0 -
b110000100010010100111001 .
b00000000 /
b0 0
b1 1
b0 2
b0 3
b00000000 4
b0 5
b1 6
b0 7
b0 8
b0000000000000100 9
b0000000000000000 :
b0 ;
b0 <
b001 =
b00000000 >
b00000000 ?
b000000000000000000000000 @
b000000000000000000000000 A
b00000 B
b00000000 C
b000 D
b0 E
b0 F
b000000000000000000 G
b000000000000000000000000 H
b0 I
b1 J
b1 K
#47
b00000000 !
b1 "
b0 #
b1 $
b0 %
b0 &
b000 '
b000 (
b0 )
b00000000 *
b00001000 +
b1 ,
b0 -
b110000100010010100111001 .
b00000000 /
b0 0
b1 1
b0 2
b0 3
b00000000 4
b0 5
b1 6
b0 7
b0 8
b0000000000000100 9
b0000000000000000 :
b0 ;
b0 <
b001 =
b00000000 >
b00000000 ?
b000000000000000000000000 @
b000000000000000000000000 A
b00000 B
b00000000 C
b000 D
b0 E
b0 F
b000000000000000000 G
b000000000000000000000000 H
b0 I
b0 J
b1 K
