dram-tests/vcd-dumps/prefetch-1-sim.vcd
$date
	2021-09-09 11:05
$end
$timescale 4000ps $end
$scope 1ps $end
$var wire 8 ! main_flash_mem_cnt $end
$var wire 1 " main_get_cmd_flag $end
$var wire 1 # main_analyzer_trigger $end
$var wire 1 $ main_anal_enable $end
$var wire 1 % main_anal_hit $end
$var wire 1 & main_run_flag $end
$var wire 3 ' main_state $end
$var wire 3 ( main_next_state $end
$var wire 8 ) main_dr_tmp $end
$var wire 1 * main_spi_uart_master_start $end
$var wire 8 + main_spi_uart_master_length $end
$var wire 1 , main_spi_uart_master_done $end
$var wire 1 - main_spi_uart_master_irq $end
$var wire 24 . main_idcode $end
$var wire 8 / main_spi_uart_master_mosi $end
$var wire 8 0 main_spi_uart_master_miso $end
$var wire 1 1 spiflash_emu_sclk $end
$var wire 1 2 spiflash_emu_csn $end
$var wire 1 3 spiflash_emu_si $end
$var wire 1 4 spiflash_emu_so $end
$var wire 1 5 main_spi_uart_master_cs $end
$var wire 1 6 main_bad_cmd_err $end
$var wire 1 7 main_spi_uart_master_cs_mode $end
$var wire 16 8 main_cnt $end
$var wire 1 9 main_spi_uart_master_loopback $end
$var wire 16 : main_spi_uart_master_clk_divider0 $end
$var wire 1 ; main_eso $end
$var wire 1 < main_eso_delayed $end
$var wire 3 = main_cmd_bit_cnt $end
$var wire 8 > main_cmd $end
$var wire 8 ? main_cmd_next $end
$var wire 24 @ main_addr $end
$var wire 24 A main_addr_next $end
$var wire 5 B main_addr_cnt $end
$var wire 8 C main_dr $end
$var wire 3 D main_dr_bit_cnt $end
$var wire 1 E main_partial_addr_valid $end
$var wire 1 F main_partial_addr_valid_sys $end
$var wire 23 G main_partial_addr $end
$var wire 1 H main_flash_mem_sel $end
$var wire 1 I scope_clk $end
$var wire 1 J scope_trig $end
$unscope  $end
$enddefinitions  $end
$dumpvars
bxxxxxxxx !
bx "
bx #
bx $
bx %
bx &
bxxx '
bxxx (
bxxxxxxxx )
bx *
bxxxxxxxx +
bx ,
bx -
bxxxxxxxxxxxxxxxxxxxxxxxx .
bxxxxxxxx /
bxxxxxxxx 0
bx 1
bx 2
bx 3
bx 4
bx 5
bx 6
bx 7
bxxxxxxxxxxxxxxxx 8
bx 9
bxxxxxxxxxxxxxxxx :
bx ;
bx <
bxxx =
bxxxxxxxx >
bxxxxxxxx ?
bxxxxxxxxxxxxxxxxxxxxxxxx @
bxxxxxxxxxxxxxxxxxxxxxxxx A
bxxxxx B
bxxxxxxxx C
bxxx D
bx E
bx F
bxxxxxxxxxxxxxxxxxxxxxxx G
bx H
bx I
bx J
$end
#0
b00000000 !
b1 "
b0 #
b1 $
b0 %
b0 &
b000 '
b000 (
b00000000 )
b0 *
b00001000 +
b1 ,
b0 -
b110000100010010100111001 .
b00000000 /
b00000000 0
b0 1
b1 2
b0 3
b0 4
b0 5
b0 6
b1 7
b0000000000000000 8
b0 9
b0000000000000100 :
b0 ;
b0 <
b001 =
b00000000 >
b00000000 ?
b000000000000000000000000 @
b000000000000000000000000 A
b00000 B
b00000000 C
b000 D
b0 E
b0 F
b00000000000000000000000 G
b0 H
b1 I
b0 J
#1
b00000000 !
b1 "
b0 #
b1 $
b0 %
b0 &
b000 '
b000 (
b00000000 )
b0 *
b00001000 +
b1 ,
b0 -
b110000100010010100111001 .
b00000000 /
b00000000 0
b0 1
b1 2
b0 3
b0 4
b0 5
b0 6
b1 7
b0000000000000000 8
b0 9
b0000000000000100 :
b0 ;
b0 <
b001 =
b00000000 >
b00000000 ?
b000000000000000000000000 @
b000000000000000000000000 A
b00000 B
b00000000 C
b000 D
b0 E
b0 F
b00000000000000000000000 G
b0 H
b0 I
b0 J
#2
b00000000 !
b1 "
b0 #
b1 $
b0 %
b0 &
b000 '
b000 (
b00000000 )
b0 *
b00001000 +
b1 ,
b0 -
b110000100010010100111001 .
b00000000 /
b00000000 0
b0 1
b1 2
b0 3
b0 4
b0 5
b0 6
b1 7
b0000000000000000 8
b0 9
b0000000000000100 :
b0 ;
b0 <
b001 =
b00000000 >
b00000000 ?
b000000000000000000000000 @
b000000000000000000000000 A
b00000 B
b00000000 C
b000 D
b0 E
b0 F
b00000000000000000000000 G
b0 H
b1 I
b0 J
#3
b00000000 !
b1 "
b0 #
b1 $
b0 %
b0 &
b000 '
b000 (
b00000000 )
b0 *
b00001000 +
b1 ,
b0 -
b110000100010010100111001 .
b00000000 /
b00000000 0
b0 1
b1 2
b0 3
b0 4
b0 5
b0 6
b1 7
b0000000000000000 8
b0 9
b0000000000000100 :
b0 ;
b0 <
b001 =
b00000000 >
b00000000 ?
b000000000000000000000000 @
b000000000000000000000000 A
b00000 B
b00000000 C
b000 D
b0 E
b0 F
b00000000000000000000000 G
b0 H
b0 I
b0 J
#4
b00000000 !
b1 "
b0 #
b1 $
b0 %
b0 &
b000 '
b000 (
b00000000 )
b0 *
b00001000 +
b1 ,
b0 -
b110000100010010100111001 .
b00000000 /
b00000000 0
b0 1
b1 2
b0 3
b0 4
b0 5
b0 6
b1 7
b0000000000000000 8
b0 9
b0000000000000100 :
b0 ;
b0 <
b001 =
b00000000 >
b00000000 ?
b000000000000000000000000 @
b000000000000000000000000 A
b00000 B
b00000000 C
b000 D
b0 E
b0 F
b00000000000000000000000 G
b0 H
b1 I
b0 J
#5
b00000000 !
b1 "
b0 #
b1 $
b0 %
b0 &
b000 '
b000 (
b00000000 )
b0 *
b00001000 +
b1 ,
b0 -
b110000100010010100111001 .
b00000000 /
b00000000 0
b0 1
b1 2
b0 3
b0 4
b0 5
b0 6
b1 7
b0000000000000000 8
b0 9
b0000000000000100 :
b0 ;
b0 <
b001 =
b00000000 >
b00000000 ?
b000000000000000000000000 @
b000000000000000000000000 A
b00000 B
b00000000 C
b000 D
b0 E
b0 F
b00000000000000000000000 G
b0 H
b0 I
b0 J
#6
b00000000 !
b1 "
b0 #
b1 $
b0 %
b0 &
b000 '
b000 (
b00000000 )
b0 *
b00001000 +
b1 ,
b0 -
b110000100010010100111001 .
b00000000 /
b00000000 0
b0 1
b1 2
b0 3
b0 4
b0 5
b0 6
b1 7
b0000000000000000 8
b0 9
b0000000000000100 :
b0 ;
b0 <
b001 =
b00000000 >
b00000000 ?
b000000000000000000000000 @
b000000000000000000000000 A
b00000 B
b00000000 C
b000 D
b0 E
b0 F
b00000000000000000000000 G
b0 H
b1 I
b0 J
#7
b00000000 !
b1 "
b0 #
b1 $
b0 %
b0 &
b000 '
b000 (
b00000000 )
b0 *
b00001000 +
b1 ,
b0 -
b110000100010010100111001 .
b00000000 /
b00000000 0
b0 1
b1 2
b0 3
b0 4
b0 5
b0 6
b1 7
b0000000000000000 8
b0 9
b0000000000000100 :
b0 ;
b0 <
b001 =
b00000000 >
b00000000 ?
b000000000000000000000000 @
b000000000000000000000000 A
b00000 B
b00000000 C
b000 D
b0 E
b0 F
b00000000000000000000000 G
b0 H
b0 I
b0 J
#8
b00000000 !
b1 "
b0 #
b1 $
b0 %
b0 &
b000 '
b000 (
b00000000 )
b0 *
b00001000 +
b1 ,
b0 -
b110000100010010100111001 .
b00000000 /
b00000000 0
b0 1
b1 2
b0 3
b0 4
b0 5
b0 6
b1 7
b0000000000000000 8
b0 9
b0000000000000100 :
b0 ;
b0 <
b001 =
b00000000 >
b00000000 ?
b000000000000000000000000 @
b000000000000000000000000 A
b00000 B
b00000000 C
b000 D
b0 E
b0 F
b00000000000000000000000 G
b0 H
b1 I
b0 J
#9
b00000000 !
b1 "
b0 #
b1 $
b0 %
b0 &
b000 '
b000 (
b00000000 )
b0 *
b00001000 +
b1 ,
b0 -
b110000100010010100111001 .
b00000000 /
b00000000 0
b0 1
b1 2
b0 3
b0 4
b0 5
b0 6
b1 7
b0000000000000000 8
b0 9
b0000000000000100 :
b0 ;
b0 <
b001 =
b00000000 >
b00000000 ?
b000000000000000000000000 @
b000000000000000000000000 A
b00000 B
b00000000 C
b000 D
b0 E
b0 F
b00000000000000000000000 G
b0 H
b0 I
b0 J
#10
b00000000 !
b1 "
b0 #
b1 $
b0 %
b0 &
b000 '
b000 (
b00000000 )
b0 *
b00001000 +
b1 ,
b0 -
b110000100010010100111001 .
b00000000 /
b00000000 0
b0 1
b1 2
b0 3
b0 4
b0 5
b0 6
b1 7
b0000000000000000 8
b0 9
b0000000000000100 :
b0 ;
b0 <
b001 =
b00000000 >
b00000000 ?
b000000000000000000000000 @
b000000000000000000000000 A
b00000 B
b00000000 C
b000 D
b0 E
b0 F
b00000000000000000000000 G
b0 H
b1 I
b0 J
#11
b00000000 !
b1 "
b0 #
b1 $
b0 %
b0 &
b000 '
b000 (
b00000000 )
b0 *
b00001000 +
b1 ,
b0 -
b110000100010010100111001 .
b00000000 /
b00000000 0
b0 1
b1 2
b0 3
b0 4
b0 5
b0 6
b1 7
b0000000000000000 8
b0 9
b0000000000000100 :
b0 ;
b0 <
b001 =
b00000000 >
b00000000 ?
b000000000000000000000000 @
b000000000000000000000000 A
b00000 B
b00000000 C
b000 D
b0 E
b0 F
b00000000000000000000000 G
b0 H
b0 I
b0 J
#12
b00000000 !
b1 "
b0 #
b1 $
b0 %
b0 &
b000 '
b000 (
b00000000 )
b0 *
b00001000 +
b1 ,
b0 -
b110000100010010100111001 .
b00000000 /
b00000000 0
b0 1
b1 2
b0 3
b0 4
b0 5
b0 6
b1 7
b0000000000000000 8
b0 9
b0000000000000100 :
b0 ;
b0 <
b001 =
b00000000 >
b00000000 ?
b000000000000000000000000 @
b000000000000000000000000 A
b00000 B
b00000000 C
b000 D
b0 E
b0 F
b00000000000000000000000 G
b0 H
b1 I
b0 J
#13
b00000000 !
b1 "
b0 #
b1 $
b0 %
b0 &
b000 '
b000 (
b00000000 )
b0 *
b00001000 +
b1 ,
b0 -
b110000100010010100111001 .
b00000000 /
b00000000 0
b0 1
b1 2
b0 3
b0 4
b0 5
b0 6
b1 7
b0000000000000000 8
b0 9
b0000000000000100 :
b0 ;
b0 <
b001 =
b00000000 >
b00000000 ?
b000000000000000000000000 @
b000000000000000000000000 A
b00000 B
b00000000 C
b000 D
b0 E
b0 F
b00000000000000000000000 G
b0 H
b0 I
b0 J
#14
b00000000 !
b1 "
b0 #
b1 $
b0 %
b0 &
b000 '
b000 (
b00000000 )
b0 *
b00001000 +
b1 ,
b0 -
b110000100010010100111001 .
b00000000 /
b00000000 0
b0 1
b1 2
b0 3
b0 4
b0 5
b0 6
b1 7
b0000000000000000 8
b0 9
b0000000000000100 :
b0 ;
b0 <
b001 =
b00000000 >
b00000000 ?
b000000000000000000000000 @
b000000000000000000000000 A
b00000 B
b00000000 C
b000 D
b0 E
b0 F
b00000000000000000000000 G
b0 H
b1 I
b0 J
#15
b00000000 !
b1 "
b0 #
b1 $
b0 %
b0 &
b000 '
b000 (
b00000000 )
b0 *
b00001000 +
b1 ,
b0 -
b110000100010010100111001 .
b00000000 /
b00000000 0
b0 1
b1 2
b0 3
b0 4
b0 5
b0 6
b1 7
b0000000000000000 8
b0 9
b0000000000000100 :
b0 ;
b0 <
b001 =
b00000000 >
b00000000 ?
b000000000000000000000000 @
b000000000000000000000000 A
b00000 B
b00000000 C
b000 D
b0 E
b0 F
b00000000000000000000000 G
b0 H
b0 I
b0 J
#16
b00000000 !
b1 "
b0 #
b1 $
b0 %
b0 &
b000 '
b000 (
b00000000 )
b0 *
b00001000 +
b1 ,
b0 -
b110000100010010100111001 .
b00000000 /
b00000000 0
b0 1
b1 2
b0 3
b0 4
b0 5
b0 6
b1 7
b0000000000000000 8
b0 9
b0000000000000100 :
b0 ;
b0 <
b001 =
b00000000 >
b00000000 ?
b000000000000000000000000 @
b000000000000000000000000 A
b00000 B
b00000000 C
b000 D
b0 E
b0 F
b00000000000000000000000 G
b0 H
b1 I
b0 J
#17
b00000000 !
b1 "
b0 #
b1 $
b0 %
b0 &
b000 '
b000 (
b00000000 )
b0 *
b00001000 +
b1 ,
b0 -
b110000100010010100111001 .
b00000000 /
b00000000 0
b0 1
b1 2
b0 3
b0 4
b0 5
b0 6
b1 7
b0000000000000000 8
b0 9
b0000000000000100 :
b0 ;
b0 <
b001 =
b00000000 >
b00000000 ?
b000000000000000000000000 @
b000000000000000000000000 A
b00000 B
b00000000 C
b000 D
b0 E
b0 F
b00000000000000000000000 G
b0 H
b0 I
b0 J
#18
b00000000 !
b1 "
b0 #
b1 $
b0 %
b0 &
b000 '
b000 (
b00000000 )
b0 *
b00001000 +
b1 ,
b0 -
b110000100010010100111001 .
b00000000 /
b00000000 0
b0 1
b1 2
b0 3
b0 4
b0 5
b0 6
b1 7
b0000000000000000 8
b0 9
b0000000000000100 :
b0 ;
b0 <
b001 =
b00000000 >
b00000000 ?
b000000000000000000000000 @
b000000000000000000000000 A
b00000 B
b00000000 C
b000 D
b0 E
b0 F
b00000000000000000000000 G
b0 H
b1 I
b0 J
#19
b00000000 !
b1 "
b0 #
b1 $
b0 %
b0 &
b000 '
b000 (
b00000000 )
b0 *
b00001000 +
b1 ,
b0 -
b110000100010010100111001 .
b00000000 /
b00000000 0
b0 1
b1 2
b0 3
b0 4
b0 5
b0 6
b1 7
b0000000000000000 8
b0 9
b0000000000000100 :
b0 ;
b0 <
b001 =
b00000000 >
b00000000 ?
b000000000000000000000000 @
b000000000000000000000000 A
b00000 B
b00000000 C
b000 D
b0 E
b0 F
b00000000000000000000000 G
b0 H
b0 I
b0 J
#20
b00000000 !
b1 "
b0 #
b1 $
b0 %
b0 &
b000 '
b000 (
b00000000 )
b0 *
b00001000 +
b1 ,
b0 -
b110000100010010100111001 .
b00000000 /
b00000000 0
b0 1
b1 2
b0 3
b0 4
b0 5
b0 6
b1 7
b0000000000000000 8
b0 9
b0000000000000100 :
b0 ;
b0 <
b001 =
b00000000 >
b00000000 ?
b000000000000000000000000 @
b000000000000000000000000 A
b00000 B
b00000000 C
b000 D
b0 E
b0 F
b00000000000000000000000 G
b0 H
b1 I
b0 J
#21
b00000000 !
b1 "
b0 #
b1 $
b0 %
b0 &
b000 '
b000 (
b00000000 )
b0 *
b00001000 +
b1 ,
b0 -
b110000100010010100111001 .
b00000000 /
b00000000 0
b0 1
b1 2
b0 3
b0 4
b0 5
b0 6
b1 7
b0000000000000000 8
b0 9
b0000000000000100 :
b0 ;
b0 <
b001 =
b00000000 >
b00000000 ?
b000000000000000000000000 @
b000000000000000000000000 A
b00000 B
b00000000 C
b000 D
b0 E
b0 F
b00000000000000000000000 G
b0 H
b0 I
b0 J
#22
b00000000 !
b1 "
b0 #
b1 $
b0 %
b0 &
b000 '
b000 (
b00000000 )
b0 *
b00001000 +
b1 ,
b0 -
b110000100010010100111001 .
b00000000 /
b00000000 0
b0 1
b1 2
b0 3
b0 4
b0 5
b0 6
b1 7
b0000000000000000 8
b0 9
b0000000000000100 :
b0 ;
b0 <
b001 =
b00000000 >
b00000000 ?
b000000000000000000000000 @
b000000000000000000000000 A
b00000 B
b00000000 C
b000 D
b0 E
b0 F
b00000000000000000000000 G
b0 H
b1 I
b0 J
#23
b00000000 !
b1 "
b0 #
b1 $
b0 %
b0 &
b000 '
b000 (
b00000000 )
b0 *
b00001000 +
b1 ,
b0 -
b110000100010010100111001 .
b00000000 /
b00000000 0
b0 1
b1 2
b0 3
b0 4
b0 5
b0 6
b1 7
b0000000000000000 8
b0 9
b0000000000000100 :
b0 ;
b0 <
b001 =
b00000000 >
b00000000 ?
b000000000000000000000000 @
b000000000000000000000000 A
b00000 B
b00000000 C
b000 D
b0 E
b0 F
b00000000000000000000000 G
b0 H
b0 I
b0 J
#24
b00000000 !
b1 "
b0 #
b1 $
b0 %
b0 &
b000 '
b000 (
b00000000 )
b0 *
b00001000 +
b1 ,
b0 -
b110000100010010100111001 .
b00000000 /
b00000000 0
b0 1
b1 2
b0 3
b0 4
b0 5
b0 6
b1 7
b0000000000000000 8
b0 9
b0000000000000100 :
b0 ;
b0 <
b001 =
b00000000 >
b00000000 ?
b000000000000000000000000 @
b000000000000000000000000 A
b00000 B
b00000000 C
b000 D
b0 E
b0 F
b00000000000000000000000 G
b0 H
b1 I
b0 J
#25
b00000000 !
b1 "
b0 #
b1 $
b0 %
b0 &
b000 '
b000 (
b00000000 )
b0 *
b00001000 +
b1 ,
b0 -
b110000100010010100111001 .
b00000000 /
b00000000 0
b0 1
b1 2
b0 3
b0 4
b0 5
b0 6
b1 7
b0000000000000000 8
b0 9
b0000000000000100 :
b0 ;
b0 <
b001 =
b00000000 >
b00000000 ?
b000000000000000000000000 @
b000000000000000000000000 A
b00000 B
b00000000 C
b000 D
b0 E
b0 F
b00000000000000000000000 G
b0 H
b0 I
b0 J
#26
b00000000 !
b1 "
b0 #
b1 $
b0 %
b0 &
b000 '
b000 (
b00000000 )
b0 *
b00001000 +
b1 ,
b0 -
b110000100010010100111001 .
b00000000 /
b00000000 0
b0 1
b1 2
b0 3
b0 4
b0 5
b0 6
b1 7
b0000000000000000 8
b0 9
b0000000000000100 :
b0 ;
b0 <
b001 =
b00000000 >
b00000000 ?
b000000000000000000000000 @
b000000000000000000000000 A
b00000 B
b00000000 C
b000 D
b0 E
b0 F
b00000000000000000000000 G
b0 H
b1 I
b0 J
#27
b00000000 !
b1 "
b0 #
b1 $
b0 %
b0 &
b000 '
b000 (
b00000000 )
b0 *
b00001000 +
b1 ,
b0 -
b110000100010010100111001 .
b00000000 /
b00000000 0
b0 1
b1 2
b0 3
b0 4
b0 5
b0 6
b1 7
b0000000000000000 8
b0 9
b0000000000000100 :
b0 ;
b0 <
b001 =
b00000000 >
b00000000 ?
b000000000000000000000000 @
b000000000000000000000000 A
b00000 B
b00000000 C
b000 D
b0 E
b0 F
b00000000000000000000000 G
b0 H
b0 I
b0 J
#28
b00000000 !
b1 "
b0 #
b1 $
b0 %
b0 &
b000 '
b000 (
b00000000 )
b0 *
b00001000 +
b1 ,
b0 -
b110000100010010100111001 .
b00000000 /
b00000000 0
b0 1
b1 2
b0 3
b0 4
b0 5
b0 6
b1 7
b0000000000000000 8
b0 9
b0000000000000100 :
b0 ;
b0 <
b001 =
b00000000 >
b00000000 ?
b000000000000000000000000 @
b000000000000000000000000 A
b00000 B
b00000000 C
b000 D
b0 E
b0 F
b00000000000000000000000 G
b0 H
b1 I
b0 J
#29
b00000000 !
b1 "
b0 #
b1 $
b0 %
b0 &
b000 '
b000 (
b00000000 )
b0 *
b00001000 +
b1 ,
b0 -
b110000100010010100111001 .
b00000000 /
b00000000 0
b0 1
b1 2
b0 3
b0 4
b0 5
b0 6
b1 7
b0000000000000000 8
b0 9
b0000000000000100 :
b0 ;
b0 <
b001 =
b00000000 >
b00000000 ?
b000000000000000000000000 @
b000000000000000000000000 A
b00000 B
b00000000 C
b000 D
b0 E
b0 F
b00000000000000000000000 G
b0 H
b0 I
b0 J
#30
b00000000 !
b1 "
b0 #
b1 $
b0 %
b0 &
b000 '
b000 (
b00000000 )
b0 *
b00001000 +
b1 ,
b0 -
b110000100010010100111001 .
b00000000 /
b00000000 0
b0 1
b1 2
b0 3
b0 4
b0 5
b0 6
b1 7
b0000000000000000 8
b0 9
b0000000000000100 :
b0 ;
b0 <
b001 =
b00000000 >
b00000000 ?
b000000000000000000000000 @
b000000000000000000000000 A
b00000 B
b00000000 C
b000 D
b0 E
b0 F
b00000000000000000000000 G
b0 H
b1 I
b0 J
#31
b00000000 !
b1 "
b0 #
b1 $
b0 %
b0 &
b000 '
b000 (
b00000000 )
b0 *
b00001000 +
b1 ,
b0 -
b110000100010010100111001 .
b00000000 /
b00000000 0
b0 1
b1 2
b0 3
b0 4
b0 5
b0 6
b1 7
b0000000000000000 8
b0 9
b0000000000000100 :
b0 ;
b0 <
b001 =
b00000000 >
b00000000 ?
b000000000000000000000000 @
b000000000000000000000000 A
b00000 B
b00000000 C
b000 D
b0 E
b0 F
b00000000000000000000000 G
b0 H
b0 I
b0 J
#32
b00000000 !
b1 "
b0 #
b1 $
b0 %
b0 &
b000 '
b000 (
b00000000 )
b0 *
b00001000 +
b1 ,
b0 -
b110000100010010100111001 .
b00000000 /
b00000000 0
b0 1
b1 2
b0 3
b0 4
b0 5
b0 6
b1 7
b0000000000000000 8
b0 9
b0000000000000100 :
b0 ;
b0 <
b001 =
b00000000 >
b00000000 ?
b000000000000000000000000 @
b000000000000000000000000 A
b00000 B
b00000000 C
b000 D
b0 E
b0 F
b00000000000000000000000 G
b0 H
b1 I
b1 J
#33
b00000000 !
b1 "
b0 #
b1 $
b0 %
b0 &
b000 '
b000 (
b00000000 )
b0 *
b00001000 +
b1 ,
b0 -
b110000100010010100111001 .
b00000000 /
b00000000 0
b0 1
b1 2
b0 3
b0 4
b0 5
b0 6
b1 7
b0000000000000000 8
b0 9
b0000000000000100 :
b0 ;
b0 <
b001 =
b00000000 >
b00000000 ?
b000000000000000000000000 @
b000000000000000000000000 A
b00000 B
b00000000 C
b000 D
b0 E
b0 F
b00000000000000000000000 G
b0 H
b0 I
b1 J
#34
b00000000 !
b1 "
b0 #
b1 $
b0 %
b0 &
b000 '
b000 (
b00000000 )
b0 *
b00001000 +
b1 ,
b0 -
b110000100010010100111001 .
b00000000 /
b00000000 0
b0 1
b1 2
b0 3
b0 4
b0 5
b0 6
b1 7
b0000000000000000 8
b0 9
b0000000000000100 :
b0 ;
b0 <
b001 =
b00000000 >
b00000000 ?
b000000000000000000000000 @
b000000000000000000000000 A
b00000 B
b00000000 C
b000 D
b0 E
b0 F
b00000000000000000000000 G
b0 H
b1 I
b1 J
#35
b00000000 !
b1 "
b0 #
b1 $
b0 %
b0 &
b000 '
b000 (
b00000000 )
b0 *
b00001000 +
b1 ,
b0 -
b110000100010010100111001 .
b00000000 /
b00000000 0
b0 1
b1 2
b0 3
b0 4
b0 5
b0 6
b1 7
b0000000000000000 8
b0 9
b0000000000000100 :
b0 ;
b0 <
b001 =
b00000000 >
b00000000 ?
b000000000000000000000000 @
b000000000000000000000000 A
b00000 B
b00000000 C
b000 D
b0 E
b0 F
b00000000000000000000000 G
b0 H
b0 I
b1 J
#36
b00000000 !
b1 "
b0 #
b1 $
b0 %
b0 &
b000 '
b000 (
b00000000 )
b0 *
b00001000 +
b1 ,
b0 -
b110000100010010100111001 .
b00000000 /
b00000000 0
b0 1
b1 2
b0 3
b0 4
b0 5
b0 6
b1 7
b0000000000000000 8
b0 9
b0000000000000100 :
b0 ;
b0 <
b001 =
b00000000 >
b00000000 ?
b000000000000000000000000 @
b000000000000000000000000 A
b00000 B
b00000000 C
b000 D
b0 E
b0 F
b00000000000000000000000 G
b0 H
b1 I
b1 J
#37
b00000000 !
b1 "
b0 #
b1 $
b0 %
b0 &
b000 '
b000 (
b00000000 )
b0 *
b00001000 +
b1 ,
b0 -
b110000100010010100111001 .
b00000000 /
b00000000 0
b0 1
b1 2
b0 3
b0 4
b0 5
b0 6
b1 7
b0000000000000000 8
b0 9
b0000000000000100 :
b0 ;
b0 <
b001 =
b00000000 >
b00000000 ?
b000000000000000000000000 @
b000000000000000000000000 A
b00000 B
b00000000 C
b000 D
b0 E
b0 F
b00000000000000000000000 G
b0 H
b0 I
b1 J
#38
b00000000 !
b1 "
b0 #
b1 $
b0 %
b0 &
b000 '
b000 (
b00000000 )
b0 *
b00001000 +
b1 ,
b0 -
b110000100010010100111001 .
b00000000 /
b00000000 0
b0 1
b1 2
b0 3
b0 4
b0 5
b0 6
b1 7
b0000000000000000 8
b0 9
b0000000000000100 :
b0 ;
b0 <
b001 =
b00000000 >
b00000000 ?
b000000000000000000000000 @
b000000000000000000000000 A
b00000 B
b00000000 C
b000 D
b0 E
b0 F
b00000000000000000000000 G
b0 H
b1 I
b1 J
#39
b00000000 !
b1 "
b0 #
b1 $
b0 %
b0 &
b000 '
b000 (
b00000000 )
b0 *
b00001000 +
b1 ,
b0 -
b110000100010010100111001 .
b00000000 /
b00000000 0
b0 1
b1 2
b0 3
b0 4
b0 5
b0 6
b1 7
b0000000000000000 8
b0 9
b0000000000000100 :
b0 ;
b0 <
b001 =
b00000000 >
b00000000 ?
b000000000000000000000000 @
b000000000000000000000000 A
b00000 B
b00000000 C
b000 D
b0 E
b0 F
b00000000000000000000000 G
b0 H
b0 I
b1 J
#40
b00000000 !
b1 "
b0 #
b1 $
b0 %
b0 &
b000 '
b000 (
b00000000 )
b0 *
b00001000 +
b1 ,
b0 -
b110000100010010100111001 .
b00000000 /
b00000000 0
b0 1
b1 2
b0 3
b0 4
b0 5
b0 6
b1 7
b0000000000000000 8
b0 9
b0000000000000100 :
b0 ;
b0 <
b001 =
b00000000 >
b00000000 ?
b000000000000000000000000 @
b000000000000000000000000 A
b00000 B
b00000000 C
b000 D
b0 E
b0 F
b00000000000000000000000 G
b0 H
b1 I
b1 J
#41
b00000000 !
b1 "
b0 #
b1 $
b0 %
b0 &
b000 '
b000 (
b00000000 )
b0 *
b00001000 +
b1 ,
b0 -
b110000100010010100111001 .
b00000000 /
b00000000 0
b0 1
b1 2
b0 3
b0 4
b0 5
b0 6
b1 7
b0000000000000000 8
b0 9
b0000000000000100 :
b0 ;
b0 <
b001 =
b00000000 >
b00000000 ?
b000000000000000000000000 @
b000000000000000000000000 A
b00000 B
b00000000 C
b000 D
b0 E
b0 F
b00000000000000000000000 G
b0 H
b0 I
b1 J
#42
b00000000 !
b1 "
b0 #
b1 $
b0 %
b0 &
b000 '
b000 (
b00000000 )
b0 *
b00001000 +
b1 ,
b0 -
b110000100010010100111001 .
b00000000 /
b00000000 0
b0 1
b1 2
b0 3
b0 4
b0 5
b0 6
b1 7
b0000000000000000 8
b0 9
b0000000000000100 :
b0 ;
b0 <
b001 =
b00000000 >
b00000000 ?
b000000000000000000000000 @
b000000000000000000000000 A
b00000 B
b00000000 C
b000 D
b0 E
b0 F
b00000000000000000000000 G
b0 H
b1 I
b1 J
#43
b00000000 !
b1 "
b0 #
b1 $
b0 %
b0 &
b000 '
b000 (
b00000000 )
b0 *
b00001000 +
b1 ,
b0 -
b110000100010010100111001 .
b00000000 /
b00000000 0
b0 1
b1 2
b0 3
b0 4
b0 5
b0 6
b1 7
b0000000000000000 8
b0 9
b0000000000000100 :
b0 ;
b0 <
b001 =
b00000000 >
b00000000 ?
b000000000000000000000000 @
b000000000000000000000000 A
b00000 B
b00000000 C
b000 D
b0 E
b0 F
b00000000000000000000000 G
b0 H
b0 I
b1 J
#44
b00000000 !
b1 "
b0 #
b1 $
b0 %
b0 &
b000 '
b000 (
b00000000 )
b0 *
b00001000 +
b1 ,
b0 -
b110000100010010100111001 .
b00000000 /
b00000000 0
b0 1
b1 2
b0 3
b0 4
b0 5
b0 6
b1 7
b0000000000000000 8
b0 9
b0000000000000100 :
b0 ;
b0 <
b001 =
b00000000 >
b00000000 ?
b000000000000000000000000 @
b000000000000000000000000 A
b00000 B
b00000000 C
b000 D
b0 E
b0 F
b00000000000000000000000 G
b0 H
b1 I
b1 J
#45
b00000000 !
b1 "
b0 #
b1 $
b0 %
b0 &
b000 '
b000 (
b00000000 )
b0 *
b00001000 +
b1 ,
b0 -
b110000100010010100111001 .
b00000000 /
b00000000 0
b0 1
b1 2
b0 3
b0 4
b0 5
b0 6
b1 7
b0000000000000000 8
b0 9
b0000000000000100 :
b0 ;
b0 <
b001 =
b00000000 >
b00000000 ?
b000000000000000000000000 @
b000000000000000000000000 A
b00000 B
b00000000 C
b000 D
b0 E
b0 F
b00000000000000000000000 G
b0 H
b0 I
b1 J
#46
b00000000 !
b1 "
b0 #
b1 $
b0 %
b0 &
b000 '
b000 (
b00000000 )
b0 *
b00001000 +
b1 ,
b0 -
b110000100010010100111001 .
b00000000 /
b00000000 0
b0 1
b1 2
b0 3
b0 4
b0 5
b0 6
b1 7
b0000000000000000 8
b0 9
b0000000000000100 :
b0 ;
b0 <
b001 =
b00000000 >
b00000000 ?
b000000000000000000000000 @
b000000000000000000000000 A
b00000 B
b00000000 C
b000 D
b0 E
b0 F
b00000000000000000000000 G
b0 H
b1 I
b1 J
#47
b00000000 !
b1 "
b0 #
b1 $
b0 %
b0 &
b000 '
b000 (
b00000000 )
b0 *
b00001000 +
b1 ,
b0 -
b110000100010010100111001 .
b00000000 /
b00000000 0
b0 1
b1 2
b0 3
b0 4
b0 5
b0 6
b1 7
b0000000000000000 8
b0 9
b0000000000000100 :
b0 ;
b0 <
b001 =
b00000000 >
b00000000 ?
b000000000000000000000000 @
b000000000000000000000000 A
b00000 B
b00000000 C
b000 D
b0 E
b0 F
b00000000000000000000000 G
b0 H
b0 I
b1 J
#48
b00000000 !
b1 "
b0 #
b1 $
b0 %
b0 &
b000 '
b000 (
b00000000 )
b0 *
b00001000 +
b1 ,
b0 -
b110000100010010100111001 .
b00000000 /
b00000000 0
b0 1
b1 2
b0 3
b0 4
b0 5
b0 6
b1 7
b0000000000000000 8
b0 9
b0000000000000100 :
b0 ;
b0 <
b001 =
b00000000 >
b00000000 ?
b000000000000000000000000 @
b000000000000000000000000 A
b00000 B
b00000000 C
b000 D
b0 E
b0 F
b00000000000000000000000 G
b0 H
b1 I
b1 J
#49
b00000000 !
b1 "
b0 #
b1 $
b0 %
b0 &
b000 '
b000 (
b00000000 )
b0 *
b00001000 +
b1 ,
b0 -
b110000100010010100111001 .
b00000000 /
b00000000 0
b0 1
b1 2
b0 3
b0 4
b0 5
b0 6
b1 7
b0000000000000000 8
b0 9
b0000000000000100 :
b0 ;
b0 <
b001 =
b00000000 >
b00000000 ?
b000000000000000000000000 @
b000000000000000000000000 A
b00000 B
b00000000 C
b000 D
b0 E
b0 F
b00000000000000000000000 G
b0 H
b0 I
b1 J
